ply
format ascii 1.0
comment Created by Blender 2.80 (sub 75) - www.blender.org, source file: 'Asteroid_Small_6X.blend'
element vertex 934
property float x
property float y
property float z
property float nx
property float ny
property float nz
property float s
property float t
element face 1522
property list uchar uint vertex_indices
end_header
-0.441455 0.259852 -0.049295 -0.958098 0.270638 -0.093722 0.114746 0.171811
-0.415341 0.362224 -0.058290 -0.936247 0.330027 -0.120396 0.113499 0.205088
-0.400610 0.348368 -0.142897 -0.905606 0.316080 -0.282754 0.086832 0.204162
-0.421562 0.256077 -0.161055 -0.915220 0.306345 -0.261696 0.077600 0.174835
-0.459327 0.148571 -0.165718 -0.883602 0.433851 -0.175970 0.073581 0.136576
-0.473307 0.153206 -0.033649 -0.901975 0.419599 -0.101657 0.118845 0.134704
-0.472116 0.173474 0.104436 -0.872738 0.486190 -0.043794 0.165714 0.141053
-0.437614 0.280446 0.070053 -0.945250 0.319865 0.064608 0.153778 0.178269
-0.411490 0.384340 0.040707 -0.911435 0.399426 0.098605 0.143560 0.211760
-0.513384 -0.182802 0.116814 -0.982879 -0.183416 0.015687 0.841580 0.593860
-0.533904 -0.078100 0.134412 -0.964873 -0.262215 -0.014832 0.812843 0.572391
-0.524008 -0.126519 0.027563 -0.975494 -0.219245 0.018189 0.849809 0.559430
-0.504893 -0.250626 0.004413 -0.986999 -0.159124 -0.021821 0.884422 0.584470
-0.486077 -0.385924 0.001926 -0.980560 -0.188330 -0.054933 0.916298 0.617018
-0.493897 -0.300702 0.117309 -0.988983 -0.144688 0.031159 0.868862 0.622761
-0.499206 -0.241127 0.208791 -0.983093 -0.182867 -0.005066 0.833148 0.629391
-0.519098 -0.145164 0.229986 -0.965423 -0.248573 -0.078219 0.805762 0.610630
-0.546801 -0.053915 0.236131 -0.942473 -0.309763 -0.125614 0.782511 0.589422
0.260828 0.407533 0.481580 0.617634 0.493393 0.612415 0.743394 0.341050
0.261786 0.320195 0.543605 0.539201 0.445174 0.714866 0.709588 0.339072
0.319991 0.316618 0.496343 0.613880 0.508744 0.603565 0.717477 0.317880
0.337834 0.409048 0.382706 0.691946 0.510269 0.510666 0.762504 0.304023
0.260828 0.407533 0.481580 0.617634 0.493393 0.612415 0.283734 0.506423
0.337834 0.409048 0.382706 0.691946 0.510269 0.510666 0.246352 0.527524
0.329298 0.511928 0.284421 0.648213 0.598804 0.470351 0.204115 0.503137
0.265231 0.500998 0.384158 0.650136 0.586169 0.483413 0.241662 0.487887
0.217535 0.513426 0.430563 0.619587 0.599811 0.506241 0.258357 0.472151
0.208385 0.467004 0.493077 0.525407 0.524888 0.669607 0.284091 0.479036
0.208385 0.467004 0.493077 0.525407 0.524888 0.669607 0.754916 0.364895
0.182001 0.450869 0.515884 0.329569 0.480453 0.812708 0.745006 0.372567
0.197530 0.383418 0.547372 0.377972 0.475570 0.794305 0.722686 0.363370
0.205143 0.315809 0.582952 0.401868 0.407239 0.820124 0.700380 0.357270
-0.445070 0.085865 0.563536 -0.737907 0.507523 0.444807 0.329700 0.128257
-0.535225 0.051401 0.449156 -0.735069 0.559771 0.382458 0.287945 0.098516
-0.556695 -0.019294 0.506751 -0.731407 0.471450 0.492691 0.310468 0.075723
-0.459617 0.025297 0.603821 -0.728324 0.388287 0.564592 0.346589 0.109317
-0.359706 0.066499 0.699546 -0.684957 0.306467 0.660939 0.383118 0.142125
-0.353061 0.113625 0.677951 -0.699057 0.443068 0.561205 0.372298 0.156182
-0.341847 0.184369 0.629385 -0.726279 0.484695 0.487381 0.351707 0.177228
-0.421150 0.163228 0.507786 -0.767052 0.517930 0.378582 0.307406 0.153577
-0.513204 0.132685 0.356278 -0.747429 0.615589 0.249763 0.253079 0.123824
0.405646 0.403659 0.282250 0.821284 0.355113 0.446455 0.779081 0.267269
0.396369 0.283733 0.367378 0.887936 0.198096 0.415021 0.730342 0.270199
0.447592 0.270133 0.269068 0.875637 0.260262 0.406781 0.744225 0.235902
0.449259 0.333483 0.224901 0.913785 0.232032 0.333354 0.769987 0.235001
0.405646 0.403659 0.282250 0.821284 0.355113 0.446455 0.688065 0.598357
0.449259 0.333483 0.224901 0.913785 0.232032 0.333354 0.677916 0.631042
0.458136 0.354050 0.183367 0.957610 0.219245 0.186773 0.661808 0.630862
0.447316 0.412546 0.170607 0.964660 0.149754 0.216712 0.650018 0.613564
0.447450 0.485587 0.140415 0.971526 0.096805 0.216102 0.630423 0.594864
0.434629 0.511727 0.166392 0.788598 0.392529 0.473251 0.635371 0.582567
0.405646 0.403659 0.282250 0.821284 0.355113 0.446455 0.210193 0.548081
0.434629 0.511727 0.166392 0.788598 0.392529 0.473251 0.157427 0.531316
0.419171 0.548512 0.139706 0.487899 0.755303 0.437513 0.146449 0.519195
0.384102 0.518672 0.205921 0.575121 0.631397 0.520096 0.173953 0.516477
0.352473 0.310527 0.462460 0.814234 0.352519 0.461226 0.721572 0.303658
0.362027 0.275833 0.455059 0.917112 0.134190 0.375317 0.713457 0.295363
0.222960 0.582345 0.322877 0.520554 0.774316 0.359722 0.217119 0.460108
0.138216 0.639171 0.279527 0.278573 0.943724 0.178076 0.204414 0.425892
0.093626 0.637419 0.354115 0.222388 0.929319 0.294717 0.230307 0.414602
0.174245 0.573426 0.405799 0.495346 0.745293 0.446242 0.247180 0.448525
0.284262 0.584320 0.229194 0.483444 0.817103 0.313974 0.182973 0.475825
0.196291 0.631117 0.189194 0.282388 0.956603 0.071566 0.172927 0.441500
-0.106941 0.587881 -0.109703 -0.248177 0.906980 -0.340220 0.090252 0.327883
-0.183909 0.520904 -0.175315 -0.601215 0.778985 -0.177953 0.070589 0.292484
-0.234887 0.498301 -0.110358 -0.591906 0.783166 -0.190405 0.093092 0.276089
-0.179305 0.569299 -0.033325 -0.670522 0.701163 -0.242317 0.117518 0.305368
-0.145329 0.641812 0.047574 -0.716422 0.665731 -0.208594 0.143747 0.327588
-0.111096 0.655318 0.002227 -0.301218 0.838893 -0.453291 0.130225 0.337758
-0.064776 0.651333 0.006766 0.153356 0.857906 -0.490341 0.128166 0.351289
-0.015374 0.614271 -0.041860 0.144047 0.881985 -0.448714 0.107266 0.363005
0.060208 0.565755 -0.118068 0.178442 0.882260 -0.435560 0.073638 0.383487
-0.030227 0.560064 -0.173848 0.201758 0.908383 -0.366161 0.061273 0.348837
-0.072880 0.556007 -0.224130 0.227821 0.885830 -0.404187 0.048329 0.330229
-0.110623 0.573737 -0.192483 -0.194037 0.958892 -0.207007 0.063048 0.321048
-0.148763 0.545101 -0.202481 -0.603778 0.788965 -0.113895 0.060927 0.305702
-0.004007 0.165894 -0.579235 -0.285592 0.319315 -0.903562 0.318746 0.740793
-0.085030 0.165987 -0.550559 -0.326792 0.316996 -0.890316 0.345584 0.734887
-0.074636 0.211368 -0.531746 -0.304941 0.457259 -0.835383 0.348023 0.750767
-0.014000 0.231064 -0.545287 -0.279305 0.474258 -0.834864 0.330182 0.761683
0.049853 0.251686 -0.551917 -0.123753 0.537187 -0.834315 0.312152 0.773971
0.064133 0.177791 -0.592990 -0.102451 0.359386 -0.927519 0.298040 0.750084
0.053812 0.097174 -0.613094 -0.154668 0.151830 -0.976196 0.293149 0.723459
-0.020600 0.086577 -0.592484 -0.325297 0.122990 -0.937559 0.316671 0.714541
-0.111448 0.091226 -0.557053 -0.375286 0.108737 -0.920499 0.347506 0.709555
0.156755 0.182222 -0.502639 0.876858 0.222602 -0.426038 0.945472 0.122711
0.129837 0.184486 -0.560562 0.776116 0.283212 -0.563372 0.965312 0.115962
0.116773 0.265569 -0.515211 0.644276 0.560778 -0.520005 0.964941 0.146422
0.150992 0.264372 -0.455382 0.758324 0.480178 -0.440809 0.943430 0.154538
0.185274 0.247525 -0.408980 0.746849 0.408948 -0.524369 0.922736 0.155980
0.183620 0.178996 -0.442996 0.833766 0.211432 -0.509995 0.924465 0.129459
0.183920 0.111121 -0.463142 0.869320 0.175909 -0.461837 0.922695 0.105774
0.162036 0.103571 -0.520611 0.878353 0.147740 -0.454543 0.940847 0.096228
0.126415 0.105443 -0.584030 0.764458 0.097293 -0.637257 0.963856 0.089188
-0.407546 0.314977 0.168278 -0.886563 0.432386 0.164220 0.186070 0.193887
-0.449415 0.218432 0.210540 -0.846919 0.531144 0.023408 0.201642 0.158836
-0.410293 0.279706 0.295636 -0.842891 0.526566 0.110569 0.229913 0.184871
-0.362072 0.368038 0.243271 -0.847316 0.513504 0.135228 0.210413 0.218221
-0.330713 0.429260 0.189249 -0.782647 0.600116 0.165105 0.191117 0.240312
-0.375382 0.404953 0.126369 -0.813562 0.525193 0.249428 0.170242 0.224163
0.219973 -0.186453 0.563709 0.377239 -0.554155 0.741997 0.123444 0.848267
0.153196 -0.279867 0.529929 0.439650 -0.509018 0.739982 0.155234 0.823673
0.237239 -0.316875 0.442886 0.476821 -0.528825 0.702109 0.182548 0.856466
0.316781 -0.226978 0.475939 0.457228 -0.591937 0.663686 0.151561 0.884178
0.369257 -0.140553 0.527247 0.540605 -0.509873 0.669118 0.118149 0.900578
0.262429 -0.107612 0.601799 0.374493 -0.439711 0.816309 0.095032 0.863465
0.134511 -0.086534 0.662158 0.306833 -0.340739 0.888638 0.076821 0.820256
0.113157 -0.168395 0.629971 0.329112 -0.477889 0.814386 0.105007 0.810440
0.097263 -0.247403 0.582733 0.377239 -0.493423 0.783685 0.135525 0.803510
0.018257 0.516512 -0.239097 0.293710 0.818903 -0.493057 0.954458 0.275524
-0.037063 0.503839 -0.287473 0.240333 0.795465 -0.556261 0.977792 0.267150
-0.072880 0.556007 -0.224130 0.227821 0.885830 -0.404187 0.980230 0.296698
-0.030227 0.560064 -0.173848 0.201758 0.908383 -0.366161 0.960288 0.305599
0.060208 0.565755 -0.118068 0.178442 0.882260 -0.435560 0.925477 0.310678
0.104449 0.520804 -0.182559 0.277444 0.807306 -0.520829 0.920492 0.281136
0.136360 0.461601 -0.243635 0.364330 0.710624 -0.601856 0.918492 0.250660
0.061946 0.448859 -0.306954 0.385144 0.734672 -0.558428 0.950129 0.240511
0.007134 0.429749 -0.366454 0.294107 0.764275 -0.573901 0.975214 0.228263
-0.089033 0.504167 0.460758 -0.173620 0.560625 0.809626 0.751169 0.464414
-0.200291 0.512822 0.423827 -0.273446 0.625111 0.731040 0.752890 0.503244
-0.228051 0.414761 0.495117 -0.150487 0.602741 0.783593 0.711450 0.504103
-0.112763 0.379568 0.532773 -0.079409 0.498611 0.863155 0.702636 0.462687
0.011652 0.346799 0.567303 -0.084933 0.392865 0.915647 0.696940 0.418841
0.036864 0.471281 0.504885 -0.111423 0.510056 0.852870 0.743101 0.420182
0.055210 0.578736 0.437341 -0.077975 0.615711 0.784082 0.784807 0.422408
-0.063363 0.592636 0.400854 -0.200537 0.655812 0.727775 0.787345 0.463157
-0.169910 0.579433 0.374839 -0.308847 0.683370 0.661489 0.781692 0.499062
-0.168861 0.388466 -0.348780 -0.480331 0.590564 -0.648457 0.413707 0.810300
-0.234853 0.308835 -0.370189 -0.539781 0.602435 -0.587939 0.424100 0.776993
-0.272964 0.339605 -0.298570 -0.602802 0.560320 -0.567980 0.449992 0.789576
-0.205562 0.434751 -0.274341 -0.546678 0.572832 -0.610706 0.439861 0.828112
-0.138094 0.512389 -0.261061 -0.444990 0.609394 -0.656178 0.426814 0.860252
-0.108329 0.456342 -0.329509 -0.369518 0.622517 -0.689840 0.403611 0.839492
-0.064745 0.385415 -0.411285 -0.286874 0.627674 -0.723655 0.373748 0.814859
-0.126700 0.332938 -0.424093 -0.386517 0.590381 -0.708518 0.386120 0.790782
-0.190460 0.274783 -0.438401 -0.415113 0.601306 -0.682669 0.397991 0.764957
0.093499 0.633283 0.037553 0.182897 0.942534 -0.279550 0.128364 0.401706
-0.049092 0.671538 0.048857 0.163213 0.954192 -0.250618 0.140918 0.358101
-0.064056 0.673761 0.104736 0.033967 0.997345 0.063967 0.157840 0.355930
0.058948 0.657210 0.136590 0.152989 0.987884 -0.025178 0.162207 0.394548
0.260327 0.613423 0.099172 0.247383 0.963988 -0.097507 0.140464 0.459411
0.352896 0.575419 0.010787 0.298105 0.881649 -0.365734 0.105752 0.488251
0.190985 0.573471 -0.053876 0.204169 0.870479 -0.447798 0.089381 0.430977
-0.380425 0.272006 -0.236513 -0.767357 0.427137 -0.478195 0.051165 0.187141
-0.317575 0.364576 -0.230942 -0.582995 0.514298 -0.628925 0.052933 0.224099
-0.272964 0.339605 -0.298570 -0.602802 0.560320 -0.567980 0.024799 0.226679
-0.334557 0.247976 -0.318270 -0.684530 0.533830 -0.496384 0.018612 0.189288
-0.400948 0.150474 -0.326739 -0.735008 0.530992 -0.421644 0.016106 0.149123
-0.436512 0.150512 -0.253772 -0.810144 0.499100 -0.307474 0.042841 0.142003
-0.380970 0.352534 -0.185386 -0.750755 0.390057 -0.533067 0.072949 0.208894
-0.348756 0.377886 -0.196049 -0.556352 0.487533 -0.672872 0.068279 0.221288
0.231831 0.510209 -0.132202 0.290078 0.759392 -0.582324 0.874722 0.278470
0.190985 0.573471 -0.053876 0.204169 0.870479 -0.447798 0.877458 0.314343
0.352896 0.575419 0.010787 0.298105 0.881649 -0.365734 0.819924 0.314862
0.347883 0.495942 -0.089982 0.381268 0.693197 -0.611621 0.833642 0.274694
0.357682 0.407667 -0.174349 0.331034 0.730613 -0.597125 0.840028 0.234519
0.246327 0.436534 -0.206713 0.335734 0.690878 -0.640248 0.879179 0.243334
0.187306 0.029700 -0.509216 0.769402 0.245094 -0.589831 0.925377 0.074775
0.123715 0.030879 -0.588572 0.687918 0.008728 -0.725700 0.958014 0.065260
0.196139 0.069759 -0.458638 0.778588 0.340831 -0.526902 0.915326 0.093790
0.232425 0.043266 -0.439795 0.596179 0.460952 -0.657308 0.900841 0.087710
0.263507 -0.003989 -0.445636 0.573809 0.346110 -0.742210 0.890327 0.072106
0.289042 -0.072517 -0.450614 0.562548 0.131291 -0.816248 0.879616 0.049918
0.200016 -0.045126 -0.520516 0.649464 0.081301 -0.756005 0.918331 0.050196
0.136742 -0.022154 -0.573572 0.638936 -0.028230 -0.768700 0.946650 0.050412
0.132421 0.399060 0.554275 0.035127 0.468795 0.882595 0.721956 0.384522
0.105414 0.311104 0.590071 -0.102237 0.300974 0.948119 0.690932 0.386351
0.145183 0.293429 0.600500 -0.137364 0.233436 0.962615 0.688464 0.372885
0.167737 0.317525 0.594510 0.096194 0.390118 0.915708 0.697207 0.368339
0.139359 0.504432 0.492407 0.110599 0.555742 0.823939 0.760701 0.389753
0.455175 0.375588 0.093314 0.986969 0.108921 -0.118290 0.630390 0.635853
0.474695 0.233869 0.109443 0.978423 0.159337 -0.131443 0.654457 0.678797
0.467822 0.182532 0.024657 0.961730 0.207251 -0.179052 0.634289 0.705645
0.440789 0.300394 0.002642 0.963958 0.140965 -0.225532 0.610817 0.671412
0.413007 0.382803 -0.068669 0.977172 0.076327 -0.198157 0.576216 0.654913
0.433735 0.446780 0.028267 0.967711 0.055818 -0.245766 0.599560 0.622000
0.440825 0.519958 0.069591 0.957030 0.185797 -0.222602 0.603396 0.593713
0.451232 0.499564 0.101529 0.991668 0.114048 -0.059420 0.616461 0.595936
0.465932 0.320531 0.159901 0.985229 0.165319 0.044282 0.658901 0.644794
0.476580 0.248303 0.173451 0.984069 0.177557 0.006989 0.672791 0.666014
0.346428 0.581906 0.150095 0.406232 0.880306 0.244942 0.153127 0.492481
0.397345 0.574302 0.092574 0.386303 0.918546 0.083743 0.131272 0.506896
0.424418 0.255307 -0.094118 0.962737 0.194525 -0.187750 0.585887 0.697980
0.457307 0.143591 -0.077385 0.946165 0.280801 -0.160955 0.607545 0.730799
0.449220 0.119487 -0.174470 0.946623 0.311502 -0.082583 0.581069 0.751123
0.417184 0.224835 -0.186552 0.967101 0.247505 -0.058443 0.561478 0.719824
0.403396 0.282150 -0.203821 0.981109 0.189306 -0.039521 0.547761 0.704408
0.402785 0.331700 -0.149229 0.986785 0.081423 -0.140019 0.557789 0.681609
-0.266301 -0.165665 -0.441303 -0.415998 -0.381756 -0.825312 0.393057 0.613944
-0.284642 -0.084492 -0.465604 -0.408399 -0.248817 -0.878231 0.399416 0.642059
-0.175023 -0.107490 -0.513196 -0.370403 -0.307718 -0.876400 0.359444 0.641342
-0.162900 -0.171310 -0.486113 -0.320078 -0.478713 -0.817530 0.355093 0.618151
-0.137664 -0.192727 -0.481055 -0.235023 -0.499405 -0.833857 0.346277 0.610881
-0.162588 -0.199528 -0.466709 -0.322306 -0.433637 -0.841456 0.355532 0.606453
-0.158732 -0.260394 -0.447416 -0.364452 -0.237251 -0.900449 0.353775 0.584134
-0.237743 -0.269825 -0.407509 -0.461989 -0.308969 -0.831294 0.384003 0.576425
-0.320709 -0.288898 -0.351642 -0.509445 -0.366527 -0.778497 0.417062 0.564667
-0.360876 -0.183182 -0.379898 -0.492752 -0.395520 -0.775048 0.429290 0.602019
-0.420932 -0.090847 -0.388111 -0.545427 -0.368023 -0.753014 0.449306 0.632137
-0.376461 -0.081692 -0.422646 -0.458449 -0.334513 -0.823359 0.431917 0.638247
-0.355203 -0.061309 -0.440003 -0.397198 -0.225593 -0.889553 0.424425 0.646251
0.009666 -0.472007 -0.222587 0.042756 -0.989074 -0.140996 0.338353 0.396449
-0.097409 -0.476167 -0.271836 0.142766 -0.985839 -0.087893 0.360223 0.429198
-0.044567 -0.458615 -0.343797 0.200293 -0.960997 -0.190588 0.331844 0.440588
0.060629 -0.458810 -0.309684 0.031281 -0.966277 -0.255501 0.308407 0.412037
0.166428 -0.473337 -0.263619 -0.066408 -0.969207 -0.237098 0.287398 0.379799
0.120298 -0.479670 -0.164487 -0.082430 -0.984466 -0.154973 0.317861 0.360677
0.068575 -0.496467 -0.050125 0.003845 -0.956938 -0.290231 0.352047 0.337661
-0.049744 -0.494690 -0.110522 0.090304 -0.969359 -0.228370 0.375216 0.374706
-0.164017 -0.495383 -0.179244 0.112003 -0.981079 -0.157842 0.396062 0.414095
-0.064989 0.283608 -0.491585 -0.314554 0.550951 -0.772942 0.355425 0.776530
-0.126999 0.239965 -0.495803 -0.322306 0.530106 -0.784265 0.369553 0.756570
-0.002562 0.319045 -0.488385 -0.203101 0.615345 -0.761620 0.340228 0.794361
0.173095 -0.201703 -0.464716 0.242927 -0.525742 -0.815180 0.673704 0.099263
0.047745 -0.190428 -0.497873 0.080569 -0.578112 -0.811945 0.631601 0.109686
0.041750 -0.087056 -0.582389 0.012482 -0.463454 -0.886013 0.609434 0.071175
0.179479 -0.132767 -0.508249 0.318918 -0.488968 -0.811884 0.663642 0.073872
0.294875 -0.154327 -0.440924 0.436201 -0.380047 -0.815607 0.708649 0.072240
0.290820 -0.208801 -0.415040 0.405194 -0.459853 -0.790124 0.715482 0.091097
0.269657 -0.283884 -0.385164 0.389996 -0.449690 -0.803522 0.719756 0.118395
0.163448 -0.280179 -0.417420 0.206671 -0.455947 -0.865658 0.684136 0.128183
0.057034 -0.276339 -0.434225 0.134037 -0.454207 -0.880734 0.650265 0.140116
0.333519 0.170808 -0.380862 0.170873 0.364879 -0.915220 0.867808 0.133893
0.253116 0.174912 -0.392392 0.276742 0.349864 -0.894986 0.894551 0.134390
0.247497 0.248910 -0.360942 0.274758 0.488662 -0.828059 0.895280 0.162075
0.310043 0.266566 -0.337059 0.179266 0.535966 -0.824976 0.872779 0.168677
0.387554 0.281804 -0.312800 0.340403 0.588824 -0.733055 0.846782 0.173137
0.410230 0.166505 -0.369667 0.305490 0.373882 -0.875698 0.843346 0.133069
0.426113 0.056580 -0.398195 0.322306 0.121403 -0.938810 0.838093 0.098978
0.340169 0.069612 -0.409611 0.166265 0.157476 -0.973418 0.865076 0.100311
0.250277 0.099642 -0.418570 0.265023 0.203314 -0.942534 0.895110 0.107742
0.124279 0.348740 -0.378922 0.556963 0.641530 -0.527451 0.940362 0.194478
0.070014 0.346251 -0.445018 0.433912 0.732810 -0.524064 0.967865 0.185009
0.174950 0.370330 -0.309600 0.436842 0.608203 -0.662740 0.914283 0.210207
0.191776 0.316122 -0.338528 0.485549 0.526841 -0.697592 0.911690 0.188444
0.178919 0.290849 -0.371875 0.619526 0.548235 -0.561754 0.919965 0.175859
-0.049368 -0.008407 -0.584090 -0.320963 -0.121067 -0.939299 0.319695 0.682541
-0.155379 -0.010954 -0.538176 -0.398907 -0.079989 -0.913480 0.356213 0.674327
0.032426 0.009648 -0.613722 -0.163945 -0.133305 -0.977386 0.293400 0.694284
0.041750 -0.087056 -0.582389 0.012482 -0.463454 -0.886013 0.285992 0.661267
-0.070131 -0.104398 -0.553376 -0.233467 -0.400800 -0.885891 0.323119 0.648999
0.334974 -0.025617 -0.414814 0.345256 0.081790 -0.934904 0.863336 0.068916
0.245454 0.053784 -0.425611 0.379192 0.256294 -0.889096 0.895530 0.092470
0.418056 -0.040877 -0.395906 0.346446 -0.131230 -0.928831 0.835034 0.069272
0.416840 -0.119498 -0.374776 0.434126 -0.275491 -0.857662 0.827247 0.043803
0.374821 -0.123124 -0.391524 0.543596 -0.161229 -0.823695 0.841937 0.039600
0.359397 -0.124859 -0.407695 0.702139 -0.022309 -0.711661 0.849159 0.037512
0.341924 -0.091728 -0.420198 0.615467 0.107334 -0.780786 0.858365 0.047034
0.264763 0.345481 -0.286695 0.283059 0.632313 -0.721122 0.882539 0.202048
0.354997 0.348326 -0.252543 0.241768 0.705374 -0.666280 0.850457 0.203487
0.226947 0.290949 -0.338085 0.326792 0.558397 -0.762474 0.900000 0.179354
0.378400 -0.199956 -0.363684 0.543077 -0.417188 -0.728660 0.748058 0.081977
0.355382 -0.153841 -0.406011 0.611194 -0.268715 -0.744407 0.731146 0.067861
0.359397 -0.124859 -0.407695 0.702139 -0.022309 -0.711661 0.730479 0.058240
0.374821 -0.123124 -0.391524 0.543596 -0.161229 -0.823695 0.737828 0.056812
0.416840 -0.119498 -0.374776 0.434126 -0.275491 -0.857662 0.752227 0.052389
0.418693 -0.165119 -0.354001 0.538255 -0.397565 -0.743095 0.758869 0.067619
0.437651 -0.183829 -0.322895 0.628986 -0.470595 -0.618763 0.771068 0.073570
0.432246 -0.221515 -0.299759 0.652760 -0.468795 -0.595019 0.776227 0.087410
0.415242 -0.304603 -0.252761 0.686056 -0.485244 -0.542039 0.785499 0.118304
0.353413 -0.295773 -0.321644 0.566424 -0.464095 -0.680990 0.754678 0.117041
-0.105093 -0.541476 0.007787 0.036470 -0.943083 -0.330485 0.413425 0.348492
-0.237999 -0.522115 -0.081061 0.066042 -0.977599 -0.199713 0.435240 0.398086
0.024672 -0.541338 0.042740 0.062044 -0.880062 -0.470717 0.382018 0.316890
0.015149 -0.586583 0.110937 0.017701 -0.883297 -0.468429 0.398896 0.295801
-0.049143 -0.587665 0.102939 -0.020234 -0.927610 -0.372936 0.415732 0.308862
-0.103853 -0.585615 0.119784 -0.183569 -0.958251 -0.219062 0.433779 0.314000
-0.186698 -0.562344 0.089167 -0.099368 -0.978454 -0.180914 0.451801 0.338634
-0.333226 -0.540167 0.013778 -0.010041 -0.990509 -0.137059 0.479360 0.387508
0.541540 -0.103330 -0.104607 0.959014 0.282113 0.025147 0.636147 0.810493
0.551109 -0.138953 -0.091628 0.997772 0.059450 -0.029450 0.644583 0.819018
0.546381 -0.136634 -0.150407 0.994232 -0.069521 -0.081454 0.628009 0.825827
0.545893 -0.114120 -0.175438 0.994507 0.074862 -0.072726 0.618417 0.822942
0.538800 -0.086920 -0.188383 0.978149 0.207709 -0.005310 0.611200 0.817205
0.522136 -0.053756 -0.116182 0.953001 0.299722 0.043580 0.625853 0.797122
0.511773 -0.025028 -0.007777 0.974212 0.225440 -0.008515 0.652786 0.773858
0.530601 -0.094448 0.002151 0.952879 0.301675 0.031159 0.664707 0.793352
0.551248 -0.143925 -0.006862 0.978454 0.206214 -0.005921 0.668617 0.809665
0.493267 -0.028400 -0.270082 0.936979 0.239937 -0.253853 0.576445 0.811861
0.479180 -0.038627 -0.334820 0.949156 -0.022828 -0.313913 0.557627 0.824652
0.471226 0.062568 -0.340043 0.976165 0.173193 -0.130650 0.540639 0.794441
0.461582 0.085022 -0.266660 0.964232 0.264931 0.002319 0.558982 0.775902
0.490829 0.010705 -0.193566 0.903287 0.408734 -0.130192 0.592814 0.788208
0.517800 -0.043946 -0.215056 0.847468 0.488571 -0.207434 0.596664 0.808428
0.525983 -0.075911 -0.249407 0.817560 0.262459 -0.512497 0.593099 0.822421
0.523298 -0.113627 -0.254985 0.773980 -0.139164 -0.617695 0.596402 0.833192
0.493751 -0.115090 -0.282802 0.816919 -0.135472 -0.560564 0.585231 0.839765
0.470476 -0.115452 -0.324596 0.851131 -0.206793 -0.482437 0.571140 0.847448
-0.402469 -0.186800 0.563875 -0.428755 -0.480453 0.765038 0.101533 0.633788
-0.484854 -0.223178 0.487214 -0.533799 -0.492019 0.687674 0.120369 0.599717
-0.431977 -0.349705 0.437342 -0.537858 -0.474715 0.696646 0.166900 0.612380
-0.366225 -0.313392 0.502969 -0.408551 -0.493088 0.768059 0.148955 0.640085
-0.274690 -0.290288 0.558907 -0.299814 -0.502853 0.810694 0.137431 0.674494
-0.294910 -0.164770 0.629717 -0.315500 -0.493484 0.810480 0.089421 0.674110
-0.311199 -0.022220 0.709703 -0.331278 -0.418287 0.845698 0.035601 0.675653
-0.439525 -0.071797 0.611470 -0.479568 -0.406690 0.777520 0.059624 0.625757
-0.538972 -0.112447 0.523259 -0.550462 -0.426038 0.717948 0.080701 0.585318
-0.486598 -0.319144 -0.091500 -0.976257 -0.190130 -0.103610 0.923915 0.579559
-0.510869 -0.188524 -0.088013 -0.966399 -0.255959 0.022950 0.892550 0.547961
-0.495791 -0.242316 -0.184052 -0.939329 -0.339732 -0.046785 0.928871 0.539641
-0.464654 -0.370798 -0.163556 -0.942656 -0.256661 -0.213294 0.953920 0.576234
-0.435919 -0.502023 -0.127918 -0.843379 -0.509568 -0.170324 0.976134 0.615546
-0.464843 -0.447220 -0.073609 -0.934111 -0.327677 -0.141484 0.949413 0.614945
0.063758 -0.369909 0.531921 0.404126 -0.353038 0.843806 0.180115 0.787053
-0.033109 -0.402433 0.540034 -0.002411 -0.169530 0.985504 0.184574 0.751295
-0.011883 -0.432816 0.543725 -0.006043 0.086062 0.996246 0.196262 0.756646
0.028525 -0.433381 0.541650 0.344005 -0.161718 0.924924 0.198896 0.769902
0.079207 -0.457644 0.488277 0.562975 -0.456893 0.688650 0.214226 0.790694
0.147019 -0.398477 0.458820 0.555254 -0.430097 0.711783 0.202234 0.820142
0.028817 -0.298773 0.585187 0.239051 -0.481338 0.843287 0.148224 0.777300
-0.058438 -0.335777 0.571951 0.015137 -0.481368 0.876370 0.158016 0.746031
-0.033312 -0.347462 -0.429092 0.270150 -0.271767 -0.923643 0.306532 0.555111
-0.086735 -0.350019 -0.446159 0.185858 -0.198798 -0.962249 0.325898 0.554478
-0.077268 -0.256673 -0.462072 0.048097 -0.319712 -0.946257 0.324150 0.587941
-0.027333 -0.264046 -0.451396 0.125797 -0.407605 -0.904416 0.306278 0.585006
0.057034 -0.276339 -0.434225 0.134037 -0.454207 -0.880734 0.276887 0.580640
0.040364 -0.348198 -0.407219 0.195379 -0.331034 -0.923154 0.280374 0.554401
0.012477 -0.402782 -0.396092 0.252693 -0.428388 -0.867519 0.288567 0.535110
-0.058725 -0.418458 -0.417935 0.373821 -0.390820 -0.841121 0.313833 0.530061
-0.107881 -0.440747 -0.432677 0.303842 -0.318278 -0.897946 0.331246 0.522905
-0.444345 -0.517950 0.011905 -0.741935 -0.652058 -0.155950 0.945968 0.652425
-0.412829 -0.526149 -0.042532 -0.545610 -0.833674 -0.085269 0.965959 0.644343
-0.405906 -0.537738 0.028205 -0.262123 -0.948790 -0.176183 0.953670 0.665631
-0.426361 -0.549956 0.101857 -0.511887 -0.829035 -0.225013 0.934000 0.682550
-0.460507 -0.559963 0.220042 -0.895444 -0.442885 -0.045015 0.903172 0.708134
-0.471448 -0.483285 0.092987 -0.945738 -0.317911 -0.066897 0.916781 0.661682
-0.370270 -0.384367 -0.269251 -0.536241 -0.397595 -0.744530 0.441315 0.525254
-0.394639 -0.287095 -0.302465 -0.550890 -0.388226 -0.738762 0.447009 0.560678
-0.308228 -0.379620 -0.315682 -0.569231 -0.347545 -0.745079 0.415330 0.530934
-0.304879 -0.447086 -0.281038 -0.583819 -0.461226 -0.668111 0.417520 0.504881
-0.358432 -0.460333 -0.232854 -0.462203 -0.507675 -0.727042 0.441109 0.496275
-0.398670 -0.479406 -0.198757 -0.475784 -0.477798 -0.738426 0.457936 0.487511
-0.417386 -0.387127 -0.233215 -0.600299 -0.378246 -0.704642 0.461029 0.521179
-0.450704 -0.275723 -0.262006 -0.643513 -0.392499 -0.657094 0.470726 0.560509
0.140206 -0.351639 -0.390855 0.201697 -0.386273 -0.900052 0.687529 0.154470
0.040364 -0.348198 -0.407219 0.195379 -0.331034 -0.923154 0.655850 0.165645
0.242032 -0.362472 -0.357922 0.384198 -0.447401 -0.807550 0.722129 0.147073
0.214484 -0.426990 -0.333178 0.342723 -0.552568 -0.759697 0.723238 0.171244
0.112795 -0.407825 -0.373315 0.196417 -0.478957 -0.855556 0.687246 0.175963
0.012477 -0.402782 -0.396092 0.252693 -0.428388 -0.867519 0.654762 0.186337
-0.224054 -0.561087 0.203745 -0.052034 -0.988464 0.142003 0.483842 0.312917
-0.358967 -0.562596 0.151650 0.055208 -0.997314 -0.047639 0.512448 0.353061
-0.088507 -0.593871 0.166833 -0.159307 -0.982177 0.099734 0.437864 0.298031
-0.042088 -0.588359 0.200136 -0.118412 -0.949736 0.289743 0.431650 0.280173
-0.138418 -0.538351 0.295204 -0.101962 -0.927946 0.358440 0.478414 0.270078
-0.224303 -0.489113 0.391200 -0.047975 -0.894101 0.445265 0.522533 0.256617
-0.305196 -0.531066 0.318277 0.088626 -0.933500 0.347362 0.529398 0.295219
-0.400006 -0.568583 0.255804 0.207587 -0.964538 0.162938 0.544093 0.332533
0.130941 -0.558015 0.068600 -0.015870 -0.841151 -0.540513 0.357866 0.290042
0.160676 -0.518103 -0.005783 -0.094607 -0.934416 -0.343333 0.335000 0.308227
0.232134 -0.539935 0.033011 0.109317 -0.937925 -0.329081 0.322340 0.283096
0.207429 -0.575442 0.089126 0.124424 -0.825953 -0.549821 0.341601 0.269103
0.193940 -0.608358 0.131179 0.078829 -0.873257 -0.480789 0.354891 0.257371
0.107556 -0.597973 0.120626 -0.039247 -0.861873 -0.505539 0.375615 0.276016
0.321658 -0.385386 -0.286343 0.576678 -0.505997 -0.641377 0.757794 0.150290
0.382943 -0.394064 -0.209808 0.705252 -0.546922 -0.451064 0.790208 0.152712
0.341981 -0.480490 -0.156482 0.656056 -0.710410 -0.254738 0.795104 0.188804
0.289800 -0.453678 -0.259255 0.524949 -0.621845 -0.581103 0.758227 0.176489
-0.062657 -0.525799 0.364850 -0.163640 -0.916440 0.365123 0.470544 0.236508
0.041421 -0.593489 0.224496 -0.137669 -0.953185 0.269173 0.413126 0.258522
0.139456 -0.605025 0.230982 -0.051943 -0.952361 0.300424 0.387454 0.239523
0.053877 -0.544337 0.368929 -0.088778 -0.920652 0.380139 0.438053 0.215239
-0.013542 -0.482734 0.495272 -0.167241 -0.877987 0.448469 0.482267 0.190051
-0.107472 -0.465991 0.477698 -0.223762 -0.836695 0.499802 0.506842 0.210356
-0.173072 -0.455275 0.470558 -0.196051 -0.805109 0.559740 0.524606 0.223441
-0.181625 -0.472746 0.433000 -0.162389 -0.876400 0.453352 0.519187 0.236313
-0.137732 -0.409676 0.528499 -0.198096 -0.565966 0.800256 0.182777 0.715383
-0.256543 -0.378718 0.508637 -0.290841 -0.531724 0.795373 0.171604 0.675781
-0.264769 -0.426928 0.468568 -0.257332 -0.627033 0.735252 0.191556 0.669391
-0.207753 -0.430695 0.487112 -0.247444 -0.687277 0.682913 0.192225 0.689264
-0.137732 -0.409676 0.528499 -0.198096 -0.565966 0.800256 0.530294 0.197264
-0.207753 -0.430695 0.487112 -0.247444 -0.687277 0.682913 0.539550 0.223119
-0.038702 -0.447776 0.543012 -0.193091 -0.439009 0.877468 0.500266 0.179293
-0.038702 -0.447776 0.543012 -0.193091 -0.439009 0.877468 0.199623 0.747012
-0.163935 -0.319896 0.570898 -0.166265 -0.496811 0.851741 0.148891 0.711083
0.433053 -0.280763 0.193860 0.859462 -0.496048 0.123386 0.752721 0.833448
0.368807 -0.383084 0.193782 0.839564 -0.446211 -0.309824 0.770618 0.870784
0.339419 -0.397320 0.147838 0.870510 -0.392499 -0.296793 0.759255 0.885568
0.363783 -0.351173 0.143390 0.776513 -0.616627 -0.129551 0.750880 0.870924
0.385491 -0.338199 0.100275 0.671072 -0.729270 0.133305 0.734780 0.869881
0.440662 -0.291778 0.081734 0.686819 -0.719993 0.099094 0.719038 0.851641
0.521907 -0.218527 0.020640 0.737999 -0.674734 -0.008728 0.686394 0.829818
0.527209 -0.211428 0.076983 0.812738 -0.536760 0.226478 0.700546 0.819477
0.528156 -0.169241 0.111546 0.887997 -0.230720 0.397717 0.705553 0.803438
0.487499 -0.157480 0.207849 0.898618 -0.292337 0.327036 0.736608 0.789640
0.440693 -0.110366 0.390939 0.918363 -0.268044 0.291025 0.791308 0.752210
0.413548 -0.246061 0.336222 0.909055 -0.290597 0.298532 0.793925 0.803169
0.404950 -0.315574 0.316708 0.934294 -0.209204 0.288614 0.797647 0.827780
0.407560 -0.350280 0.266634 0.927519 -0.372967 0.023835 0.786589 0.845485
0.373824 -0.403381 0.244479 0.863887 -0.486923 -0.128666 0.788842 0.868011
0.378340 -0.257630 0.401260 0.688040 -0.481338 0.542985 0.174775 0.909082
0.308637 -0.350952 0.371639 0.465285 -0.536607 0.703940 0.205379 0.883346
0.353623 -0.392285 0.314365 0.506455 -0.581683 0.636464 0.226939 0.899870
0.391458 -0.341976 0.332917 0.712210 -0.434217 0.551500 0.210417 0.912338
0.404950 -0.315574 0.316708 0.934294 -0.209204 0.288614 0.207044 0.922682
0.413548 -0.246061 0.336222 0.909055 -0.290597 0.298532 0.185155 0.931893
0.440693 -0.110366 0.390939 0.918363 -0.268044 0.291025 0.138918 0.948589
0.413090 -0.144626 0.465293 0.813623 -0.402234 0.419721 0.131801 0.921140
0.199345 -0.502543 -0.110068 -0.180670 -0.967040 -0.179327 0.305760 0.330667
0.237202 -0.496597 -0.202634 -0.097049 -0.970122 -0.222266 0.278831 0.349363
0.267022 -0.511451 -0.144947 -0.067873 -0.980987 -0.181799 0.280853 0.327674
0.253700 -0.522632 -0.071213 -0.050661 -0.986511 -0.155614 0.297570 0.309241
-0.529065 -0.167205 0.328209 -0.934049 -0.301126 -0.191870 0.786383 0.637782
-0.490615 -0.283407 0.282080 -0.977264 -0.205908 -0.050233 0.825404 0.656553
-0.480308 -0.339082 0.353344 -0.959716 -0.275369 0.055361 0.821201 0.686530
-0.533808 -0.208548 0.402677 -0.919889 -0.377239 -0.106906 0.776844 0.664330
-0.595705 -0.081333 0.436463 -0.971160 -0.207099 -0.117893 0.736434 0.639569
-0.568942 -0.064608 0.336316 -0.933195 -0.281442 -0.223334 0.758904 0.613904
-0.235547 0.540108 0.104589 -0.768059 0.631306 -0.107242 0.161985 0.287040
-0.270960 0.485067 0.008415 -0.615406 0.782495 -0.094516 0.131729 0.266154
-0.296092 0.470853 0.104434 -0.608325 0.793634 -0.007538 0.162608 0.257725
-0.276013 0.493579 0.156189 -0.766228 0.641194 -0.041780 0.179236 0.267861
-0.280781 0.492756 0.204719 -0.815760 0.577136 -0.037324 0.195202 0.267369
-0.265328 0.516060 0.228890 -0.817805 0.574694 -0.030213 0.202707 0.276845
-0.227854 0.574068 0.292965 -0.776269 0.628925 0.042817 0.222055 0.300970
-0.188316 0.610995 0.158177 -0.753349 0.652669 -0.080294 0.177748 0.314274
0.015197 0.659074 0.235896 0.041658 0.994049 0.100467 0.195164 0.384528
-0.098263 0.656272 0.200655 -0.134159 0.980407 0.144169 0.187890 0.347882
-0.133375 0.631860 0.294133 -0.233283 0.952178 0.197211 0.219075 0.337967
-0.024315 0.648032 0.317309 -0.063875 0.977416 0.201270 0.222970 0.374689
-0.479140 -0.396935 0.193359 -0.991424 -0.124821 0.038026 0.872780 0.663533
-0.465353 -0.458424 0.287520 -0.980132 -0.152959 0.126225 0.864581 0.699945
-0.500670 0.159667 0.239741 -0.733207 0.678884 -0.038484 0.212520 0.132382
-0.519847 0.119677 0.136560 -0.722282 0.675832 -0.146641 0.177254 0.116902
-0.562393 0.093685 0.163221 -0.764367 0.623249 -0.165136 0.187435 0.100713
-0.546604 0.123021 0.257555 -0.721793 0.691916 0.014435 0.219182 0.112392
-0.458231 0.206294 0.331699 -0.791833 0.592273 0.148839 0.243587 0.155203
-0.551765 -0.021465 0.112635 -0.944151 -0.328410 -0.025575 0.804295 0.553304
-0.562957 0.008533 0.075372 -0.973724 -0.220466 -0.056948 0.805670 0.537081
-0.549008 -0.031656 -0.050529 -0.983551 -0.169500 0.062349 0.845595 0.517534
-0.539537 -0.062731 -0.001511 -0.958770 -0.280221 0.047121 0.841454 0.536876
-0.569013 0.005019 0.220858 -0.950957 -0.294839 -0.093387 0.771494 0.571069
-0.581828 0.042686 0.197956 -0.992523 -0.109104 -0.054201 0.767871 0.556365
-0.350013 -0.405776 0.452211 -0.372143 -0.516129 0.771386 0.184194 0.640753
-0.415104 -0.450388 0.387392 -0.512497 -0.464461 0.722190 0.204446 0.613804
-0.415257 -0.520806 0.343307 -0.393139 -0.555803 0.732444 0.231449 0.609982
-0.343630 -0.468237 0.410438 -0.260201 -0.610614 0.747917 0.209017 0.638867
-0.394479 0.253086 0.442915 -0.810938 0.504166 0.296854 0.281572 0.183001
-0.332262 0.289023 0.537456 -0.769494 0.483871 0.416761 0.314464 0.206832
-0.314280 0.400773 0.435944 -0.809900 0.505844 0.296884 0.274827 0.239885
-0.359839 0.348923 0.370702 -0.846431 0.500626 0.181310 0.253910 0.215472
-0.180388 -0.202175 0.639892 -0.163793 -0.508682 0.845210 0.103227 0.711498
-0.070895 -0.236479 0.631123 0.001404 -0.501328 0.865230 0.118809 0.746370
-0.074541 -0.141354 0.686174 0.032624 -0.424482 0.904813 0.082609 0.749141
-0.187003 -0.095625 0.702332 -0.126743 -0.443007 0.887509 0.062698 0.714352
-0.149931 0.056187 0.690205 0.385876 0.334483 0.859737 0.579890 0.450162
-0.251264 0.103641 0.721154 0.272622 0.357006 0.893399 0.583225 0.488502
-0.261880 0.057795 0.736981 0.224219 0.196966 0.954405 0.566969 0.488235
-0.171117 0.000094 0.717793 0.296365 0.196997 0.934507 0.557953 0.453266
-0.067729 -0.047115 0.698249 0.186071 0.274850 0.943297 0.552564 0.414653
-0.057560 0.005875 0.672182 0.242317 0.458449 0.855007 0.573011 0.414600
-0.034956 0.047535 0.640455 0.230079 0.479110 0.847041 0.591733 0.409400
-0.083220 0.066959 0.649216 0.394177 0.379925 0.836787 0.593277 0.427114
-0.101951 0.106282 0.645945 0.438337 0.312601 0.842677 0.604318 0.436889
-0.155505 0.135642 0.663256 0.381024 0.391125 0.837733 0.607109 0.458169
-0.248969 0.176459 0.681733 0.214118 0.514145 0.830531 0.610147 0.492680
-0.124162 0.230578 0.607293 0.132450 0.412488 0.901242 0.646173 0.454333
-0.239040 0.286527 0.594178 0.050081 0.589618 0.806116 0.657203 0.497008
-0.072812 0.128549 0.623063 0.270180 0.243263 0.931547 0.616205 0.428253
-0.015893 0.132880 0.614032 0.137913 0.117008 0.983490 0.622934 0.409702
-0.007780 0.225791 0.604492 0.017304 0.197943 0.980041 0.654369 0.415197
-0.276703 0.021746 -0.483742 -0.438948 -0.004089 -0.898465 0.400292 0.677097
-0.203522 0.130751 -0.513117 -0.416730 0.173956 -0.892209 0.381672 0.715530
-0.377200 -0.017949 -0.437515 -0.461654 -0.018983 -0.886837 0.433036 0.659107
-0.416262 0.003309 -0.408918 -0.600238 0.171850 -0.781091 0.449225 0.663501
-0.346575 0.079290 -0.441330 -0.560350 0.210791 -0.800958 0.428966 0.691188
-0.277365 0.173303 -0.464252 -0.537339 0.348674 -0.767876 0.411183 0.723973
0.264370 0.005332 0.574299 0.463820 0.640248 0.612293 0.605499 0.304019
0.277013 -0.029601 0.601811 0.493484 0.473830 0.729331 0.590580 0.299408
0.380789 -0.062365 0.536974 0.675344 0.401471 0.618610 0.597078 0.257876
0.361633 -0.019297 0.513794 0.589709 0.577319 0.564714 0.613243 0.264960
0.332271 0.019144 0.498595 0.559343 0.538255 0.630360 0.626655 0.275957
0.250032 0.040395 0.545844 0.473312 0.545793 0.691427 0.620872 0.309137
0.145554 0.060402 0.592078 0.317331 0.550096 0.772423 0.613322 0.348654
0.146725 0.028026 0.625014 0.264412 0.652516 0.710105 0.597595 0.347394
0.147600 -0.005159 0.656588 0.265542 0.501297 0.823481 0.582417 0.345982
0.021578 -0.205145 0.640129 0.201575 -0.475112 0.856502 0.111500 0.778186
0.027409 -0.118053 0.681533 0.194708 -0.356792 0.913633 0.080019 0.783312
-0.513813 0.092796 -0.008324 -0.802087 0.577929 -0.150426 0.127459 0.109967
-0.501798 0.074732 -0.147457 -0.827723 0.549638 -0.112705 0.079202 0.107202
-0.536247 0.026125 -0.117534 -0.861873 0.502487 -0.068117 0.089360 0.086581
-0.548643 0.059281 0.020465 -0.842219 0.504807 -0.189123 0.137823 0.093844
-0.317728 0.452038 -0.041074 -0.464064 0.879147 -0.108097 0.116971 0.247631
-0.362530 0.430471 -0.059793 -0.478957 0.862728 -0.161992 0.112602 0.231935
-0.365097 0.438101 0.008133 -0.428022 0.899380 -0.088595 0.132910 0.233603
-0.335800 0.452816 0.052767 -0.429823 0.902676 -0.019379 0.146243 0.243907
-0.291825 0.450331 -0.142190 -0.518326 0.831721 -0.198828 0.084511 0.251582
-0.349206 0.419170 -0.137724 -0.526566 0.818018 -0.231330 0.088371 0.231522
-0.584700 0.008105 0.310970 -0.985656 -0.120151 -0.118351 0.748088 0.590292
-0.590730 0.007709 0.374613 -0.992706 0.116977 -0.028932 0.732620 0.604575
-0.579210 0.052488 0.327980 -0.946806 0.306497 0.097842 0.734059 0.582975
-0.583501 0.058174 0.278604 -0.990478 0.135044 0.026673 0.745174 0.570897
0.350059 -0.460920 -0.020547 0.747551 -0.621326 0.234687 0.712497 0.923307
0.319034 -0.501149 -0.051146 0.651204 -0.753746 0.088168 0.710130 0.942895
0.341981 -0.480490 -0.156482 0.656056 -0.710410 -0.254738 0.673478 0.948017
0.388654 -0.439342 -0.096826 0.793268 -0.608814 0.006165 0.683789 0.921371
0.410236 -0.390637 -0.067615 0.860622 -0.486190 0.151280 0.686287 0.901808
0.387238 -0.399802 0.003848 0.806543 -0.487716 0.333964 0.710576 0.898760
0.346031 -0.402626 0.071055 0.816004 -0.459487 0.350597 0.736003 0.896405
0.320918 -0.457546 0.049161 0.799493 -0.537156 0.268715 0.737121 0.917670
0.293858 -0.506447 0.026884 0.729484 -0.668599 0.144200 0.737680 0.938168
-0.163399 0.196252 -0.510059 -0.348338 0.404736 -0.845454 0.374869 0.738781
-0.233004 0.230019 -0.457531 -0.462050 0.531785 -0.709677 0.403450 0.745068
-0.287737 0.240620 -0.392772 -0.607410 0.580248 -0.542497 0.430411 0.748596
-0.345537 0.168974 -0.399513 -0.670675 0.475234 -0.569475 0.440668 0.720635
-0.400948 0.150474 -0.326739 -0.735008 0.530992 -0.421644 0.470846 0.715128
-0.334557 0.247976 -0.318270 -0.684530 0.533830 -0.496384 0.459215 0.753190
-0.250892 0.456351 -0.209473 -0.580554 0.681600 -0.445326 0.060624 0.261332
-0.337787 0.412371 -0.177549 -0.550066 0.687735 -0.473678 0.075360 0.231823
-0.158817 0.534120 -0.223948 -0.581744 0.708579 -0.399274 0.054107 0.300645
-0.138094 0.512389 -0.261061 -0.444990 0.609394 -0.656178 0.038570 0.301058
-0.205562 0.434751 -0.274341 -0.546678 0.572832 -0.610706 0.033400 0.266338
-0.445113 -0.184566 -0.320059 -0.566668 -0.400006 -0.720298 0.463160 0.596000
-0.493989 -0.098274 -0.327522 -0.595050 -0.353526 -0.721732 0.479298 0.624603
-0.506903 -0.177402 -0.269909 -0.661733 -0.433821 -0.611408 0.489697 0.593621
-0.560162 -0.102528 -0.267252 -0.671865 -0.411115 -0.616047 0.508049 0.618115
-0.538915 -0.110163 -0.109394 -0.934538 -0.317515 0.160619 0.878526 0.522599
-0.562105 -0.065253 -0.141125 -0.943510 -0.188452 0.272469 0.875016 0.502801
-0.580884 -0.089631 -0.200735 -0.859432 -0.383251 0.338298 0.894645 0.491787
-0.540310 -0.150200 -0.193816 -0.874020 -0.458235 0.161412 0.908208 0.512128
0.519416 -0.083367 0.149289 0.981048 -0.006653 0.193609 0.707325 0.773165
0.551485 -0.147680 0.059371 0.976684 0.093875 0.193030 0.687173 0.803238
0.513956 0.007216 0.130532 0.994568 0.103763 0.005188 0.690587 0.747370
0.510734 0.042956 0.262332 0.990631 0.041780 0.129978 0.726956 0.719959
0.488603 -0.037077 0.315338 0.949583 -0.165319 0.266274 0.754577 0.738090
-0.062708 -0.186739 -0.499667 -0.087954 -0.528703 -0.844234 0.320027 0.615956
0.047745 -0.190428 -0.497873 0.080569 -0.578112 -0.811945 0.282434 0.616198
-0.094983 -0.204651 -0.483125 -0.119358 -0.447798 -0.886105 0.331196 0.607604
-0.426278 0.079048 -0.373396 -0.690359 0.403027 -0.600757 0.462342 0.687071
-0.494206 -0.002675 -0.341361 -0.697897 0.276070 -0.660817 0.481717 0.656670
-0.580038 -0.024073 -0.252268 -0.821650 0.486129 -0.297494 0.521052 0.643644
-0.487776 0.060016 -0.298044 -0.748375 0.544816 -0.378216 0.493911 0.678837
-0.503034 0.061192 -0.233381 -0.782189 0.608203 -0.135044 0.049458 0.103605
-0.487776 0.060016 -0.298044 -0.748375 0.544816 -0.378216 0.026977 0.106777
-0.580038 -0.024073 -0.252268 -0.821650 0.486129 -0.297494 0.042707 0.064311
-0.556098 0.000530 -0.197599 -0.803827 0.594470 0.020508 0.061524 0.075723
-0.165783 -0.488763 -0.299703 0.191839 -0.981079 0.024995 0.375536 0.449143
-0.206540 -0.497560 -0.316083 -0.010834 -0.999908 -0.007080 0.384759 0.461030
-0.154994 -0.498890 -0.386277 0.235511 -0.971313 0.032716 0.358530 0.472678
-0.113530 -0.478351 -0.368923 0.348064 -0.937346 -0.013031 0.348376 0.459972
-0.231119 -0.498656 -0.216330 0.104007 -0.990051 -0.094455 0.409157 0.436438
-0.268125 -0.497032 -0.237064 -0.063570 -0.978301 -0.197119 0.416280 0.448897
0.498777 0.019356 -0.115018 0.941069 0.328898 -0.078646 0.615106 0.774962
0.531077 -0.058837 -0.195408 0.926023 0.371960 -0.064211 0.605133 0.810384
0.492867 0.066877 0.005681 0.967315 0.233680 -0.098209 0.644465 0.744229
-0.302243 -0.516948 -0.139683 0.117679 -0.981964 -0.147832 0.443422 0.426115
-0.328028 -0.513412 -0.177945 0.060244 -0.957488 -0.282083 0.444262 0.441532
-0.361667 -0.532233 -0.083863 0.074343 -0.994079 -0.078921 0.470282 0.420049
-0.377317 -0.531344 -0.140154 0.115726 -0.974303 -0.193121 0.465360 0.438573
0.040370 0.012347 0.654046 0.107395 0.586077 0.803064 0.583225 0.382201
0.035598 -0.029931 0.683291 0.101657 0.412061 0.905454 0.565756 0.381374
0.045930 0.054066 0.622512 0.171972 0.521958 0.835414 0.601160 0.382689
0.248025 0.170213 0.549586 0.406323 -0.283547 0.868587 0.663296 0.326743
0.242648 0.112198 0.533259 0.431867 -0.123661 0.893399 0.644894 0.318710
0.313896 0.093375 0.492522 0.587725 -0.053804 0.807245 0.649760 0.290138
0.321325 0.161692 0.500671 0.615101 -0.222724 0.756310 0.671366 0.299011
0.314104 0.227721 0.532738 0.571429 -0.226020 0.788873 0.688182 0.314898
0.255098 0.228639 0.566133 0.427717 -0.228706 0.874477 0.681021 0.333867
0.194216 0.237966 0.594300 0.284951 -0.263894 0.921476 0.677098 0.353759
0.171194 0.189398 0.581700 0.249031 -0.269173 0.930326 0.659911 0.354029
0.155189 0.129779 0.571475 0.316477 -0.106601 0.942564 0.639179 0.351347
0.098708 0.220899 0.600161 0.055239 -0.012299 0.998383 0.662350 0.380503
0.067160 0.137708 0.598162 0.206977 0.002045 0.978332 0.632460 0.382284
0.156532 0.255959 0.607089 0.019105 -0.082430 0.996399 0.678546 0.366632
0.429746 -0.362190 -0.162011 0.833247 -0.510086 -0.213263 0.653571 0.902890
0.382943 -0.394064 -0.209808 0.705252 -0.546922 -0.451064 0.643625 0.925640
0.415242 -0.304603 -0.252761 0.686056 -0.485244 -0.542039 0.617361 0.901552
0.462950 -0.265880 -0.219479 0.807123 -0.471877 -0.354747 0.623532 0.878950
0.504519 -0.208770 -0.184407 0.847774 -0.490646 -0.201178 0.627008 0.853831
0.450709 -0.324652 -0.106321 0.878536 -0.477309 0.016968 0.665218 0.883135
0.316534 -0.479122 0.166750 0.880947 -0.369793 -0.295144 0.777577 0.907936
0.276220 -0.550180 0.131828 0.838313 -0.463759 -0.286538 0.778015 0.938260
0.277229 -0.528807 0.101688 0.852748 -0.478072 -0.210303 0.765435 0.936609
0.308005 -0.467226 0.129334 0.905698 -0.365184 -0.215247 0.764318 0.911179
0.324067 -0.489824 0.203210 0.874905 -0.469436 -0.118778 0.790252 0.904557
0.274206 -0.569991 0.162437 0.812006 -0.568529 -0.131932 0.790367 0.939621
0.229819 -0.442390 0.366497 0.538438 -0.505814 0.673940 0.231337 0.853208
0.159229 -0.512906 0.371323 0.518845 -0.587451 0.620991 0.250142 0.826174
0.233190 -0.564915 0.252275 0.525346 -0.662862 0.533433 0.285775 0.859710
0.293874 -0.480991 0.282666 0.565630 -0.583361 0.582842 0.257032 0.879676
0.434476 -0.316339 -0.006109 0.806452 -0.571764 0.150670 0.696137 0.870859
0.510338 -0.221287 -0.068922 0.813623 -0.580096 -0.038209 0.662025 0.843244
0.364836 -0.361993 0.076628 0.767296 -0.573229 0.287454 0.732320 0.882284
0.406840 -0.009424 0.455391 0.682302 0.376263 0.626759 0.628911 0.244545
0.415883 -0.062558 0.480092 0.830653 0.302683 0.467269 0.609161 0.239001
0.430171 -0.048346 0.442097 0.845912 0.193548 0.496902 0.620921 0.230127
0.443716 -0.010470 0.410463 0.781304 0.169744 0.600604 0.638159 0.226669
0.464555 0.062130 0.367548 0.773278 0.222602 0.593677 0.667528 0.224190
0.409666 0.060603 0.425332 0.652394 0.213904 0.727042 0.655246 0.248485
0.375257 0.051081 0.448447 0.514817 0.215217 0.829798 0.646673 0.260438
0.365175 0.021745 0.465117 0.552141 0.429273 0.714713 0.634724 0.262006
0.496669 0.112020 0.119549 0.981567 0.169591 -0.088076 0.673793 0.716008
0.499121 0.146931 0.211315 0.983337 0.179662 0.027589 0.698084 0.693678
0.477880 -0.186828 -0.272608 0.763573 -0.405835 -0.502182 0.597445 0.861010
0.432246 -0.221515 -0.299759 0.652760 -0.468795 -0.595019 0.591239 0.881295
0.437651 -0.183829 -0.322895 0.628986 -0.470595 -0.618763 0.579041 0.872241
0.458376 -0.160796 -0.317813 0.737175 -0.367351 -0.567095 0.578859 0.861592
0.514941 -0.154812 -0.241058 0.805109 -0.382702 -0.453078 0.604476 0.843832
0.383214 0.162185 0.431811 0.792108 0.077090 0.605457 0.684054 0.270534
0.454587 0.167257 0.325086 0.819117 0.279305 0.500992 0.705065 0.232295
0.346155 0.234957 0.504269 0.821345 -0.072970 0.565691 0.695153 0.303850
0.353290 0.081718 0.458269 0.616749 0.054720 0.785211 0.653242 0.272080
0.430210 0.193486 -0.264247 0.960906 0.264229 0.082369 0.542854 0.741397
0.444943 0.170151 -0.321695 0.959349 0.281228 -0.023591 0.529146 0.758067
0.414488 0.265221 -0.287043 0.949065 0.314951 -0.004944 0.525036 0.722402
0.405514 0.281559 -0.255218 0.971191 0.228858 0.066073 0.532238 0.712178
-0.312011 0.444224 0.292922 -0.844813 0.529954 0.073366 0.225441 0.249689
-0.277875 0.492803 0.358629 -0.819117 0.551256 0.158513 0.246170 0.270968
-0.301178 0.462459 0.219900 -0.814814 0.578814 0.031343 0.200736 0.255532
0.424097 0.476811 -0.008356 0.959716 0.084140 -0.268014 0.583760 0.617261
0.416226 0.484638 -0.031936 0.892666 0.236152 -0.383831 0.574904 0.617814
0.421650 0.525519 0.007331 0.874722 0.300058 -0.380505 0.582287 0.600006
0.432635 0.531431 0.038302 0.924039 0.270882 -0.269662 0.591891 0.594351
0.409085 0.421554 -0.080190 0.969207 0.106662 -0.221931 0.567283 0.644228
0.404029 0.431254 -0.091154 0.894528 0.283395 -0.345622 0.562152 0.642584
-0.149063 -0.495665 -0.424276 -0.075411 -0.727134 -0.682302 0.343872 0.503459
-0.177688 -0.501103 -0.397072 -0.389447 -0.809992 -0.438398 0.356550 0.499172
-0.180178 -0.461838 -0.409324 -0.624714 -0.190619 -0.757195 0.357006 0.512971
-0.142061 -0.455543 -0.434153 -0.168401 -0.212683 -0.962493 0.342349 0.517372
-0.125202 -0.484919 -0.418918 0.430097 -0.742058 -0.514115 0.335580 0.506974
-0.149063 -0.495665 -0.424276 -0.075411 -0.727134 -0.682302 0.350479 0.482296
-0.125202 -0.484919 -0.418918 0.430097 -0.742058 -0.514115 0.343955 0.476485
-0.177688 -0.501103 -0.397072 -0.389447 -0.809992 -0.438398 0.363161 0.479462
-0.409476 -0.529542 -0.157193 -0.434126 -0.799036 -0.415937 0.466322 0.466900
-0.423648 -0.490665 -0.172983 -0.728355 -0.438185 -0.526719 0.469080 0.481535
-0.386280 -0.520350 -0.173848 -0.158269 -0.795190 -0.585284 0.457061 0.470899
-0.409476 -0.529542 -0.157193 -0.434126 -0.799036 -0.415937 0.471435 0.448741
-0.386280 -0.520350 -0.173848 -0.158269 -0.795190 -0.585284 0.461756 0.449890
-0.407059 -0.535475 -0.125119 -0.357189 -0.928678 -0.099673 0.476260 0.439271
-0.409476 -0.529542 -0.157193 -0.434126 -0.799036 -0.415937 0.991573 0.616119
-0.407059 -0.535475 -0.125119 -0.357189 -0.928678 -0.099673 0.986381 0.625366
-0.423648 -0.490665 -0.172983 -0.728355 -0.438185 -0.526719 0.985411 0.603161
0.539315 -0.091615 -0.232916 0.936491 0.176489 -0.302927 0.600424 0.824130
0.538738 -0.106380 -0.229220 0.948088 -0.052644 -0.313578 0.603113 0.827424
0.444840 0.545814 0.114809 0.845729 0.492599 0.205054 0.614226 0.579629
0.436458 0.551778 0.100197 0.768273 0.638752 0.041261 0.608151 0.579394
0.444840 0.545814 0.114809 0.845729 0.492599 0.205054 0.136585 0.526426
0.436458 0.551778 0.100197 0.768273 0.638752 0.041261 0.132026 0.522336
-0.295486 0.469259 0.179939 -0.767235 0.641194 0.012696 0.187395 0.257922
-0.312853 0.456880 0.152707 -0.669424 0.733787 0.115635 0.178505 0.250704
-0.197016 0.601599 0.329745 -0.522843 0.793573 0.311197 0.794703 0.512749
-0.217979 0.572426 0.351191 -0.601794 0.692740 0.397382 0.781456 0.516930
-0.151058 0.613313 0.342687 -0.290262 0.849910 0.439680 0.798196 0.496809
-0.197016 0.601599 0.329745 -0.522843 0.793573 0.311197 0.233041 0.315766
-0.151058 0.613313 0.342687 -0.290262 0.849910 0.439680 0.236430 0.332116
-0.187352 0.615501 0.283339 -0.530686 0.840327 0.110324 0.217073 0.319407
-0.217979 0.572426 0.351191 -0.601794 0.692740 0.397382 0.241469 0.304309
-0.375203 0.388591 -0.165078 -0.710410 0.553453 -0.434706 0.080830 0.218919
-0.381293 0.393969 -0.135903 -0.756584 0.596332 -0.268166 0.089903 0.219137
0.180956 0.277530 0.607745 0.189184 0.100925 0.976714 0.686562 0.361849
0.205610 0.273348 0.596427 0.405225 0.073061 0.911283 0.687908 0.354315
0.340180 -0.378882 0.116784 0.855220 -0.516465 0.042879 0.747820 0.884865
0.330715 -0.403555 0.113340 0.906308 -0.418897 0.055605 0.750183 0.892965
0.394320 -0.374707 0.297604 0.786126 -0.528367 0.320566 0.225141 0.914626
0.371275 -0.408839 0.277598 0.751732 -0.599719 0.274178 0.238219 0.908650
0.373824 -0.403381 0.244479 0.863887 -0.486923 -0.128666 0.245195 0.917183
0.407560 -0.350280 0.266634 0.927519 -0.372967 0.023835 0.226189 0.927712
-0.113899 -0.215009 -0.473321 -0.195502 -0.399152 -0.895779 0.337909 0.602707
-0.112409 -0.256806 -0.462406 -0.155705 -0.232917 -0.959929 0.336701 0.587356
0.395638 0.317384 -0.266804 0.767602 0.526414 -0.365551 0.839390 0.190192
0.394022 0.328875 -0.243354 0.941496 0.325938 -0.085421 0.835895 0.197871
0.414488 0.265221 -0.287043 0.949065 0.314951 -0.004944 0.833196 0.172405
0.413578 0.260269 -0.310590 0.743156 0.471938 -0.474288 0.838319 0.166829
0.387690 0.341763 -0.247128 0.643880 0.627125 -0.438276 0.839905 0.200452
0.208243 0.269197 -0.365876 0.484848 0.552141 -0.678243 0.909122 0.168967
0.212301 0.241726 -0.382084 0.535508 0.435743 -0.723380 0.909199 0.157650
-0.116690 0.564902 -0.225479 -0.245216 0.871181 -0.425275 0.053257 0.316699
-0.100527 0.546554 -0.249026 -0.087100 0.778344 -0.621723 0.042425 0.318100
-0.105819 0.681345 0.048156 -0.241768 0.945524 -0.217902 0.143681 0.342754
-0.119848 0.672706 0.084848 -0.408063 0.912931 0.002136 0.153831 0.339438
0.396780 0.346274 -0.202487 0.941221 0.240242 -0.237403 0.539166 0.684244
0.400577 0.336937 -0.171456 0.992584 0.051546 -0.109897 0.550180 0.682984
0.400386 0.309468 -0.202554 0.990783 0.121647 -0.059511 0.544279 0.695779
0.397476 0.319178 -0.215137 0.981597 0.179907 -0.063509 0.538913 0.694469
0.390074 0.411079 -0.144637 0.573229 0.671224 -0.469893 0.826100 0.239187
0.368737 0.401966 -0.178227 0.386608 0.749260 -0.537675 0.837105 0.231297
0.391666 0.427874 -0.117888 0.631733 0.587146 -0.506119 0.822174 0.248868
0.390074 0.411079 -0.144637 0.573229 0.671224 -0.469893 0.547002 0.655833
0.391666 0.427874 -0.117888 0.631733 0.587146 -0.506119 0.552860 0.646867
0.401857 0.411546 -0.124139 0.857082 0.404157 -0.319407 0.554648 0.653466
0.206294 0.084736 -0.437360 0.616260 0.222602 -0.755394 0.909710 0.100712
0.205500 0.112408 -0.433237 0.619556 0.197211 -0.759758 0.911118 0.109675
0.340563 -0.125464 -0.423177 0.557848 -0.091586 -0.824854 0.722549 0.059677
0.295538 -0.115601 -0.451443 0.520768 -0.125095 -0.844447 0.704667 0.059495
0.289042 -0.072517 -0.450614 0.562548 0.131291 -0.816248 0.700615 0.045564
0.341924 -0.091728 -0.420198 0.615467 0.107334 -0.780786 0.721666 0.048522
0.442126 -0.148473 -0.343946 0.649831 -0.359111 -0.669851 0.766222 0.060758
0.446813 -0.115847 -0.354390 0.670217 -0.280068 -0.687277 0.763988 0.049548
0.470476 -0.115452 -0.324596 0.851131 -0.206793 -0.482437 0.776607 0.048910
0.458376 -0.160796 -0.317813 0.737175 -0.367351 -0.567095 0.776474 0.064646
-0.447293 -0.580820 0.277517 -0.412275 -0.859462 0.302225 0.257863 0.593430
-0.413459 -0.556539 0.311029 -0.043367 -0.824183 0.564623 0.247044 0.607375
-0.450572 -0.550818 0.297762 -0.763298 -0.426374 0.485336 0.245894 0.594275
-0.447293 -0.580820 0.277517 -0.412275 -0.859462 0.302225 0.895116 0.726545
-0.450572 -0.550818 0.297762 -0.763298 -0.426374 0.485336 0.883506 0.724190
-0.441831 -0.584241 0.228596 -0.336070 -0.941221 -0.033387 0.908011 0.717115
-0.447293 -0.580820 0.277517 -0.412275 -0.859462 0.302225 0.561272 0.336297
-0.441831 -0.584241 0.228596 -0.336070 -0.941221 -0.033387 0.550689 0.348423
-0.413459 -0.556539 0.311029 -0.043367 -0.824183 0.564623 0.557799 0.319211
-0.033561 -0.602421 0.146170 -0.048128 -0.996857 -0.062471 0.419090 0.293548
0.001835 -0.602969 0.151453 -0.058657 -0.994964 -0.080996 0.410290 0.285863
-0.229369 -0.444781 0.462865 -0.209723 -0.778344 0.591723 0.199442 0.680058
-0.261016 -0.457449 0.438792 -0.117191 -0.781518 0.612751 0.205634 0.667736
-0.229369 -0.444781 0.462865 -0.209723 -0.778344 0.591723 0.539828 0.234693
-0.261016 -0.457449 0.438792 -0.117191 -0.781518 0.612751 0.543196 0.247912
0.264514 -0.535047 0.060475 0.594470 -0.791436 -0.142033 0.753962 0.946193
0.269215 -0.529022 0.020163 0.448317 -0.892697 -0.045289 0.740396 0.949535
0.282733 -0.514688 0.072918 0.825587 -0.564226 -0.004517 0.754186 0.935911
0.254781 -0.549981 0.078712 0.574877 -0.744041 -0.340373 0.762000 0.949364
0.264514 -0.535047 0.060475 0.594470 -0.791436 -0.142033 0.316726 0.269902
0.254781 -0.549981 0.078712 0.574877 -0.744041 -0.340373 0.323935 0.265801
0.269215 -0.529022 0.020163 0.448317 -0.892697 -0.045289 0.308857 0.280789
0.228128 -0.616594 0.172996 0.383831 -0.920133 0.077242 0.316067 0.865916
0.240160 -0.604267 0.141772 0.495956 -0.808832 -0.315897 0.321049 0.876566
0.274206 -0.569991 0.162437 0.812006 -0.568529 -0.131932 0.306198 0.885287
0.265689 -0.579423 0.192616 0.686850 -0.684378 0.244606 0.300945 0.876118
0.192548 -0.600880 0.237644 0.260018 -0.864406 0.430311 0.299521 0.847432
0.228128 -0.616594 0.172996 0.383831 -0.920133 0.077242 0.353180 0.239945
0.192548 -0.600880 0.237644 0.260018 -0.864406 0.430311 0.374517 0.227855
0.178713 -0.622292 0.165099 0.011475 -0.997375 -0.071413 0.365247 0.250464
0.240160 -0.604267 0.141772 0.495956 -0.808832 -0.315897 0.343860 0.246880
0.007782 -0.459430 0.544837 0.115543 -0.524552 0.843471 0.486741 0.171407
0.037745 -0.483322 0.499230 0.251747 -0.767907 0.588977 0.469115 0.179614
0.007782 -0.459430 0.544837 0.115543 -0.524552 0.843471 0.206134 0.761488
0.037745 -0.483322 0.499230 0.251747 -0.767907 0.588977 0.220136 0.775194
-0.600282 -0.074526 0.492644 -0.901120 -0.067873 0.428175 0.071776 0.561149
-0.582660 -0.120154 0.479335 -0.832392 -0.443403 0.332347 0.087770 0.566048
-0.559567 -0.059149 0.531723 -0.700980 0.012055 0.713034 0.063030 0.578350
-0.600282 -0.074526 0.492644 -0.901120 -0.067873 0.428175 0.306972 0.051459
-0.559567 -0.059149 0.531723 -0.700980 0.012055 0.713034 0.322058 0.064551
-0.598665 -0.043193 0.464966 -0.934996 0.266671 0.233802 0.295444 0.059901
-0.600282 -0.074526 0.492644 -0.901120 -0.067873 0.428175 0.721471 0.650211
-0.598665 -0.043193 0.464966 -0.934996 0.266671 0.233802 0.721313 0.636545
-0.582660 -0.120154 0.479335 -0.832392 -0.443403 0.332347 0.735669 0.658722
-0.311307 0.053783 0.742746 -0.301889 -0.017518 0.953154 0.561236 0.503659
-0.272009 0.024993 0.741103 -0.034974 -0.152318 0.987701 0.555590 0.488519
-0.309240 0.080231 0.737297 -0.280374 0.280526 0.917966 0.570101 0.505232
-0.311307 0.053783 0.742746 -0.301889 -0.017518 0.953154 0.404714 0.148374
-0.309240 0.080231 0.737297 -0.280374 0.280526 0.917966 0.399873 0.156279
-0.355588 0.032697 0.710562 -0.578021 -0.088229 0.811212 0.391493 0.133312
-0.311307 0.053783 0.742746 -0.301889 -0.017518 0.953154 0.008509 0.678013
-0.355588 0.032697 0.710562 -0.578021 -0.088229 0.811212 0.017678 0.660966
-0.272009 0.024993 0.741103 -0.034974 -0.152318 0.987701 0.018599 0.690536
-0.054493 0.081302 0.631140 0.287606 0.310556 0.905972 0.601978 0.418245
-0.022048 0.081355 0.623347 0.200385 0.287057 0.936705 0.605138 0.407401
-0.413378 -0.040833 -0.417989 -0.555193 -0.125645 -0.822169 0.444683 0.650108
-0.440581 -0.040641 -0.394162 -0.626423 -0.104801 -0.772393 0.455877 0.648259
-0.606200 -0.069295 -0.234039 -0.973357 -0.155278 -0.168554 0.528550 0.625985
-0.584661 -0.061460 -0.264364 -0.798059 -0.033998 -0.601611 0.517017 0.631112
-0.583981 -0.102164 -0.233676 -0.835353 -0.531968 -0.138401 0.521373 0.614720
-0.606200 -0.069295 -0.234039 -0.973357 -0.155278 -0.168554 0.897515 0.476768
-0.583981 -0.102164 -0.233676 -0.835353 -0.531968 -0.138401 0.905272 0.487062
-0.600186 -0.055785 -0.212700 -0.971252 0.134678 0.196265 0.889498 0.479394
-0.600186 -0.055785 -0.212700 -0.971252 0.134678 0.196265 0.535069 0.631792
0.558900 -0.179053 0.029744 0.957244 -0.284524 0.052126 0.682419 0.814724
0.553188 -0.177348 -0.005787 0.944884 -0.318918 -0.073794 0.673133 0.818764
0.345157 0.043778 0.471650 0.616596 0.253334 0.745384 0.639186 0.271421
0.316416 0.051346 0.492649 0.580920 0.240425 0.777612 0.636576 0.283779
0.465985 0.300543 0.195771 0.961394 0.189184 0.199683 0.766143 0.219784
0.470769 0.257960 0.216000 0.944060 0.240211 0.225806 0.750549 0.217188
0.465985 0.300543 0.195771 0.961394 0.189184 0.199683 0.672837 0.646271
0.470769 0.257960 0.216000 0.944060 0.240211 0.225806 0.684885 0.657078
0.332885 0.268527 0.526839 0.731773 0.195532 0.652852 0.701057 0.314386
0.312522 0.267564 0.539165 0.577074 0.170751 0.798608 0.698564 0.320634
-0.230764 -0.490322 -0.330872 -0.502762 -0.780541 -0.371349 0.384992 0.495756
-0.292112 -0.483033 -0.256733 -0.400525 -0.778832 -0.482620 0.416935 0.489495
-0.239956 -0.453303 -0.349074 -0.683798 -0.324686 -0.653401 0.385626 0.510014
-0.230764 -0.490322 -0.330872 -0.502762 -0.780541 -0.371349 0.389369 0.469530
-0.292112 -0.483033 -0.256733 -0.400525 -0.778832 -0.482620 0.419795 0.459793
0.403689 0.374317 -0.149055 0.986816 0.067721 -0.146855 0.552213 0.668395
0.388279 0.350004 -0.219893 0.819269 0.480789 -0.312418 0.532554 0.685340
0.394022 0.328875 -0.243354 0.941496 0.325938 -0.085421 0.528697 0.695554
0.388279 0.350004 -0.219893 0.819269 0.480789 -0.312418 0.835182 0.208310
0.149839 0.555004 0.452612 0.307138 0.681570 0.664144 0.781917 0.390204
0.070044 0.625695 0.396902 0.073794 0.831843 0.550066 0.805680 0.421817
0.149839 0.555004 0.452612 0.307138 0.681570 0.664144 0.265672 0.445155
0.070044 0.625695 0.396902 0.073794 0.831843 0.550066 0.246259 0.409369
-0.392051 0.409816 -0.063661 -0.754173 0.633747 -0.171850 0.112147 0.221194
-0.388895 0.428904 0.023698 -0.704001 0.709983 0.017243 0.137813 0.226358
-0.081655 -0.458502 -0.403106 0.459822 -0.746727 -0.480514 0.332062 0.463803
-0.011886 -0.436870 -0.380083 0.264626 -0.766137 -0.585620 0.314820 0.445582
-0.081655 -0.458502 -0.403106 0.459822 -0.746727 -0.480514 0.319385 0.514616
-0.011886 -0.436870 -0.380083 0.264626 -0.766137 -0.585620 0.294417 0.521214
-0.345555 -0.498944 -0.205710 -0.217048 -0.779473 -0.587603 0.440441 0.479711
-0.345555 -0.498944 -0.205710 -0.217048 -0.779473 -0.587603 0.443870 0.453373
0.537319 -0.130929 -0.214795 0.928922 -0.249641 -0.273415 0.609722 0.832284
0.538310 -0.155471 -0.173346 0.907834 -0.376934 -0.183569 0.623943 0.834222
-0.353242 0.444010 0.098224 -0.610492 0.775933 0.158574 0.160416 0.237681
-0.046146 0.633238 0.362666 -0.162542 0.866085 0.472671 0.806534 0.461838
-0.046146 0.633238 0.362666 -0.162542 0.866085 0.472671 0.239444 0.368861
0.264501 -0.485528 -0.241858 0.256325 -0.859737 -0.441664 0.264210 0.355971
0.298422 -0.509038 -0.155215 0.333628 -0.912412 -0.236976 0.270291 0.325161
0.193554 -0.459861 -0.310796 0.155187 -0.816187 -0.556505 0.271251 0.388701
0.264501 -0.485528 -0.241858 0.256325 -0.859737 -0.441664 0.757028 0.190940
0.193554 -0.459861 -0.310796 0.155187 -0.816187 -0.556505 0.723674 0.186018
0.298422 -0.509038 -0.155215 0.333628 -0.912412 -0.236976 0.786147 0.203506
0.090637 -0.440482 -0.353092 0.117222 -0.782220 -0.611835 0.291633 0.419634
0.090637 -0.440482 -0.353092 0.117222 -0.782220 -0.611835 0.686628 0.190597
-0.011886 -0.436870 -0.380083 0.264626 -0.766137 -0.585620 0.653025 0.201125
-0.125819 -0.356454 -0.448107 -0.168004 -0.134495 -0.976562 0.339327 0.551572
-0.169227 -0.364716 -0.427197 -0.502518 -0.129368 -0.854823 0.355555 0.546705
0.400348 0.375730 -0.168989 0.908780 0.285867 -0.303934 0.545787 0.670651
0.387509 0.377760 -0.187670 0.692892 0.558550 -0.455916 0.538235 0.672032
0.035087 0.338140 -0.477184 0.111942 0.729453 -0.674764 0.983192 0.179935
-0.027615 0.413143 -0.396652 -0.008911 0.733543 -0.679556 0.990080 0.221519
0.088253 0.262264 -0.544640 0.290963 0.609272 -0.737602 0.977883 0.142363
0.035087 0.338140 -0.477184 0.111942 0.729453 -0.674764 0.331947 0.806264
0.088253 0.262264 -0.544640 0.290963 0.609272 -0.737602 0.302114 0.782690
-0.027615 0.413143 -0.396652 -0.008911 0.733543 -0.679556 0.367116 0.829566
-0.071828 0.489291 -0.313342 -0.068880 0.733604 -0.676046 0.991927 0.261703
-0.100527 0.546554 -0.249026 -0.087100 0.778344 -0.621723 0.991927 0.291731
-0.071828 0.489291 -0.313342 -0.068880 0.733604 -0.676046 0.397913 0.855781
-0.100527 0.546554 -0.249026 -0.087100 0.778344 -0.621723 0.420180 0.876381
-0.154327 0.644981 0.182474 -0.488998 0.869839 0.064882 0.183757 0.329803
0.370316 0.359689 -0.233979 0.381573 0.740379 -0.553331 0.843426 0.208890
0.387509 0.377760 -0.187670 0.692892 0.558550 -0.455916 0.831862 0.222063
0.406261 0.410388 -0.107025 0.971038 0.165716 -0.172002 0.560324 0.651492
0.400084 0.489216 -0.057852 0.653706 0.515336 -0.554125 0.564549 0.619482
0.412122 0.548033 0.009483 0.604053 0.672414 -0.427686 0.578867 0.592382
0.400084 0.489216 -0.057852 0.653706 0.515336 -0.554125 0.813305 0.275866
0.412122 0.548033 0.009483 0.604053 0.672414 -0.427686 0.801755 0.303301
0.424900 0.560702 0.063628 0.674367 0.721976 -0.154729 0.594836 0.581370
0.424900 0.560702 0.063628 0.674367 0.721976 -0.154729 0.120197 0.515850
0.412122 0.548033 0.009483 0.604053 0.672414 -0.427686 0.101462 0.510343
0.103856 0.183499 -0.588722 0.389569 0.359935 -0.847713 0.977291 0.112240
0.096579 0.103387 -0.612567 0.350444 0.126011 -0.928037 0.976632 0.084579
0.103856 0.183499 -0.588722 0.389569 0.359935 -0.847713 0.286451 0.756616
0.096579 0.103387 -0.612567 0.350444 0.126011 -0.928037 0.280110 0.729306
0.081104 0.023469 -0.619311 0.247597 -0.096652 -0.964019 0.973852 0.057714
0.099274 -0.044790 -0.594461 0.327891 -0.314005 -0.890988 0.957799 0.038928
0.081104 0.023469 -0.619311 0.247597 -0.096652 -0.964019 0.278498 0.701986
0.099274 -0.044790 -0.594461 0.327891 -0.314005 -0.890988 0.268659 0.678722
0.209445 0.177100 -0.409675 0.587848 0.284585 -0.757256 0.910507 0.133037
0.442827 0.163722 -0.353390 0.758446 0.358745 -0.544084 0.832116 0.133705
0.444943 0.170151 -0.321695 0.959349 0.281228 -0.023591 0.824365 0.140188
0.471226 0.062568 -0.340043 0.976165 0.173193 -0.130650 0.814210 0.106093
0.464601 0.053660 -0.379447 0.766839 0.108005 -0.632679 0.825273 0.099996
0.460117 -0.043999 -0.373001 0.722068 -0.150975 -0.675100 0.819955 0.071113
0.479180 -0.038627 -0.334820 0.949156 -0.022828 -0.313913 0.806270 0.074248
0.470476 -0.115452 -0.324596 0.851131 -0.206793 -0.482437 0.802843 0.048532
0.446813 -0.115847 -0.354390 0.670217 -0.280068 -0.687277 0.815424 0.047150
0.192930 -0.089928 -0.523521 0.491440 -0.252663 -0.833430 0.662010 0.058164
0.099274 -0.044790 -0.594461 0.327891 -0.314005 -0.890988 0.620901 0.050010
0.136742 -0.022154 -0.573572 0.638936 -0.028230 -0.768700 0.633574 0.040026
0.200016 -0.045126 -0.520516 0.649464 0.081301 -0.756005 0.661933 0.043016
-0.448779 -0.472089 0.342346 -0.818628 -0.321482 0.475845 0.216314 0.597833
-0.465383 -0.359725 0.396282 -0.804804 -0.409650 0.429487 0.174817 0.596419
-0.448779 -0.472089 0.342346 -0.818628 -0.321482 0.475845 0.855022 0.716653
-0.465383 -0.359725 0.396282 -0.804804 -0.409650 0.429487 0.816341 0.702327
-0.412153 -0.561862 0.133063 -0.191015 -0.958281 -0.212561 0.523502 0.368442
-0.386196 -0.537034 0.024637 -0.095859 -0.985717 -0.138371 0.495994 0.394107
-0.412153 -0.561862 0.133063 -0.191015 -0.958281 -0.212561 0.932098 0.694462
-0.386196 -0.537034 0.024637 -0.095859 -0.985717 -0.138371 0.959676 0.668336
0.290255 -0.521944 -0.059804 0.370495 -0.927976 -0.039308 0.712627 0.954950
0.298422 -0.509038 -0.155215 0.333628 -0.912412 -0.236976 0.681132 0.964022
0.290255 -0.521944 -0.059804 0.370495 -0.927976 -0.039308 0.289255 0.299758
0.247853 -0.577558 0.108078 0.546800 -0.711722 -0.440931 0.775173 0.953634
0.240160 -0.604267 0.141772 0.495956 -0.808832 -0.315897 0.789505 0.957438
0.247853 -0.577558 0.108078 0.546800 -0.711722 -0.440931 0.333661 0.256767
0.114210 -0.543464 0.371610 0.242012 -0.818506 0.520981 0.259367 0.810784
0.114210 -0.543464 0.371610 0.242012 -0.818506 0.520981 0.422389 0.203272
-0.391899 -0.533105 -0.062967 -0.246803 -0.968902 -0.017060 0.976159 0.643789
-0.391899 -0.533105 -0.062967 -0.246803 -0.968902 -0.017060 0.482325 0.419315
-0.336873 -0.505058 0.376484 -0.029664 -0.798578 0.601123 0.225671 0.637784
-0.336873 -0.505058 0.376484 -0.029664 -0.798578 0.601123 0.549713 0.282995
0.087938 -0.613672 0.157840 -0.099338 -0.988861 -0.110782 0.387905 0.268326
0.308183 -0.459841 0.094629 0.896512 -0.438520 0.062655 0.752622 0.913872
0.320902 -0.493624 0.235043 0.757378 -0.593554 0.272103 0.269549 0.892993
0.324067 -0.489824 0.203210 0.874905 -0.469436 -0.118778 0.276571 0.900869
-0.523852 -0.228817 0.444580 -0.796106 -0.495743 0.346934 0.127034 0.581769
-0.523852 -0.228817 0.444580 -0.796106 -0.495743 0.346934 0.772234 0.679238
-0.579008 0.023745 0.403428 -0.865993 0.444380 0.229133 0.271866 0.081191
-0.563045 0.083387 0.329751 -0.809900 0.542528 0.222846 0.244616 0.099505
-0.579008 0.023745 0.403428 -0.865993 0.444380 0.229133 0.721313 0.606262
-0.563045 0.083387 0.329751 -0.809900 0.542528 0.222846 0.725768 0.575048
-0.251937 0.512352 0.396024 -0.601428 0.644673 0.471816 0.754776 0.522604
-0.282787 0.422274 0.470128 -0.541612 0.613941 0.574175 0.714718 0.524075
-0.251937 0.512352 0.396024 -0.601428 0.644673 0.471816 0.258489 0.282185
-0.282787 0.422274 0.470128 -0.541612 0.613941 0.574175 0.286728 0.252561
-0.303716 0.121169 0.723780 -0.262734 0.451827 0.852504 0.584459 0.506680
-0.297768 0.190741 0.678905 -0.305460 0.583514 0.752434 0.611747 0.509472
-0.303716 0.121169 0.723780 -0.262734 0.451827 0.852504 0.391692 0.168661
-0.297768 0.190741 0.678905 -0.305460 0.583514 0.752434 0.371449 0.188456
-0.294428 0.303090 0.579388 -0.420606 0.613880 0.667989 0.661190 0.516607
-0.294428 0.303090 0.579388 -0.420606 0.613880 0.667989 0.330268 0.218780
-0.572508 0.092835 0.265655 -0.869900 0.488449 0.068422 0.222310 0.099003
-0.581337 0.070131 0.181215 -0.952696 0.286782 -0.100345 0.193677 0.090511
-0.572508 0.092835 0.265655 -0.869900 0.488449 0.068422 0.740237 0.559238
-0.581337 0.070131 0.181215 -0.952696 0.286782 -0.100345 0.765815 0.546019
-0.458172 -0.014178 0.622292 -0.653706 -0.035737 0.755852 0.357068 0.098709
-0.458172 -0.014178 0.622292 -0.653706 -0.035737 0.755852 0.040365 0.619664
-0.183693 -0.039356 0.725067 0.056795 -0.165990 0.984466 0.544001 0.453893
-0.073438 -0.087212 0.705732 0.106510 -0.129124 0.985870 0.538741 0.413569
-0.183693 -0.039356 0.725067 0.056795 -0.165990 0.984466 0.042995 0.717501
-0.073438 -0.087212 0.705732 0.106510 -0.129124 0.985870 0.063848 0.751701
0.031681 -0.066523 0.694187 0.159337 -0.003204 0.987213 0.552982 0.380433
0.144761 -0.037734 0.670000 0.295419 0.068484 0.952879 0.570688 0.344854
0.031681 -0.066523 0.694187 0.159337 -0.003204 0.987213 0.062958 0.787120
0.144761 -0.037734 0.670000 0.295419 0.068484 0.952879 0.061364 0.826236
0.052214 0.088974 0.604748 0.234535 0.252998 0.938597 0.614795 0.382841
0.147509 0.090550 0.574583 0.358135 0.217383 0.907987 0.625410 0.349689
-0.563470 0.033321 0.046506 -0.979644 0.139378 -0.144261 0.806913 0.524596
-0.549948 -0.005688 -0.087214 -0.982543 0.185308 0.015107 0.847918 0.502770
-0.563470 0.033321 0.046506 -0.979644 0.139378 -0.144261 0.146419 0.083363
-0.549948 -0.005688 -0.087214 -0.982543 0.185308 0.015107 0.099476 0.074378
-0.513565 -0.049713 -0.330346 -0.674093 -0.064760 -0.735771 0.486277 0.640283
-0.571811 -0.034986 -0.168687 -0.936918 0.250832 0.243355 0.873784 0.488876
-0.571811 -0.034986 -0.168687 -0.936918 0.250832 0.243355 0.071435 0.062504
-0.600186 -0.055785 -0.212700 -0.971252 0.134678 0.196265 0.055911 0.051459
-0.534137 -0.169280 -0.237574 -0.824732 -0.513840 -0.236061 0.923458 0.507537
-0.480079 -0.266089 -0.232292 -0.833125 -0.396832 -0.385235 0.946894 0.535400
-0.534137 -0.169280 -0.237574 -0.824732 -0.513840 -0.236061 0.504099 0.592552
-0.480079 -0.266089 -0.232292 -0.833125 -0.396832 -0.385235 0.485185 0.560374
-0.445216 -0.388032 -0.204389 -0.806513 -0.333323 -0.488235 0.969075 0.571593
-0.445216 -0.388032 -0.204389 -0.806513 -0.333323 -0.488235 0.474173 0.518005
0.278904 -0.061289 0.612739 0.472640 -0.008148 0.881191 0.579752 0.296391
0.386961 -0.094233 0.544525 0.695029 -0.092105 0.713034 0.587123 0.252998
0.278904 -0.061289 0.612739 0.472640 -0.008148 0.881191 0.080305 0.870912
0.386961 -0.094233 0.544525 0.695029 -0.092105 0.713034 0.102671 0.907868
0.544962 -0.170216 -0.088580 0.921720 -0.374493 -0.100864 0.649401 0.827551
0.421785 -0.093614 0.487481 0.903714 -0.068697 0.422529 0.599261 0.234208
0.432235 -0.065568 0.435653 0.932066 -0.038697 0.360149 0.617203 0.225118
0.421785 -0.093614 0.487481 0.903714 -0.068697 0.422529 0.114140 0.926646
0.432235 -0.065568 0.435653 0.932066 -0.038697 0.360149 0.117991 0.946008
0.243055 0.072472 0.532088 0.474136 0.212592 0.854366 0.632345 0.313435
0.259781 0.269598 0.567964 0.496780 0.128361 0.858303 0.692943 0.337216
0.467170 -0.016233 0.383088 0.880123 -0.038026 0.473190 0.642323 0.215020
0.496256 0.058754 0.327276 0.912259 0.123203 0.390576 0.674313 0.208348
0.467170 -0.016233 0.383088 0.880123 -0.038026 0.473190 0.774702 0.723037
0.432235 -0.065568 0.435653 0.932066 -0.038697 0.360149 0.800474 0.732375
0.496256 0.058754 0.327276 0.912259 0.123203 0.390576 0.745704 0.706488
0.489158 0.163757 0.265707 0.921476 0.264687 0.284219 0.714929 0.211465
0.489158 0.163757 0.265707 0.921476 0.264687 0.284219 0.713006 0.680960
-0.235622 -0.372754 -0.375693 -0.592639 -0.228675 -0.772301 0.383775 0.539135
3 0 1 2
3 0 2 3
3 0 3 4
3 0 4 5
3 0 5 6
3 0 6 7
3 0 7 8
3 0 8 1
3 9 10 11
3 9 11 12
3 9 12 13
3 9 13 14
3 9 14 15
3 9 15 16
3 9 16 17
3 9 17 10
3 18 19 20
3 18 20 21
3 22 23 24
3 22 24 25
3 22 25 26
3 22 26 27
3 18 28 29
3 18 29 30
3 18 30 31
3 18 31 19
3 32 33 34
3 32 34 35
3 32 35 36
3 32 36 37
3 32 37 38
3 32 38 39
3 32 39 40
3 32 40 33
3 41 42 43
3 41 43 44
3 45 46 47
3 45 47 48
3 45 48 49
3 45 49 50
3 51 52 53
3 51 53 54
3 51 54 24
3 51 24 23
3 41 21 20
3 41 20 55
3 41 55 56
3 41 56 42
3 57 58 59
3 57 59 60
3 57 60 26
3 57 26 25
3 57 25 24
3 57 24 61
3 57 61 62
3 57 62 58
3 63 64 65
3 63 65 66
3 63 66 67
3 63 67 68
3 63 68 69
3 63 69 70
3 63 70 71
3 63 71 72
3 63 72 73
3 63 73 74
3 63 74 75
3 63 75 64
3 76 77 78
3 76 78 79
3 76 79 80
3 76 80 81
3 76 81 82
3 76 82 83
3 76 83 84
3 76 84 77
3 85 86 87
3 85 87 88
3 85 88 89
3 85 89 90
3 85 90 91
3 85 91 92
3 85 92 93
3 85 93 86
3 94 7 6
3 94 6 95
3 94 95 96
3 94 96 97
3 94 97 98
3 94 98 99
3 94 99 8
3 94 8 7
3 100 101 102
3 100 102 103
3 100 103 104
3 100 104 105
3 100 105 106
3 100 106 107
3 100 107 108
3 100 108 101
3 109 110 111
3 109 111 112
3 109 112 113
3 109 113 114
3 109 114 115
3 109 115 116
3 109 116 117
3 109 117 110
3 118 119 120
3 118 120 121
3 118 121 122
3 118 122 123
3 118 123 124
3 118 124 125
3 118 125 126
3 118 126 119
3 127 128 129
3 127 129 130
3 127 130 131
3 127 131 132
3 127 132 133
3 127 133 134
3 127 134 135
3 127 135 128
3 136 70 69
3 136 69 137
3 136 137 138
3 136 138 139
3 136 139 62
3 136 62 140
3 136 140 141
3 136 141 142
3 136 142 71
3 136 71 70
3 143 144 145
3 143 145 146
3 143 146 147
3 143 147 148
3 143 148 4
3 143 4 3
3 143 3 2
3 143 2 149
3 143 149 150
3 143 150 144
3 151 114 113
3 151 113 152
3 151 152 153
3 151 153 154
3 151 154 155
3 151 155 156
3 151 156 115
3 151 115 114
3 157 158 93
3 157 93 92
3 157 92 91
3 157 91 159
3 157 159 160
3 157 160 161
3 157 161 162
3 157 162 163
3 157 163 164
3 157 164 158
3 165 123 122
3 165 122 166
3 165 166 167
3 165 167 168
3 165 168 31
3 165 31 30
3 165 30 29
3 165 29 169
3 165 169 124
3 165 124 123
3 170 171 172
3 170 172 173
3 170 173 174
3 170 174 175
3 170 175 176
3 170 176 177
3 170 177 49
3 170 49 48
3 170 48 47
3 170 47 178
3 170 178 179
3 170 179 171
3 180 140 62
3 180 62 61
3 180 61 24
3 180 24 54
3 180 54 53
3 180 53 181
3 180 181 141
3 180 141 140
3 182 183 184
3 182 184 185
3 182 185 186
3 182 186 187
3 182 187 174
3 182 174 173
3 182 173 172
3 182 172 183
3 188 189 190
3 188 190 191
3 188 191 192
3 188 192 193
3 188 193 194
3 188 194 195
3 188 195 196
3 188 196 197
3 188 197 198
3 188 198 199
3 188 199 200
3 188 200 189
3 201 202 203
3 201 203 204
3 201 204 205
3 201 205 206
3 201 206 207
3 201 207 208
3 201 208 209
3 201 209 202
3 210 211 135
3 210 135 134
3 210 134 133
3 210 133 212
3 210 212 80
3 210 80 79
3 210 79 78
3 210 78 211
3 213 214 215
3 213 215 216
3 213 216 217
3 213 217 218
3 213 218 219
3 213 219 220
3 213 220 221
3 213 221 214
3 222 223 224
3 222 224 225
3 222 225 226
3 222 226 227
3 222 227 228
3 222 228 229
3 222 229 230
3 222 230 223
3 231 232 117
3 231 117 116
3 231 116 115
3 231 115 233
3 231 233 234
3 231 234 235
3 231 235 89
3 231 89 88
3 231 88 87
3 231 87 232
3 236 237 84
3 236 84 83
3 236 83 82
3 236 82 238
3 236 238 239
3 236 239 240
3 236 240 190
3 236 190 237
3 241 161 160
3 241 160 242
3 241 242 230
3 241 230 229
3 241 229 228
3 241 228 243
3 241 243 244
3 241 244 245
3 241 245 246
3 241 246 247
3 241 247 162
3 241 162 161
3 248 233 115
3 248 115 156
3 248 156 155
3 248 155 249
3 248 249 226
3 248 226 225
3 248 225 224
3 248 224 250
3 248 250 234
3 248 234 233
3 251 218 217
3 251 217 252
3 251 252 253
3 251 253 254
3 251 254 255
3 251 255 256
3 251 256 257
3 251 257 258
3 251 258 259
3 251 259 260
3 251 260 219
3 251 219 218
3 261 262 209
3 261 209 208
3 261 208 207
3 261 207 263
3 261 263 264
3 261 264 265
3 261 265 266
3 261 266 267
3 261 267 268
3 261 268 262
3 269 270 271
3 269 271 272
3 269 272 273
3 269 273 274
3 269 274 275
3 269 275 276
3 269 276 277
3 269 277 270
3 278 279 280
3 278 280 281
3 278 281 184
3 278 184 282
3 278 282 283
3 278 283 284
3 278 284 285
3 278 285 286
3 278 286 287
3 278 287 279
3 288 289 290
3 288 290 291
3 288 291 292
3 288 292 293
3 288 293 294
3 288 294 295
3 288 295 296
3 288 296 289
3 297 298 299
3 297 299 300
3 297 300 301
3 297 301 302
3 297 302 13
3 297 13 12
3 297 12 11
3 297 11 298
3 303 304 305
3 303 305 306
3 303 306 307
3 303 307 308
3 303 308 102
3 303 102 101
3 303 101 108
3 303 108 309
3 303 309 310
3 303 310 304
3 311 312 313
3 311 313 314
3 311 314 315
3 311 315 316
3 311 316 317
3 311 317 318
3 311 318 319
3 311 319 312
3 320 302 301
3 320 301 321
3 320 321 322
3 320 322 323
3 320 323 324
3 320 324 325
3 320 325 13
3 320 13 302
3 326 327 196
3 326 196 328
3 326 328 329
3 326 329 330
3 326 330 331
3 326 331 332
3 326 332 333
3 326 333 327
3 334 335 221
3 334 221 220
3 334 220 219
3 334 219 336
3 334 336 337
3 334 337 338
3 334 338 339
3 334 339 335
3 340 341 268
3 340 268 267
3 340 267 266
3 340 266 342
3 340 342 343
3 340 343 344
3 340 344 345
3 340 345 346
3 340 346 347
3 340 347 341
3 348 263 207
3 348 207 349
3 348 349 350
3 348 350 351
3 348 351 352
3 348 352 353
3 348 353 264
3 348 264 263
3 354 336 219
3 354 219 260
3 354 260 259
3 354 259 355
3 354 355 356
3 354 356 357
3 354 357 337
3 354 337 336
3 358 344 343
3 358 343 359
3 358 359 360
3 358 360 361
3 358 361 362
3 358 362 363
3 358 363 364
3 358 364 365
3 358 365 345
3 358 345 344
3 366 367 368
3 366 368 369
3 370 371 364
3 370 364 363
3 370 363 362
3 370 362 372
3 366 373 305
3 366 305 304
3 366 304 310
3 366 310 374
3 366 374 292
3 366 292 367
3 375 376 377
3 375 377 378
3 375 378 379
3 375 379 380
3 375 380 381
3 375 381 382
3 375 382 383
3 375 383 384
3 375 384 385
3 375 385 386
3 375 386 387
3 375 387 388
3 375 388 389
3 375 389 376
3 390 391 392
3 390 392 393
3 390 393 394
3 390 394 395
3 390 395 396
3 390 396 397
3 390 397 104
3 390 104 103
3 390 103 102
3 390 102 391
3 398 206 205
3 398 205 399
3 398 399 400
3 398 400 401
3 398 401 350
3 398 350 349
3 398 349 207
3 398 207 206
3 402 16 15
3 402 15 403
3 402 403 404
3 402 404 405
3 402 405 406
3 402 406 407
3 402 407 17
3 402 17 16
3 408 409 410
3 408 410 411
3 408 411 412
3 408 412 413
3 408 413 414
3 408 414 415
3 408 415 67
3 408 67 66
3 408 66 65
3 408 65 409
3 416 417 418
3 416 418 419
3 416 419 59
3 416 59 58
3 416 58 62
3 416 62 139
3 416 139 138
3 416 138 417
3 420 14 13
3 420 13 325
3 420 325 324
3 420 324 421
3 420 421 404
3 420 404 403
3 420 403 15
3 420 15 14
3 422 423 424
3 422 424 425
3 422 425 40
3 422 40 426
3 422 426 96
3 422 96 95
3 422 95 6
3 422 6 423
3 427 428 429
3 427 429 430
3 427 430 11
3 427 11 10
3 427 10 17
3 427 17 431
3 427 431 432
3 427 432 428
3 433 434 435
3 433 435 436
3 433 436 368
3 433 368 367
3 433 367 292
3 433 292 291
3 433 291 290
3 433 290 434
3 437 426 40
3 437 40 39
3 437 39 38
3 437 38 438
3 437 438 439
3 437 439 440
3 437 440 96
3 437 96 426
3 441 293 292
3 441 292 374
3 441 374 310
3 441 310 442
3 441 442 443
3 441 443 444
3 441 444 294
3 441 294 293
3 445 446 447
3 445 447 448
3 445 448 449
3 445 449 450
3 445 450 451
3 445 451 452
3 445 452 453
3 445 453 454
3 445 454 455
3 445 455 446
3 456 457 455
3 456 455 454
3 456 454 453
3 456 453 458
3 456 458 459
3 456 459 460
3 456 460 122
3 456 122 121
3 456 121 120
3 456 120 457
3 461 462 84
3 461 84 237
3 461 237 190
3 461 190 189
3 461 189 200
3 461 200 463
3 461 463 464
3 461 464 465
3 461 465 466
3 461 466 462
3 467 468 469
3 467 469 470
3 467 470 471
3 467 471 472
3 467 472 473
3 467 473 474
3 467 474 475
3 467 475 468
3 476 442 310
3 476 310 309
3 476 309 108
3 476 108 107
3 476 107 106
3 476 106 477
3 476 477 443
3 476 443 442
3 478 5 4
3 478 4 479
3 478 479 480
3 478 480 481
3 478 481 424
3 478 424 423
3 478 423 6
3 478 6 5
3 482 483 484
3 482 484 485
3 482 485 410
3 482 410 409
3 482 409 65
3 482 65 486
3 482 486 487
3 482 487 483
3 488 431 17
3 488 17 407
3 488 407 406
3 488 406 489
3 488 489 490
3 488 490 491
3 488 491 432
3 488 432 431
3 492 493 494
3 492 494 495
3 492 495 496
3 492 496 497
3 492 497 498
3 492 498 499
3 492 499 500
3 492 500 493
3 501 211 78
3 501 78 77
3 501 77 84
3 501 84 462
3 501 462 466
3 501 466 502
3 501 502 135
3 501 135 211
3 503 128 135
3 503 135 502
3 503 502 466
3 503 466 504
3 503 504 505
3 503 505 506
3 503 506 129
3 503 129 128
3 507 144 150
3 507 150 508
3 507 508 487
3 507 487 486
3 507 486 65
3 507 65 64
3 507 64 75
3 507 75 509
3 507 509 510
3 507 510 511
3 507 511 145
3 507 145 144
3 512 513 198
3 512 198 197
3 512 197 196
3 512 196 327
3 512 327 333
3 512 333 514
3 512 514 515
3 512 515 513
3 516 517 518
3 516 518 519
3 516 519 299
3 516 299 298
3 516 298 11
3 516 11 430
3 516 430 429
3 516 429 517
3 520 384 383
3 520 383 521
3 520 521 277
3 520 277 276
3 520 276 275
3 520 275 522
3 520 522 523
3 520 523 524
3 520 524 385
3 520 385 384
3 525 191 190
3 525 190 240
3 525 240 239
3 525 239 526
3 525 526 315
3 525 315 314
3 525 314 313
3 525 313 527
3 525 527 192
3 525 192 191
3 528 504 466
3 528 466 465
3 528 465 464
3 528 464 529
3 528 529 530
3 528 530 531
3 528 531 505
3 528 505 504
3 532 148 147
3 532 147 533
3 532 533 534
3 532 534 535
3 532 535 480
3 532 480 479
3 532 479 4
3 532 4 148
3 536 537 538
3 536 538 539
3 536 539 203
3 536 203 202
3 536 202 209
3 536 209 540
3 536 540 541
3 536 541 537
3 542 274 273
3 542 273 543
3 542 543 283
3 542 283 282
3 542 282 184
3 542 184 183
3 542 183 172
3 542 172 544
3 542 544 275
3 542 275 274
3 545 546 541
3 545 541 540
3 545 540 209
3 545 209 262
3 545 262 268
3 545 268 547
3 545 547 548
3 545 548 546
3 549 450 449
3 549 449 550
3 549 550 475
3 549 475 474
3 549 474 473
3 549 473 551
3 549 551 451
3 549 451 450
3 552 553 554
3 552 554 555
3 552 555 556
3 552 556 557
3 552 557 558
3 552 558 559
3 552 559 560
3 552 560 553
3 561 460 459
3 561 459 562
3 561 562 560
3 561 560 559
3 561 559 558
3 561 558 563
3 561 563 167
3 561 167 166
3 561 166 122
3 561 122 460
3 564 565 566
3 564 566 567
3 564 567 568
3 564 568 569
3 564 569 496
3 564 496 495
3 564 495 494
3 564 494 565
3 570 571 572
3 570 572 573
3 570 573 377
3 570 377 376
3 570 376 389
3 570 389 574
3 570 574 575
3 570 575 571
3 576 577 578
3 576 578 579
3 576 579 392
3 576 392 391
3 576 391 102
3 576 102 308
3 576 308 307
3 576 307 577
3 580 497 496
3 580 496 569
3 580 569 568
3 580 568 581
3 580 581 381
3 580 381 380
3 580 380 379
3 580 379 582
3 580 582 498
3 580 498 497
3 583 584 585
3 583 585 586
3 583 586 587
3 583 587 588
3 583 588 589
3 583 589 590
3 583 590 471
3 583 471 470
3 583 470 469
3 583 469 584
3 591 522 275
3 591 275 544
3 591 544 172
3 591 172 171
3 591 171 179
3 591 179 592
3 591 592 523
3 591 523 522
3 593 594 595
3 593 595 596
3 593 596 287
3 593 287 286
3 593 286 285
3 593 285 597
3 593 597 568
3 593 568 567
3 593 567 566
3 593 566 594
3 598 588 587
3 598 587 599
3 598 599 43
3 598 43 42
3 598 42 56
3 598 56 600
3 598 600 556
3 598 556 555
3 598 555 554
3 598 554 601
3 598 601 589
3 598 589 588
3 602 603 604
3 602 604 605
3 602 605 186
3 602 186 185
3 602 185 184
3 602 184 281
3 602 281 280
3 602 280 603
3 606 97 96
3 606 96 440
3 606 440 439
3 606 439 607
3 606 607 414
3 606 414 413
3 606 413 412
3 606 412 608
3 606 608 98
3 606 98 97
3 609 610 611
3 609 611 612
3 609 612 176
3 609 176 175
3 609 175 174
3 609 174 613
3 609 613 614
3 609 614 610
3 615 616 617
3 615 617 618
3 615 618 319
3 615 319 619
3 620 621 538
3 620 538 622
3 623 624 331
3 623 331 625
3 626 627 548
3 626 548 628
3 629 630 301
3 629 301 631
3 632 543 273
3 632 273 633
3 632 633 285
3 632 285 284
3 632 284 283
3 632 283 543
3 634 177 176
3 634 176 635
3 636 637 53
3 636 53 52
3 634 50 49
3 634 49 177
3 638 411 410
3 638 410 639
3 638 639 98
3 638 98 608
3 638 608 412
3 638 412 411
3 640 641 126
3 640 126 642
3 643 644 418
3 643 418 645
3 643 645 414
3 643 414 646
3 647 149 2
3 647 2 648
3 647 648 487
3 647 487 508
3 647 508 150
3 647 150 149
3 649 563 558
3 649 558 650
3 649 650 31
3 649 31 168
3 649 168 167
3 649 167 563
3 651 378 377
3 651 377 652
3 651 652 498
3 651 498 582
3 651 582 379
3 651 379 378
3 653 393 392
3 653 392 654
3 653 654 655
3 653 655 656
3 653 656 394
3 653 394 393
3 657 527 313
3 657 313 658
3 657 658 194
3 657 194 193
3 657 193 192
3 657 192 527
3 659 660 661
3 659 661 662
3 659 662 226
3 659 226 663
3 664 250 224
3 664 224 665
3 664 665 89
3 664 89 235
3 664 235 234
3 664 234 250
3 666 74 73
3 666 73 667
3 666 667 510
3 666 510 509
3 666 509 75
3 666 75 74
3 668 68 67
3 668 67 669
3 668 669 138
3 668 138 137
3 668 137 69
3 668 69 68
3 670 671 672
3 670 672 673
3 674 675 155
3 674 155 676
3 677 678 614
3 677 614 679
3 680 159 91
3 680 91 681
3 680 681 230
3 680 230 242
3 680 242 160
3 680 160 159
3 682 252 217
3 682 217 683
3 682 683 684
3 682 684 685
3 682 685 253
3 682 253 252
3 686 256 255
3 686 255 687
3 686 687 688
3 686 688 689
3 686 689 257
3 686 257 256
3 690 691 435
3 690 435 692
3 693 694 324
3 693 324 695
3 696 697 347
3 696 347 698
3 699 265 264
3 699 264 700
3 699 700 343
3 699 343 342
3 699 342 266
3 699 266 265
3 701 369 368
3 701 368 702
3 703 704 345
3 703 345 365
3 703 365 364
3 703 364 371
3 705 706 500
3 705 500 707
3 705 707 572
3 705 572 708
3 709 710 350
3 709 350 711
3 712 713 714
3 712 714 715
3 712 715 578
3 712 578 716
3 717 718 360
3 717 360 719
3 717 719 352
3 717 352 720
3 721 372 362
3 721 362 722
3 723 724 307
3 723 307 306
3 723 306 305
3 723 305 373
3 725 726 296
3 725 296 727
3 728 729 34
3 728 34 730
3 731 732 406
3 731 406 733
3 734 735 447
3 734 447 736
3 737 738 36
3 737 36 739
3 740 741 294
3 740 294 742
3 743 452 451
3 743 451 744
3 743 744 459
3 743 459 458
3 743 458 453
3 743 453 452
3 745 199 198
3 745 198 746
3 745 746 464
3 745 464 463
3 745 463 200
3 745 200 199
3 747 748 515
3 747 515 749
3 750 751 518
3 750 518 752
3 747 753 530
3 747 530 748
3 754 382 381
3 754 381 755
3 754 755 277
3 754 277 521
3 754 521 383
3 754 383 382
3 756 601 554
3 756 554 757
3 756 757 471
3 756 471 590
3 756 590 589
3 756 589 601
3 758 44 43
3 758 43 759
3 760 761 179
3 760 179 178
3 760 178 47
3 760 47 46
3 762 55 20
3 762 20 763
3 762 763 556
3 762 556 600
3 762 600 56
3 762 56 55
3 764 765 329
3 764 329 766
3 764 766 617
3 764 617 616
3 767 622 538
3 767 538 537
3 767 537 541
3 767 541 768
3 671 769 174
3 671 174 187
3 671 187 186
3 671 186 672
3 770 670 673
3 770 673 771
3 663 772 660
3 663 660 659
3 773 774 124
3 773 124 169
3 773 169 29
3 773 29 28
3 775 27 26
3 775 26 60
3 775 60 59
3 775 59 776
3 777 648 2
3 777 2 1
3 777 1 8
3 777 8 778
3 777 778 484
3 777 484 483
3 777 483 487
3 777 487 648
3 779 780 203
3 779 203 539
3 779 539 538
3 779 538 621
3 781 619 319
3 781 319 318
3 781 318 317
3 781 317 782
3 783 625 331
3 783 331 330
3 783 330 329
3 783 329 765
3 784 768 541
3 784 541 546
3 784 546 548
3 784 548 627
3 785 633 273
3 785 273 272
3 785 272 271
3 785 271 786
3 785 786 568
3 785 568 597
3 785 597 285
3 785 285 633
3 787 778 8
3 787 8 99
3 787 99 98
3 787 98 639
3 787 639 410
3 787 410 485
3 787 485 484
3 787 484 778
3 788 642 126
3 788 126 125
3 788 125 124
3 788 124 774
3 789 776 59
3 789 59 419
3 789 419 418
3 789 418 644
3 790 791 400
3 790 400 399
3 790 399 205
3 790 205 792
3 793 794 337
3 793 337 357
3 793 357 356
3 793 356 795
3 796 792 205
3 796 205 204
3 796 204 203
3 796 203 780
3 797 798 339
3 797 339 338
3 797 338 337
3 797 337 794
3 799 618 617
3 799 617 800
3 799 800 194
3 799 194 658
3 799 658 313
3 799 313 312
3 799 312 319
3 799 319 618
3 673 672 186
3 673 186 605
3 673 605 604
3 673 604 771
3 801 769 671
3 801 671 670
3 802 801 670
3 802 670 770
3 803 804 117
3 803 117 232
3 803 232 87
3 803 87 805
3 806 807 80
3 806 80 212
3 806 212 133
3 806 133 808
3 809 810 111
3 809 111 110
3 809 110 117
3 809 117 804
3 811 808 133
3 811 133 132
3 811 132 131
3 811 131 812
3 813 645 418
3 813 418 417
3 813 417 138
3 813 138 669
3 813 669 67
3 813 67 415
3 813 415 414
3 813 414 645
3 814 815 772
3 814 772 663
3 679 816 769
3 679 769 801
3 814 663 226
3 814 226 249
3 814 249 155
3 814 155 675
3 817 818 611
3 817 611 610
3 817 610 614
3 817 614 678
3 819 676 155
3 819 155 154
3 819 154 153
3 819 153 820
3 821 635 176
3 821 176 612
3 821 612 611
3 821 611 818
3 822 823 141
3 822 141 181
3 822 181 53
3 822 53 637
3 677 679 801
3 677 801 802
3 675 674 815
3 675 815 814
3 816 679 614
3 816 614 613
3 816 613 174
3 816 174 769
3 824 805 87
3 824 87 86
3 824 86 93
3 824 93 825
3 826 827 82
3 826 82 81
3 826 81 80
3 826 80 807
3 828 825 93
3 828 93 158
3 828 158 164
3 828 164 829
3 830 831 239
3 830 239 238
3 830 238 82
3 830 82 827
3 832 665 224
3 832 224 223
3 832 223 230
3 832 230 681
3 832 681 91
3 832 91 90
3 832 90 89
3 832 89 665
3 833 662 661
3 833 661 834
3 833 834 835
3 833 835 836
3 833 836 228
3 833 228 227
3 833 227 226
3 833 226 662
3 837 836 835
3 837 835 838
3 837 838 839
3 837 839 840
3 837 840 244
3 837 244 243
3 837 243 228
3 837 228 836
3 841 683 217
3 841 217 216
3 841 216 215
3 841 215 842
3 841 842 843
3 841 843 844
3 841 844 684
3 841 684 683
3 845 692 435
3 845 435 434
3 845 434 290
3 845 290 846
3 847 848 404
3 847 404 421
3 847 421 324
3 847 324 694
3 849 850 268
3 849 268 341
3 849 341 347
3 849 347 697
3 851 695 324
3 851 324 323
3 851 323 322
3 851 322 852
3 853 854 494
3 853 494 493
3 853 493 500
3 853 500 706
3 855 711 350
3 855 350 401
3 855 401 400
3 855 400 791
3 856 708 572
3 856 572 571
3 856 571 575
3 856 575 857
3 858 720 352
3 858 352 351
3 858 351 350
3 858 350 710
3 859 716 578
3 859 578 577
3 859 577 307
3 859 307 724
3 860 722 362
3 860 362 361
3 860 361 360
3 860 360 718
3 861 852 322
3 861 322 321
3 861 321 301
3 861 301 630
3 862 628 548
3 862 548 547
3 862 547 268
3 862 268 850
3 863 702 368
3 863 368 436
3 863 436 435
3 863 435 691
3 864 698 347
3 864 347 346
3 864 346 345
3 864 345 704
3 865 719 360
3 865 360 359
3 865 359 343
3 865 343 700
3 865 700 264
3 865 264 353
3 865 353 352
3 865 352 719
3 866 652 377
3 866 377 573
3 866 573 572
3 866 572 707
3 866 707 500
3 866 500 499
3 866 499 498
3 866 498 652
3 867 654 392
3 867 392 579
3 867 579 578
3 867 578 715
3 867 715 714
3 867 714 868
3 867 868 655
3 867 655 654
3 869 846 290
3 869 290 289
3 869 289 296
3 869 296 726
3 870 733 406
3 870 406 405
3 870 405 404
3 870 404 848
3 871 730 34
3 871 34 33
3 871 33 40
3 871 40 872
3 873 874 490
3 873 490 489
3 873 489 406
3 873 406 732
3 875 876 120
3 875 120 119
3 875 119 126
3 875 126 641
3 877 646 414
3 877 414 607
3 877 607 439
3 877 439 878
3 879 736 447
3 879 447 446
3 879 446 455
3 879 455 880
3 881 882 38
3 881 38 37
3 881 37 36
3 881 36 738
3 883 880 455
3 883 455 457
3 883 457 120
3 883 120 876
3 884 878 439
3 884 439 438
3 884 438 38
3 884 38 882
3 885 872 40
3 885 40 425
3 885 425 424
3 885 424 886
3 887 888 432
3 887 432 491
3 887 491 490
3 887 490 874
3 889 739 36
3 889 36 35
3 889 35 34
3 889 34 729
3 890 727 296
3 890 296 295
3 890 295 294
3 890 294 741
3 891 892 449
3 891 449 448
3 891 448 447
3 891 447 735
3 893 742 294
3 893 294 444
3 893 444 443
3 893 443 894
3 895 896 475
3 895 475 550
3 895 550 449
3 895 449 892
3 897 894 443
3 897 443 477
3 897 477 106
3 897 106 898
3 899 900 560
3 899 560 562
3 899 562 459
3 899 459 744
3 899 744 451
3 899 451 551
3 899 551 473
3 899 473 900
3 901 902 429
3 901 429 428
3 901 428 432
3 901 432 888
3 903 886 424
3 903 424 481
3 903 481 480
3 903 480 904
3 905 746 198
3 905 198 513
3 905 513 515
3 905 515 748
3 905 748 530
3 905 530 529
3 905 529 464
3 905 464 746
3 906 752 518
3 906 518 517
3 906 517 429
3 906 429 902
3 907 904 480
3 907 480 535
3 907 535 534
3 907 534 908
3 909 910 299
3 909 299 519
3 909 519 518
3 909 518 751
3 911 749 515
3 911 515 514
3 911 514 333
3 911 333 912
3 913 631 301
3 913 301 300
3 913 300 299
3 913 299 910
3 914 912 333
3 914 333 332
3 914 332 331
3 914 331 624
3 915 916 469
3 915 469 468
3 915 468 475
3 915 475 896
3 917 898 106
3 917 106 105
3 917 105 104
3 917 104 918
3 919 786 271
3 919 271 270
3 919 270 277
3 919 277 755
3 919 755 381
3 919 381 581
3 919 581 568
3 919 568 786
3 920 921 585
3 920 585 584
3 920 584 469
3 920 469 916
3 922 918 104
3 922 104 397
3 922 397 396
3 922 396 923
3 924 757 554
3 924 554 553
3 924 553 560
3 924 560 900
3 924 900 473
3 924 473 472
3 924 472 471
3 924 471 757
3 925 763 20
3 925 20 19
3 925 19 31
3 925 31 650
3 925 650 558
3 925 558 557
3 925 557 556
3 925 556 763
3 926 927 587
3 926 587 586
3 926 586 585
3 926 585 921
3 928 929 385
3 928 385 524
3 928 524 523
3 928 523 930
3 931 759 43
3 931 43 599
3 931 599 587
3 931 587 927
3 932 930 523
3 932 523 592
3 932 592 179
3 932 179 761
3 933 195 194
3 933 194 800
3 933 800 617
3 933 617 766
3 933 766 329
3 933 329 328
3 933 328 196
3 933 196 195
