ply
format ascii 1.0
comment Created by Blender 2.80 (sub 75) - www.blender.org, source file: 'Asteroid_Small_6X.blend'
element vertex 881
property float x
property float y
property float z
property float nx
property float ny
property float nz
property float s
property float t
element face 1408
property list uchar uint vertex_indices
end_header
-0.750712 -0.096001 0.479658 -0.895505 -0.247719 0.369671 0.521131 0.215892
-0.785589 -0.090794 0.370469 -0.983734 -0.055849 0.170690 0.504916 0.183990
-0.768389 -0.231110 0.336045 -0.901028 -0.286355 0.325755 0.540862 0.157541
-0.712117 -0.220359 0.450733 -0.795587 -0.406751 0.448897 0.555543 0.193769
-0.678379 -0.195286 0.526657 -0.744346 -0.422498 0.517106 0.560574 0.220229
-0.712632 -0.107890 0.540121 -0.790002 -0.334300 0.513901 0.534551 0.233456
-0.736571 -0.038510 0.540912 -0.832942 -0.260537 0.488113 0.513306 0.241362
-0.765909 0.001401 0.505711 -0.942167 -0.109012 0.316874 0.495931 0.234813
-0.778188 0.063741 0.415715 -0.975585 0.218451 0.022126 0.467000 0.216231
0.360628 0.055582 0.576649 0.147618 0.329417 0.932554 0.432008 0.355026
0.526266 0.126605 0.493327 0.248848 0.615101 0.748131 0.489080 0.338212
0.507010 0.228810 0.438264 0.404157 0.428510 0.808069 0.513637 0.366779
0.352431 0.241140 0.510361 0.316630 0.386181 0.866359 0.476260 0.398019
0.199678 0.286798 0.544725 0.169469 0.418714 0.892148 0.453943 0.437014
0.199272 0.094103 0.602430 0.225501 0.243294 0.943358 0.406948 0.396330
0.360628 0.055582 0.576649 0.147618 0.329417 0.932554 0.053293 0.531854
0.199272 0.094103 0.602430 0.225501 0.243294 0.943358 0.046379 0.482247
0.153739 -0.080241 0.638275 0.350291 0.124516 0.928312 0.103756 0.474434
0.216102 -0.088870 0.621021 0.165990 0.141057 0.975982 0.109772 0.494498
0.252549 -0.097310 0.622006 0.125736 0.103580 0.986633 0.111933 0.504797
0.358151 -0.051735 0.604181 0.062105 0.111301 0.991821 0.089308 0.533927
0.467961 -0.000319 0.596891 0.010926 0.123356 0.992279 0.069684 0.564010
0.507324 0.049392 0.586193 0.037996 0.507340 0.860897 0.052682 0.573938
0.507324 0.049392 0.586193 0.037996 0.507340 0.860897 0.454126 0.319351
0.578351 0.083959 0.533319 0.234291 0.712790 0.661031 0.482627 0.314775
-0.361532 0.357477 -0.415098 -0.514786 0.493789 -0.700797 0.410334 0.913421
-0.417196 0.345322 -0.370733 -0.640736 0.394787 -0.658437 0.407543 0.934928
-0.401507 0.418220 -0.339767 -0.592517 0.423780 -0.685049 0.381140 0.929661
-0.348218 0.443777 -0.366271 -0.452925 0.491195 -0.744011 0.380030 0.910599
-0.258235 0.454470 -0.396939 -0.193884 0.526322 -0.827876 0.382253 0.885057
-0.291498 0.354883 -0.450859 -0.216254 0.527573 -0.821497 0.415133 0.892310
-0.349196 0.290788 -0.478251 -0.404065 0.562975 -0.720939 0.435920 0.904543
-0.385398 0.286403 -0.444133 -0.660482 0.432966 -0.613361 0.434150 0.917819
-0.418476 0.275366 -0.408040 -0.710257 0.321604 -0.626118 0.433951 0.933265
0.434852 -0.569074 0.147052 0.475997 -0.878292 0.044771 0.928419 0.126981
0.362574 -0.607090 0.027582 0.458785 -0.888485 -0.009949 0.918212 0.082252
0.479640 -0.544623 0.006299 0.524522 -0.850002 -0.048555 0.957997 0.088663
0.524223 -0.521060 0.109512 0.505417 -0.862850 0.002777 0.960670 0.125843
0.586530 -0.480638 0.177977 0.465133 -0.879086 0.104038 0.973474 0.154914
0.551253 -0.498031 0.188209 0.496231 -0.855831 0.145817 0.961352 0.153945
0.529058 -0.506212 0.223473 0.506241 -0.819422 0.268715 0.950716 0.162237
0.451494 -0.549583 0.238298 0.495956 -0.822108 0.279519 0.924615 0.157159
0.336889 -0.611926 0.262139 0.444777 -0.842555 0.303720 0.887978 0.150156
0.300095 -0.640501 0.161869 0.417951 -0.907193 0.047548 0.885828 0.117024
0.243320 -0.662672 0.040731 0.388104 -0.921598 0.003784 0.879566 0.075229
0.591175 0.351959 0.108222 0.737266 0.332224 -0.588244 0.072477 0.109559
0.517672 0.335598 0.000925 0.801324 0.345378 -0.488388 0.078903 0.149147
0.472444 0.445218 -0.003831 0.792444 0.391308 -0.467849 0.043572 0.158337
0.541997 0.446260 0.096168 0.743156 0.401990 -0.534837 0.041867 0.121098
0.599077 0.423753 0.155948 0.740715 0.413282 -0.529618 0.048835 0.096266
0.652876 0.363529 0.185630 0.745170 0.398480 -0.534684 0.068552 0.079572
0.715770 0.275809 0.208243 0.711600 0.445143 -0.543504 0.097556 0.063066
0.655468 0.243933 0.123652 0.687033 0.422987 -0.590777 0.107885 0.094658
0.580560 0.208896 0.005553 0.739250 0.457625 -0.494034 0.120496 0.137087
-0.347872 0.506063 0.134679 -0.452620 0.860683 -0.233009 0.259281 0.195499
-0.350916 0.479705 0.048241 -0.528398 0.838496 -0.132878 0.256772 0.166463
-0.432405 0.423874 0.062302 -0.628376 0.743400 -0.229011 0.285889 0.162497
-0.459886 0.439223 0.148539 -0.606098 0.736015 -0.301462 0.297146 0.189398
-0.475837 0.470923 0.247890 -0.569628 0.797174 -0.199927 0.304148 0.222143
-0.346228 0.530601 0.221974 -0.395032 0.906186 -0.150884 0.262722 0.224368
-0.221666 0.572406 0.207219 -0.281014 0.946837 -0.156560 0.225148 0.228735
-0.228807 0.551294 0.122072 -0.290658 0.940825 -0.174169 0.222537 0.200409
-0.267132 0.527783 0.032520 -0.401624 0.915372 -0.027345 0.228245 0.169089
-0.363039 0.147163 -0.450700 -0.524400 -0.238411 -0.817377 0.477415 0.915896
-0.443415 0.142418 -0.389318 -0.563128 -0.108188 -0.819239 0.478407 0.946464
-0.426499 0.204375 -0.413976 -0.651479 -0.100009 -0.752007 0.457978 0.936494
-0.385806 0.212374 -0.455960 -0.644459 -0.216132 -0.733421 0.456774 0.918675
-0.345491 0.222436 -0.493623 -0.512040 -0.311716 -0.800378 0.454920 0.903728
-0.282335 0.150571 -0.497019 -0.349895 -0.271523 -0.896542 0.476416 0.889418
-0.228164 0.060824 -0.488808 -0.266335 -0.255837 -0.929289 0.504993 0.876440
-0.342956 0.060182 -0.441021 -0.425367 -0.171941 -0.888516 0.505707 0.912863
-0.455448 0.052336 -0.375059 -0.488723 -0.020447 -0.872189 0.508241 0.952417
-0.371899 0.527444 -0.295261 -0.477096 0.490341 -0.729301 0.347443 0.915291
-0.440129 0.459338 -0.283659 -0.611347 0.412244 -0.675466 0.358038 0.941859
-0.481088 0.508716 -0.213600 -0.670949 0.444624 -0.593371 0.327311 0.950140
-0.403790 0.589332 -0.229178 -0.538133 0.549028 -0.639454 0.321988 0.918959
-0.305041 0.629721 -0.259514 -0.307321 0.624256 -0.718192 0.323434 0.894409
-0.274305 0.554234 -0.324847 -0.244789 0.550462 -0.798120 0.348421 0.888988
-0.546827 0.365004 0.388219 -0.188726 0.633992 0.749931 0.369617 0.635707
-0.555186 0.394199 0.362699 -0.295358 0.682669 0.668325 0.378068 0.644883
-0.607792 0.317897 0.409114 -0.397443 0.625416 0.671438 0.346571 0.640793
-0.591120 0.288273 0.438726 -0.282479 0.586627 0.758965 0.338743 0.629088
-0.538138 0.254730 0.480474 -0.257210 0.574572 0.776971 0.334233 0.606859
-0.503959 0.336915 0.422397 -0.215613 0.640431 0.737114 0.365790 0.617588
-0.464609 0.384311 0.390530 -0.206091 0.673055 0.710257 0.386939 0.619206
-0.486514 0.418603 0.352447 -0.163030 0.668844 0.725272 0.396093 0.634053
-0.484438 0.452541 0.322559 -0.224891 0.735343 0.639241 0.407985 0.642287
-0.309329 -0.430380 -0.273243 -0.099582 -0.721610 -0.685049 0.896606 0.415698
-0.289385 -0.350831 -0.345613 -0.058840 -0.525529 -0.848720 0.893109 0.451429
-0.134757 -0.363797 -0.352619 -0.268685 -0.460952 -0.845729 0.848147 0.452504
-0.159758 -0.450597 -0.281171 -0.275887 -0.653188 -0.705100 0.852476 0.415657
-0.210126 -0.513784 -0.198914 -0.197546 -0.760704 -0.618275 0.865276 0.380793
-0.356515 -0.488207 -0.192764 -0.135075 -0.766228 -0.628163 0.908975 0.382216
-0.462748 -0.459511 -0.205465 -0.183386 -0.779809 -0.598529 0.940962 0.389841
-0.446723 -0.416909 -0.275287 -0.132145 -0.761773 -0.634205 0.936928 0.416979
-0.436133 -0.348972 -0.345450 -0.085665 -0.542253 -0.835810 0.935483 0.448856
0.345942 -0.357076 0.481161 0.533372 -0.446516 0.718375 0.195748 0.552832
0.458445 -0.345470 0.408808 0.481368 -0.415204 0.771905 0.195129 0.593070
0.487912 -0.215668 0.451782 0.498245 -0.395245 0.771691 0.150211 0.594541
0.359614 -0.226802 0.543888 0.582781 -0.401715 0.706351 0.149846 0.547197
0.269901 -0.266315 0.610234 0.586840 -0.446364 0.675527 0.159334 0.515078
0.252239 -0.381836 0.535847 0.470901 -0.528123 0.706595 0.200561 0.520148
0.345942 -0.357076 0.481161 0.533372 -0.446516 0.718375 0.881841 0.257297
0.252239 -0.381836 0.535847 0.470901 -0.528123 0.706595 0.848296 0.257296
0.251165 -0.502094 0.442839 0.385388 -0.592425 0.707419 0.855483 0.209868
0.353952 -0.471181 0.406578 0.469039 -0.527177 0.708548 0.887859 0.213372
0.353952 -0.471181 0.406578 0.469039 -0.527177 0.708548 0.237601 0.566061
0.437098 -0.427164 0.377299 0.473128 -0.478103 0.739952 0.224056 0.592133
-0.475180 0.344844 -0.314391 -0.659474 0.352397 -0.663961 0.914445 0.947798
-0.417196 0.345322 -0.370733 -0.640736 0.394787 -0.658437 0.914848 0.972762
-0.418476 0.275366 -0.408040 -0.710257 0.321604 -0.626118 0.890825 0.981937
-0.443345 0.269640 -0.383606 -0.688894 0.291513 -0.663625 0.888941 0.971152
-0.468980 0.243160 -0.367823 -0.693411 0.258950 -0.672353 0.880074 0.962365
-0.512865 0.251200 -0.319153 -0.667409 0.291147 -0.685385 0.882781 0.941887
-0.585972 0.263228 -0.244171 -0.667470 0.350963 -0.656697 0.886537 0.909250
-0.533276 0.387929 -0.230281 -0.700186 0.375408 -0.607257 0.929376 0.915899
-0.481088 0.508716 -0.213600 -0.670949 0.444624 -0.593371 0.970976 0.921706
-0.440129 0.459338 -0.283659 -0.611347 0.412244 -0.675466 0.953986 0.946728
-0.401507 0.418220 -0.339767 -0.592517 0.423780 -0.685049 0.940390 0.967996
-0.470770 -0.558321 0.157432 -0.126682 -0.918668 0.374126 0.667708 0.083732
-0.491095 -0.601456 0.042403 -0.143071 -0.939055 0.312540 0.668125 0.044520
-0.333977 -0.622637 0.045195 -0.121952 -0.934385 0.334697 0.712690 0.050342
-0.294729 -0.580443 0.155423 -0.100070 -0.912412 0.396802 0.716877 0.089514
-0.249587 -0.531507 0.281487 -0.067965 -0.924192 0.375744 0.721023 0.134255
-0.446671 -0.510067 0.284240 -0.117038 -0.927915 0.353923 0.666776 0.126535
-0.608371 -0.490117 0.275192 -0.180456 -0.920957 0.345317 0.624460 0.117836
-0.604616 -0.536521 0.160964 -0.189703 -0.913572 0.359630 0.630524 0.081461
-0.600343 -0.581117 0.047502 -0.195532 -0.930754 0.308939 0.636698 0.043703
-0.701112 0.116337 -0.084350 -0.854366 0.507401 0.112033 0.846828 0.842645
-0.702468 0.136171 -0.166399 -0.824366 0.554064 0.115665 0.846090 0.868735
-0.763806 0.049383 -0.166243 -0.878506 0.399792 0.261483 0.818669 0.861676
-0.746640 0.027069 -0.096993 -0.925840 0.348949 0.144932 0.816754 0.840978
-0.744590 0.015925 0.034914 -0.925474 0.376415 -0.041963 0.820147 0.799275
-0.699094 0.112554 0.042248 -0.871517 0.487686 -0.050783 0.853710 0.802844
-0.640244 0.203143 0.039224 -0.813654 0.578906 -0.052675 0.886587 0.810610
-0.631414 0.219656 -0.078545 -0.826106 0.550554 0.119999 0.884020 0.849491
-0.624540 0.252418 -0.165519 -0.854579 0.507828 0.108432 0.886667 0.879821
-0.800226 -0.107589 0.195613 -0.989654 0.139897 0.031404 0.488594 0.130826
-0.793969 -0.109649 0.008057 -0.970275 0.229682 -0.075991 0.466431 0.075237
-0.832164 -0.270793 -0.021032 -0.991058 -0.085604 -0.102206 0.511401 0.047319
-0.807692 -0.256211 0.168639 -0.973815 -0.160100 0.161260 0.527715 0.105487
-0.758177 0.036382 0.218815 -0.938322 0.333476 -0.091250 0.448697 0.155742
-0.744590 0.015925 0.034914 -0.925474 0.376415 -0.041963 0.430610 0.099043
-0.428303 -0.482602 0.370538 -0.158757 -0.880825 0.445967 0.666065 0.155110
-0.220490 -0.498688 0.378480 -0.040254 -0.922513 0.383801 0.722367 0.167811
-0.199505 -0.468158 0.458928 -0.014832 -0.850154 0.526292 0.721979 0.195749
-0.356648 -0.446239 0.456339 -0.177862 -0.802911 0.568926 0.678602 0.187834
-0.467858 -0.414441 0.447473 -0.287393 -0.718772 0.633045 0.646672 0.182537
-0.538952 -0.437092 0.391013 -0.280496 -0.706046 0.650197 0.632762 0.159406
-0.613042 -0.451697 0.347920 -0.276498 -0.665212 0.693503 0.617876 0.141187
-0.606892 -0.471667 0.326841 -0.210456 -0.841517 0.497513 0.622025 0.133739
-0.703090 0.152513 0.214913 -0.864589 0.480117 -0.148045 0.411471 0.169607
-0.699094 0.112554 0.042248 -0.871517 0.487686 -0.050783 0.400798 0.113637
-0.705675 0.199625 0.366067 -0.860469 0.495163 -0.119724 0.417721 0.219787
-0.624622 0.313242 0.327711 -0.816980 0.556902 -0.149480 0.373864 0.223896
-0.631137 0.254590 0.189139 -0.803919 0.565264 -0.184820 0.372942 0.175654
-0.640244 0.203143 0.039224 -0.813654 0.578906 -0.052675 0.369577 0.124762
-0.181591 0.602332 -0.084994 -0.148747 0.915769 0.373058 0.267858 0.872789
-0.197542 0.649664 -0.203354 0.008240 0.954131 0.299203 0.303740 0.873229
-0.309802 0.641629 -0.187108 -0.162816 0.885067 0.436018 0.303847 0.897688
-0.290410 0.592318 -0.106431 -0.209998 0.804773 0.555162 0.278361 0.900509
-0.287651 0.541875 -0.042435 -0.310129 0.773766 0.552293 0.254409 0.908116
-0.236826 0.554775 -0.035318 -0.318674 0.844111 0.431166 0.250281 0.893249
-0.200531 0.554594 0.007620 -0.382183 0.892148 0.240791 0.234864 0.883680
-0.135567 0.576193 0.031827 -0.231147 0.955046 0.185461 0.227295 0.862298
-0.007143 0.592133 0.050087 -0.025605 0.989898 0.139409 0.222705 0.822132
-0.048908 0.613622 -0.093773 0.039521 0.981384 0.187780 0.270482 0.836244
-0.095462 0.644965 -0.222203 0.106357 0.977752 0.180609 0.307140 0.850073
-0.459706 -0.127559 0.621942 -0.211585 -0.241249 0.947111 0.147187 0.309886
-0.280333 -0.189441 0.631412 -0.103336 -0.341899 0.934019 0.159072 0.361102
-0.312389 -0.059111 0.669679 -0.161901 -0.312052 0.936155 0.119346 0.348175
-0.398778 -0.035158 0.660584 -0.256203 -0.167180 0.952025 0.115464 0.324095
-0.437520 -0.000232 0.651399 -0.356334 0.078738 0.931028 0.106647 0.311728
-0.510130 -0.004757 0.624089 -0.295450 0.112522 0.948698 0.111410 0.290312
-0.678227 0.008453 0.580729 -0.316568 0.202948 0.926572 0.116366 0.241657
-0.622549 -0.114712 0.588473 -0.242592 -0.173650 0.954436 0.151233 0.263483
-0.586665 -0.212679 0.569104 -0.210273 -0.335582 0.918210 0.181069 0.277053
-0.421182 -0.276571 0.579401 -0.184179 -0.423170 0.887112 0.193522 0.325726
-0.235126 -0.333527 0.585515 -0.057955 -0.472213 0.879543 0.202905 0.378471
-0.460552 0.104678 0.604789 -0.263314 0.435224 0.860927 0.296463 0.552714
-0.313242 0.124455 0.630299 -0.143345 0.482803 0.863887 0.321845 0.517688
-0.277470 0.236058 0.572354 -0.115726 0.549181 0.827631 0.360340 0.532098
-0.419098 0.230587 0.539424 -0.235267 0.560045 0.794336 0.340404 0.568054
-0.600184 0.137440 0.540085 -0.282937 0.473067 0.834346 0.289613 0.598410
-0.460552 0.104678 0.604789 -0.263314 0.435224 0.860927 0.074068 0.295495
-0.600184 0.137440 0.540085 -0.282937 0.473067 0.834346 0.069628 0.249980
-0.399234 0.034464 0.655977 -0.271645 0.303079 0.913419 0.094331 0.320121
-0.321453 0.039885 0.669695 -0.154851 0.394818 0.905576 0.089145 0.341037
-0.313242 0.124455 0.630299 -0.143345 0.482803 0.863887 0.060422 0.336113
-0.440178 -0.536132 -0.120830 -0.180822 -0.748405 -0.638081 0.932174 0.352320
-0.277661 -0.571013 -0.114830 -0.127934 -0.801172 -0.584582 0.883398 0.346191
-0.327213 -0.618073 -0.041486 -0.091556 -0.858303 -0.504868 0.896661 0.316672
-0.483854 -0.592504 -0.046090 -0.182531 -0.773858 -0.606464 0.943230 0.320512
-0.621889 -0.556997 -0.034134 -0.358440 -0.637349 -0.682089 0.985623 0.322248
-0.558593 -0.494953 -0.115772 -0.380413 -0.632984 -0.674215 0.969275 0.357607
-0.535030 -0.475989 -0.153314 -0.428571 -0.666128 -0.610370 0.962442 0.371706
-0.492542 -0.483521 -0.166986 -0.270577 -0.741081 -0.614429 0.949159 0.374423
-0.287448 -0.237738 -0.393222 -0.062380 -0.309732 -0.948759 0.895684 0.491455
-0.422641 -0.248957 -0.384946 -0.092441 -0.277017 -0.956389 0.934442 0.483748
-0.416108 -0.156377 -0.402545 -0.126347 -0.167943 -0.977660 0.935566 0.514352
-0.304979 -0.123662 -0.419521 -0.116550 -0.226997 -0.966887 0.904282 0.529048
-0.168927 -0.108083 -0.441179 -0.154210 -0.290445 -0.944365 0.864915 0.539338
-0.143324 -0.235727 -0.404282 -0.180334 -0.310312 -0.933348 0.853817 0.496842
0.101746 0.312474 -0.417214 0.356395 0.403180 -0.842830 0.416600 0.785102
-0.019206 0.293500 -0.472728 0.209143 0.364238 -0.907498 0.430820 0.820562
-0.003542 0.407442 -0.416186 0.247810 0.479415 -0.841853 0.392963 0.818823
0.079159 0.406196 -0.378543 0.473342 0.482772 -0.736778 0.385297 0.794776
0.101456 0.409276 -0.356343 0.577654 0.494308 -0.649556 0.379761 0.787148
0.115366 0.382879 -0.361194 0.445204 0.501328 -0.741905 0.387260 0.781170
0.165218 0.375412 -0.350378 0.158818 0.479598 -0.862972 0.386577 0.765623
0.196558 0.298696 -0.382836 0.229133 0.388043 -0.892666 0.414450 0.754812
0.230781 0.196087 -0.416190 0.249886 0.306742 -0.918393 0.450481 0.743463
0.111187 0.186878 -0.463787 0.308054 0.246681 -0.918790 0.459468 0.780924
-0.028463 0.176906 -0.511644 0.166326 0.164983 -0.972137 0.467586 0.821824
0.380839 0.478094 0.325479 0.272591 0.809656 0.519730 0.552738 0.448285
0.414845 0.506752 0.236841 0.293863 0.912015 0.286050 0.581676 0.453568
0.275571 0.536389 0.252433 0.176794 0.938017 0.298044 0.561910 0.486617
0.226750 0.511828 0.329663 0.147099 0.871334 0.468093 0.534215 0.485676
0.173274 0.473285 0.398666 0.122013 0.771447 0.624439 0.506689 0.484791
0.334882 0.434274 0.398611 0.256569 0.688955 0.677816 0.524981 0.444873
0.454109 0.394781 0.377215 0.365703 0.597095 0.713920 0.541813 0.415253
0.522121 0.422218 0.320301 0.439009 0.685385 0.580920 0.567425 0.410515
0.561160 0.459331 0.214741 0.457503 0.835231 0.305002 0.602268 0.416621
-0.766161 -0.060238 -0.139233 -0.963805 0.033448 -0.264443 0.787937 0.851784
-0.697628 -0.042199 -0.235561 -0.666372 -0.256569 -0.700034 0.790065 0.886962
-0.671123 -0.095042 -0.252301 -0.670827 -0.055910 -0.739464 0.773766 0.894273
-0.760495 -0.157855 -0.158186 -0.855464 0.046052 -0.515732 0.757442 0.854897
-0.832164 -0.270793 -0.021032 -0.991058 -0.085604 -0.102206 0.724572 0.806740
-0.793969 -0.109649 0.008057 -0.970275 0.229682 -0.075991 0.776630 0.802741
-0.783308 0.003371 -0.181449 -0.975066 -0.178381 -0.131993 0.806374 0.863957
-0.746667 -0.005047 -0.216468 -0.624409 -0.486709 -0.610859 0.802465 0.875477
0.060397 0.598030 -0.117758 0.295694 0.951109 -0.088992 0.280166 0.805450
0.074206 0.559836 -0.220959 0.505173 0.769097 -0.391461 0.315601 0.801372
-0.008623 0.608625 -0.254976 0.578692 0.732810 -0.357860 0.319155 0.828023
-0.041930 0.637492 -0.236511 0.379437 0.921934 -0.077609 0.311684 0.837420
0.103303 0.591750 0.042818 0.124699 0.991058 0.047334 0.227275 0.789068
0.217635 0.571953 0.037879 0.225013 0.971923 -0.068484 0.231285 0.753916
0.202589 0.549572 -0.085474 0.311350 0.914823 -0.257118 0.274366 0.759800
0.203573 0.505699 -0.184920 0.349528 0.837153 -0.420667 0.311558 0.758235
-0.366039 0.460364 0.346009 -0.182104 0.705893 0.684469 0.425934 0.612809
-0.352684 0.507827 0.298292 -0.190191 0.758904 0.622761 0.445354 0.622925
-0.382226 0.396493 0.405230 -0.205542 0.687918 0.696036 0.401015 0.599756
-0.245412 0.418353 0.422924 -0.138829 0.704703 0.695730 0.425482 0.568727
-0.225024 0.496381 0.340686 -0.120029 0.735405 0.666860 0.457841 0.585918
-0.221199 0.551538 0.281584 -0.129948 0.760857 0.635762 0.479176 0.600826
-0.539383 0.349113 -0.056814 -0.766381 0.573656 0.288949 0.934043 0.853926
-0.555269 0.386808 -0.147203 -0.857784 0.452589 0.243599 0.934555 0.886703
-0.550800 0.310599 0.035013 -0.730796 0.681967 -0.028901 0.928503 0.821360
-0.495195 0.356896 0.030478 -0.640950 0.767449 0.011567 0.949751 0.826378
-0.472870 0.384128 0.001059 -0.670797 0.672567 0.312479 0.958763 0.837730
-0.436392 0.432823 -0.010190 -0.564287 0.647938 0.511582 0.976479 0.845114
-0.470491 0.461906 -0.072349 -0.619007 0.570879 0.539323 0.973114 0.869266
-0.491330 0.508531 -0.142366 -0.704489 0.561663 0.433790 0.976716 0.896966
-0.151162 0.544778 -0.348069 -0.014435 0.544115 -0.838862 0.353329 0.859639
-0.136316 0.430575 -0.419043 0.028932 0.497208 -0.867122 0.389976 0.853646
-0.188504 0.629822 -0.287106 -0.095096 0.611621 -0.785394 0.327476 0.869522
-0.088639 0.614591 -0.301858 0.085910 0.535936 -0.839839 0.330767 0.847712
-0.029602 0.520343 -0.348487 0.239998 0.540269 -0.806513 0.355527 0.829214
-0.129052 0.569292 0.127646 -0.093661 0.995575 -0.004181 0.194612 0.208293
-0.135567 0.576193 0.031827 -0.231147 0.955046 0.185461 0.188827 0.177755
-0.200531 0.554594 0.007620 -0.382183 0.892148 0.240791 0.206354 0.165881
-0.220334 0.544259 0.028094 -0.318247 0.945585 0.067446 0.214080 0.171018
-0.157748 0.587733 0.207897 0.052004 0.994415 -0.091800 0.206931 0.233146
-0.129052 0.569292 0.127646 -0.093661 0.995575 -0.004181 0.541918 0.606270
-0.157748 0.587733 0.207897 0.052004 0.994415 -0.091800 0.514039 0.602217
-0.129934 0.579295 0.233448 0.345775 0.923795 0.164220 0.510544 0.590853
-0.084132 0.563706 0.222790 0.153111 0.969115 0.193243 0.520303 0.579542
0.035517 0.557134 0.226126 0.008271 0.968902 0.247200 0.537083 0.548742
0.016252 0.574507 0.147821 -0.018708 0.985992 0.165624 0.556845 0.566535
-0.007143 0.592133 0.050087 -0.025605 0.989898 0.139409 0.582033 0.588139
-0.135567 0.576193 0.031827 -0.231147 0.955046 0.185461 0.568399 0.623468
-0.387105 0.544242 -0.095552 -0.382458 0.695151 0.608661 0.278955 0.929961
-0.408619 0.594028 -0.161223 -0.426283 0.745811 0.511856 0.302003 0.923130
-0.491330 0.508531 -0.142366 -0.704489 0.561663 0.433790 0.301929 0.957711
-0.470491 0.461906 -0.072349 -0.619007 0.570879 0.539323 0.273003 0.966468
-0.436392 0.432823 -0.010190 -0.564287 0.647938 0.511582 0.246782 0.966199
-0.364412 0.493315 -0.029373 -0.409436 0.718558 0.562120 0.251924 0.936043
-0.103093 0.532748 0.308257 0.023865 0.840815 0.540757 0.491725 0.567265
-0.151258 0.575156 0.264122 0.133580 0.853755 0.503220 0.498786 0.590649
-0.114478 0.458300 0.402334 -0.067354 0.730369 0.679678 0.458311 0.546946
0.000834 0.487140 0.383017 -0.067598 0.777245 0.625507 0.485551 0.526709
0.019843 0.534213 0.304362 -0.012085 0.912748 0.408277 0.512512 0.538623
0.140634 0.573751 0.156951 0.065859 0.982025 0.176794 0.571641 0.534392
0.103303 0.591750 0.042818 0.124699 0.991058 0.047334 0.599384 0.561427
0.152273 0.550606 0.242434 0.060305 0.958647 0.278085 0.548980 0.517846
0.257247 0.561995 0.152843 0.179937 0.976196 0.120884 0.587512 0.505948
0.217635 0.571953 0.037879 0.225013 0.971923 -0.068484 0.615770 0.532194
-0.538487 0.356399 0.146728 -0.721793 0.644581 -0.251991 0.329227 0.177221
-0.550800 0.310599 0.035013 -0.730796 0.681967 -0.028901 0.329402 0.138268
-0.554897 0.401977 0.280695 -0.745994 0.634632 -0.201666 0.336665 0.222090
-0.472315 0.384140 0.061749 -0.668538 0.715934 -0.201147 0.301724 0.156693
-0.495195 0.356896 0.030478 -0.640950 0.767449 0.011567 0.308569 0.143649
0.591787 0.075386 -0.150206 0.718802 0.561815 -0.409436 0.744579 0.662827
0.535093 0.060935 -0.284140 0.778863 0.514359 -0.358837 0.750278 0.707766
0.476079 0.175636 -0.256610 0.843013 0.437361 -0.313028 0.710077 0.707563
0.518731 0.187590 -0.133999 0.799860 0.462508 -0.382458 0.703700 0.666835
0.580560 0.208896 0.005553 0.739250 0.457625 -0.494034 0.696068 0.618511
0.659437 0.110698 0.004128 0.655721 0.571490 -0.493332 0.733869 0.609439
0.726309 0.042396 0.000897 0.670980 0.551073 -0.496017 0.762179 0.602641
0.656108 -0.008559 -0.163991 0.718192 0.534593 -0.445357 0.776381 0.659536
0.588781 -0.049241 -0.324468 0.764550 0.440199 -0.470779 0.788107 0.712153
0.118105 0.528887 0.317060 0.041444 0.912412 0.407147 0.523544 0.513448
0.079338 0.491521 0.387631 -0.017182 0.802606 0.596240 0.497499 0.508826
0.365871 -0.604949 -0.100891 0.486587 -0.873531 -0.010773 0.694936 0.345787
0.394052 -0.586790 -0.204385 0.539903 -0.837458 -0.084353 0.695746 0.379226
0.513398 -0.503095 -0.192950 0.641469 -0.753990 -0.141301 0.655275 0.393437
0.488688 -0.530255 -0.103819 0.581164 -0.811029 -0.066591 0.653907 0.360197
0.479640 -0.544623 0.006299 0.524522 -0.850002 -0.048555 0.647999 0.321501
0.362574 -0.607090 0.027582 0.458785 -0.888485 -0.009949 0.687051 0.303838
0.243320 -0.662672 0.040731 0.388104 -0.921598 0.003784 0.727005 0.293591
0.251669 -0.662808 -0.102655 0.406232 -0.913511 0.021607 0.729940 0.338714
0.279917 -0.653795 -0.221878 0.462386 -0.886380 -0.022034 0.727960 0.371879
0.278305 -0.131151 -0.417953 0.072817 -0.204993 -0.976043 0.561990 0.720625
0.176968 -0.120633 -0.428596 0.148320 -0.277261 -0.949248 0.561131 0.751843
0.216139 0.005812 -0.450686 0.193732 -0.094058 -0.976501 0.516496 0.744706
0.325662 0.009336 -0.433889 0.128574 -0.022401 -0.991424 0.512627 0.711065
0.449520 0.009529 -0.418756 0.213446 0.016999 -0.976806 0.509449 0.673074
0.427615 -0.112993 -0.411632 0.171941 -0.161931 -0.971679 0.551649 0.675872
0.278305 -0.131151 -0.417953 0.072817 -0.204993 -0.976043 0.733004 0.545970
0.427615 -0.112993 -0.411632 0.171941 -0.161931 -0.971679 0.690135 0.556666
0.414525 -0.218194 -0.390683 0.144902 -0.325816 -0.934233 0.689659 0.521330
0.280860 -0.230250 -0.394234 0.041078 -0.331217 -0.942625 0.728021 0.513317
0.167141 -0.271741 -0.380320 0.047731 -0.360546 -0.931486 0.758368 0.495415
0.165019 -0.227391 -0.394162 0.049593 -0.294992 -0.954192 0.761008 0.509850
0.144893 -0.194917 -0.406284 0.123844 -0.334849 -0.934080 0.768345 0.519921
0.176968 -0.120633 -0.428596 0.148320 -0.277261 -0.949248 0.762898 0.545973
0.561973 -0.376058 0.337073 0.405591 -0.469863 0.784020 0.207367 0.630637
0.636574 -0.417085 0.277921 0.379437 -0.607044 0.698202 0.221951 0.659012
0.698229 -0.320323 0.305353 0.505936 -0.361827 0.782983 0.187217 0.670142
0.609004 -0.261952 0.368794 0.455031 -0.358898 0.814936 0.167205 0.638062
0.506408 -0.456968 0.316118 0.455184 -0.590472 0.666402 0.236745 0.619240
0.583633 -0.456894 0.252797 0.400616 -0.751152 0.524613 0.241513 0.649582
0.267071 0.443601 -0.261652 0.171453 0.886563 -0.429579 0.343987 0.736173
0.241205 0.424029 -0.310686 0.068422 0.852657 -0.517960 0.362774 0.743497
0.159901 0.430760 -0.309154 0.228309 0.691763 -0.685018 0.362592 0.768884
0.176106 0.465631 -0.264835 0.324259 0.759728 -0.563585 0.342766 0.765040
0.294057 0.471574 -0.188017 0.247139 0.881832 -0.401563 0.316304 0.728777
0.351293 0.449379 -0.206451 0.300150 0.879299 -0.369732 0.324497 0.710445
0.331210 0.428988 -0.275967 0.226905 0.912809 -0.339457 0.349745 0.716083
0.316339 0.416834 -0.319573 0.119541 0.909726 -0.397565 0.365483 0.720260
0.523281 -0.154190 -0.376446 0.346171 -0.200659 -0.916440 0.819136 0.738716
0.427615 -0.112993 -0.411632 0.171941 -0.161931 -0.971679 0.806411 0.767533
0.449520 0.009529 -0.418756 0.213446 0.016999 -0.976806 0.767374 0.759848
0.525479 -0.067718 -0.388527 0.342174 -0.115879 -0.932432 0.793065 0.739084
0.575296 -0.122217 -0.358289 0.423658 -0.184484 -0.886807 0.809787 0.724110
0.578178 -0.209154 -0.335138 0.457198 -0.251442 -0.853053 0.835455 0.719613
0.573123 -0.310231 -0.303184 0.399121 -0.369549 -0.839106 0.866030 0.714496
0.511517 -0.258158 -0.351061 0.283181 -0.355785 -0.890622 0.851314 0.736807
0.414525 -0.218194 -0.390683 0.144902 -0.325816 -0.934233 0.841372 0.767626
0.344435 0.103295 -0.422104 0.169774 0.205023 -0.963897 0.480051 0.707438
0.235692 0.104922 -0.442679 0.230476 0.150273 -0.961394 0.482473 0.741086
0.333463 0.183737 -0.396916 0.159185 0.288430 -0.944151 0.451472 0.711460
0.407418 0.166834 -0.389543 0.242256 0.292337 -0.925108 0.455528 0.688475
0.426654 0.091901 -0.409549 0.227302 0.236579 -0.944639 0.481740 0.681803
0.305369 0.512966 -0.089153 0.276955 0.903073 -0.328166 0.279213 0.726614
0.325575 0.542328 0.022201 0.270516 0.949248 -0.160436 0.239545 0.720261
0.408190 0.512519 0.005429 0.338725 0.912717 -0.228339 0.248026 0.693968
0.371785 0.485725 -0.106484 0.329203 0.875301 -0.354167 0.287608 0.705264
0.659000 -0.231479 -0.148413 0.937223 -0.237617 -0.255165 0.847707 0.658432
0.625167 -0.235712 -0.261752 0.930937 -0.177557 -0.319071 0.844851 0.694227
0.627745 -0.135284 -0.288947 0.915342 -0.093265 -0.391705 0.814788 0.699050
0.681807 -0.106299 -0.159313 0.933561 -0.134159 -0.332316 0.808547 0.656443
0.743774 -0.060515 -0.001196 0.939268 -0.173803 -0.295877 0.797040 0.602325
0.701781 -0.215491 -0.005974 0.926817 -0.276559 -0.253945 0.847882 0.610893
0.639343 -0.381445 -0.009107 0.866237 -0.453444 -0.209723 0.903082 0.623736
0.619570 -0.368500 -0.133995 0.902615 -0.395856 -0.168889 0.891416 0.663080
0.610595 -0.348190 -0.230384 0.918393 -0.320536 -0.231849 0.879159 0.690818
0.725870 0.163039 0.132232 0.628010 0.529679 -0.570086 0.136516 0.080515
0.659437 0.110698 0.004128 0.655721 0.571490 -0.493332 0.155927 0.123922
0.774466 0.208998 0.222779 0.676992 0.521531 -0.519303 0.120851 0.049552
0.818363 0.161113 0.230853 0.733390 0.495102 -0.465804 0.137826 0.040386
0.782480 0.107038 0.136051 0.668325 0.514389 -0.537278 0.157415 0.069903
0.726309 0.042396 0.000897 0.670980 0.551073 -0.496017 0.182200 0.113121
0.465160 0.314366 -0.124957 0.858821 0.356395 -0.367962 0.660943 0.671335
0.432535 0.294165 -0.237327 0.885739 0.356456 -0.297220 0.670239 0.708194
0.401724 0.388603 -0.224521 0.859004 0.403821 -0.314646 0.638721 0.709247
0.428177 0.419146 -0.119776 0.841060 0.394147 -0.370464 0.626026 0.675229
0.472444 0.445218 -0.003831 0.792444 0.391308 -0.467849 0.615845 0.635716
0.517672 0.335598 0.000925 0.801324 0.345378 -0.488388 0.652562 0.628043
0.748603 -0.183642 0.130023 0.929929 -0.266610 -0.253151 0.250224 0.061789
0.701781 -0.215491 -0.005974 0.926817 -0.276559 -0.253945 0.266046 0.105316
0.743774 -0.060515 -0.001196 0.939268 -0.173803 -0.295877 0.216003 0.107189
0.794228 -0.001652 0.135310 0.949797 -0.177618 -0.257454 0.192253 0.064169
0.826525 0.048322 0.234522 0.971557 -0.166997 -0.167730 0.172956 0.033719
0.783921 -0.152253 0.234236 0.953307 -0.248848 -0.171056 0.236147 0.028759
0.720833 -0.356605 0.224896 0.881924 -0.445051 -0.155248 0.301825 0.027762
0.681702 -0.373041 0.120877 0.860775 -0.447462 -0.242531 0.312015 0.061081
0.639343 -0.381445 -0.009107 0.866237 -0.453444 -0.209723 0.320906 0.103165
0.099948 -0.653963 -0.076992 -0.305124 -0.932890 -0.191198 0.772365 0.328944
0.110940 -0.621983 -0.229720 -0.419355 -0.873440 -0.247414 0.770467 0.375363
0.190331 -0.662731 -0.230447 -0.375195 -0.908322 -0.184729 0.749549 0.371944
0.162053 -0.676112 -0.097149 -0.289956 -0.950774 -0.109226 0.754418 0.334945
0.156483 -0.680224 0.047452 -0.204413 -0.974609 0.091189 0.752949 0.289418
0.113511 -0.669926 0.048678 -0.053438 -0.997711 0.041231 0.765702 0.288418
0.092212 -0.673131 0.056169 0.110172 -0.993469 0.029176 0.771758 0.285426
0.080268 -0.670353 0.022145 -0.039796 -0.985717 -0.163488 0.775898 0.296415
0.011047 -0.654080 0.002746 -0.129826 -0.952178 -0.276528 0.796696 0.302548
0.009728 -0.616275 -0.108288 -0.238411 -0.913327 -0.330058 0.799347 0.340531
0.006832 -0.560154 -0.261245 -0.395672 -0.846980 -0.354991 0.800103 0.391537
0.379245 0.534210 0.133307 0.275277 0.959868 0.053377 0.607145 0.476756
0.325575 0.542328 0.022201 0.270516 0.949248 -0.160436 0.633987 0.504790
0.476014 0.504253 0.110783 0.355785 0.934294 -0.020844 0.624274 0.452996
0.408190 0.512519 0.005429 0.338725 0.912717 -0.228339 0.649050 0.483286
0.345187 -0.132605 0.602809 0.395459 -0.202857 0.895779 0.116215 0.532381
0.513314 -0.095515 0.507182 0.534410 -0.457625 0.710593 0.106777 0.591919
0.575601 0.011700 0.539972 0.625721 -0.451399 0.636128 0.067782 0.601968
0.503374 -0.007006 0.594615 0.336131 -0.260903 0.904935 0.070869 0.574258
0.211740 -0.137938 0.628264 0.190466 0.130802 0.972930 0.124195 0.494199
0.155976 -0.163864 0.647318 0.239784 -0.063662 0.968719 0.129791 0.478355
0.209356 -0.188055 0.637474 0.094485 0.263344 0.960051 0.135226 0.493385
0.220330 -0.217314 0.651109 0.006928 0.397504 0.917570 0.144276 0.497265
0.264199 -0.212650 0.646795 0.398144 0.020600 0.917081 0.142365 0.507926
0.663091 0.180740 0.391999 0.376080 0.615925 0.692221 0.542340 0.326880
0.755678 0.214691 0.304944 0.478408 0.613300 0.628437 0.581985 0.320173
0.705618 0.279266 0.282066 0.524522 0.573565 0.629170 0.587654 0.345647
0.627383 0.250589 0.353948 0.467605 0.498672 0.729820 0.554703 0.351228
0.690725 0.130173 0.426633 0.413587 0.609729 0.676107 0.532008 0.308383
0.791493 0.168740 0.321850 0.541032 0.550310 0.635945 0.577766 0.302039
0.433428 -0.516869 0.312086 0.476608 -0.661733 0.578692 0.915878 0.182496
0.552401 -0.480614 0.243536 0.495285 -0.766930 0.408002 0.957609 0.172698
0.433428 -0.516869 0.312086 0.476608 -0.661733 0.578692 0.258778 0.601155
0.552401 -0.480614 0.243536 0.495285 -0.766930 0.408002 0.251972 0.643080
0.306629 -0.569970 0.350417 0.403943 -0.695761 0.593890 0.875425 0.177803
-0.631192 -0.384165 -0.149608 -0.494675 -0.450423 -0.743187 0.680576 0.872448
-0.578109 -0.290448 -0.235318 -0.630299 -0.371532 -0.681631 0.708127 0.905060
-0.532308 -0.396288 -0.218103 -0.692801 -0.427076 -0.581042 0.671751 0.906931
-0.548880 -0.436955 -0.176342 -0.541246 -0.521897 -0.659261 0.658920 0.892590
-0.535030 -0.475989 -0.153314 -0.428571 -0.666128 -0.610370 0.644602 0.888488
-0.558593 -0.494953 -0.115772 -0.380413 -0.632984 -0.674215 0.639031 0.874555
-0.621889 -0.556997 -0.034134 -0.358440 -0.637349 -0.682089 0.623734 0.840488
-0.721421 -0.430440 -0.066929 -0.479110 -0.491623 -0.727134 0.672099 0.835193
-0.760839 -0.328474 -0.100420 -0.497604 -0.421308 -0.758171 0.705271 0.839044
-0.712374 -0.253361 -0.169466 -0.490860 -0.379467 -0.784234 0.726067 0.864958
-0.628788 -0.173111 -0.255590 -0.555650 -0.345134 -0.756340 0.748018 0.902012
-0.759026 -0.386296 0.161227 -0.874508 -0.434431 0.215613 0.566960 0.091125
-0.768424 -0.422549 0.027446 -0.872341 -0.477737 0.103580 0.564863 0.047379
-0.687773 -0.525595 0.043267 -0.770531 -0.622364 0.137394 0.605110 0.044525
-0.696517 -0.480229 0.162785 -0.798456 -0.567217 0.201727 0.599174 0.084208
-0.693773 -0.438112 0.284434 -0.843715 -0.437178 0.311380 0.596649 0.122230
-0.721807 -0.351868 0.313117 -0.825343 -0.403058 0.395306 0.574894 0.138564
0.474267 -0.347462 -0.311387 0.169347 -0.454299 -0.874569 0.882885 0.738069
0.372377 -0.313560 -0.345358 0.105106 -0.466628 -0.878170 0.877674 0.770297
0.547149 -0.391891 -0.270793 0.290506 -0.436201 -0.851650 0.892758 0.712839
0.481504 -0.467744 -0.253135 0.236091 -0.334239 -0.912412 0.921842 0.721705
0.396089 -0.423410 -0.281299 0.138401 -0.333689 -0.932463 0.914388 0.750619
0.336688 -0.380814 -0.310027 0.111515 -0.425275 -0.898129 0.904272 0.772264
-0.068278 -0.483502 -0.312280 -0.512436 -0.610736 -0.603626 0.823423 0.416836
-0.053652 -0.402885 -0.378561 -0.541337 -0.357616 -0.760918 0.822038 0.448272
-0.016377 -0.443111 -0.403780 -0.497085 -0.340648 -0.797998 0.807439 0.443046
-0.017154 -0.513448 -0.345525 -0.555620 -0.652943 -0.514664 0.804929 0.419565
-0.094277 -0.536210 -0.224227 -0.308359 -0.797174 -0.519028 0.830422 0.384611
0.057651 -0.336744 -0.391857 0.639180 -0.190161 -0.745140 0.787963 0.473162
0.031643 -0.325613 -0.419063 0.546800 -0.156743 -0.822443 0.798333 0.476908
0.040014 -0.190527 -0.435870 0.346233 -0.208167 -0.914731 0.800215 0.519462
0.070022 -0.214321 -0.417678 0.404584 -0.273141 -0.872738 0.789594 0.511816
0.093700 -0.257234 -0.392549 0.368389 -0.314035 -0.874996 0.779656 0.497746
0.084602 -0.345924 -0.364719 0.569201 -0.270760 -0.776299 0.777662 0.469553
0.083407 -0.435960 -0.333907 0.753685 -0.138585 -0.642415 0.774300 0.443384
0.062412 -0.456158 -0.362844 0.704947 -0.134556 -0.696341 0.784017 0.439411
0.028705 -0.460885 -0.394502 0.496567 -0.299081 -0.814814 0.795118 0.439857
0.568026 -0.459765 -0.116992 0.757530 -0.642781 -0.113681 0.923793 0.667042
0.579459 -0.430440 -0.204533 0.808161 -0.561968 -0.176153 0.906127 0.690366
0.568596 -0.480282 -0.005473 0.690512 -0.710898 -0.133213 0.939925 0.633639
0.479640 -0.544623 0.006299 0.524522 -0.850002 -0.048555 0.972535 0.641182
0.488688 -0.530255 -0.103819 0.581164 -0.811029 -0.066591 0.955559 0.673840
0.513398 -0.503095 -0.192950 0.641469 -0.753990 -0.141301 0.934778 0.697737
-0.121917 -0.593176 -0.115775 -0.146489 -0.871487 -0.467971 0.837432 0.344615
-0.143513 -0.637626 -0.021836 -0.062655 -0.919431 -0.388165 0.842406 0.310027
0.134959 -0.648551 0.145703 -0.227760 -0.891659 0.391217 0.840034 0.102455
0.113511 -0.669926 0.048678 -0.053438 -0.997711 0.041231 0.841082 0.069691
0.156483 -0.680224 0.047452 -0.204413 -0.974609 0.091189 0.853634 0.071299
0.200837 -0.662095 0.162887 -0.213996 -0.921232 0.324778 0.857877 0.110261
0.240981 -0.623958 0.267110 -0.282327 -0.878475 0.385418 0.861463 0.145319
0.162130 -0.594759 0.255948 -0.327311 -0.842891 0.427015 0.838742 0.141600
0.061836 -0.564613 0.252760 -0.179296 -0.865566 0.467574 0.809754 0.139397
0.045318 -0.617576 0.157711 -0.171361 -0.861049 0.478744 0.812637 0.104496
0.021377 -0.653645 0.087164 -0.162999 -0.897275 0.410260 0.811486 0.078071
0.090367 -0.668288 0.088192 -0.018067 -0.954344 0.298074 0.831637 0.080566
0.092212 -0.673131 0.056169 0.110172 -0.993469 0.029176 0.834518 0.070470
0.261540 -0.487311 -0.284675 0.146641 -0.139897 -0.979217 0.728978 0.425972
0.236819 -0.409392 -0.307619 0.089938 -0.374340 -0.922910 0.734478 0.450150
0.336688 -0.380814 -0.310027 0.111515 -0.425275 -0.898129 0.705867 0.458676
0.396089 -0.423410 -0.281299 0.138401 -0.333689 -0.932463 0.688796 0.440537
0.481504 -0.467744 -0.253135 0.236091 -0.334239 -0.912412 0.666625 0.418252
0.357439 -0.551402 -0.265383 0.229713 -0.158147 -0.960295 0.707263 0.403070
0.232092 -0.630344 -0.288716 0.158635 -0.196966 -0.967467 0.740490 0.390495
0.174281 -0.538553 -0.301782 0.205573 0.022340 -0.978362 0.752807 0.413710
0.134203 -0.493613 -0.303834 0.255379 0.179205 -0.950072 0.761118 0.426884
0.146795 -0.462700 -0.298047 0.149968 -0.097751 -0.983825 0.756982 0.434849
0.144766 -0.420050 -0.312080 0.117496 -0.368480 -0.922147 0.757801 0.446989
-0.110306 -0.597534 0.158234 -0.096927 -0.892331 0.440809 0.768520 0.098341
-0.141612 -0.639230 0.066474 -0.119938 -0.919126 0.375164 0.766173 0.064713
-0.075416 -0.544875 0.268356 -0.052858 -0.899655 0.433332 0.770299 0.138838
-0.190405 0.311112 -0.481389 0.019990 0.408551 -0.912503 0.428864 0.865441
-0.190750 0.212180 -0.515460 0.015992 0.159307 -0.987091 0.458762 0.864612
-0.282262 0.237916 -0.508929 -0.019013 0.177160 -0.983978 0.451192 0.887253
-0.314951 0.276556 -0.496760 -0.083071 0.415387 -0.905820 0.440574 0.895190
0.606708 -0.470615 0.107413 0.661306 -0.740501 -0.119541 0.348872 0.065048
0.568596 -0.480282 -0.005473 0.690512 -0.710898 -0.133213 0.357689 0.101585
0.649047 -0.449781 0.198175 0.632344 -0.774499 -0.015412 0.336544 0.036022
0.586530 -0.480638 0.177977 0.465133 -0.879086 0.104038 0.356142 0.042841
0.524223 -0.521060 0.109512 0.505417 -0.862850 0.002777 0.376816 0.065557
0.479640 -0.544623 0.006299 0.524522 -0.850002 -0.048555 0.389883 0.099089
0.118763 -0.381653 0.525990 -0.370190 -0.565539 0.736930 0.210527 0.481375
0.171609 -0.388915 0.547806 -0.289682 -0.574328 0.765648 0.205245 0.496786
0.191282 -0.283272 0.625132 -0.252113 -0.539171 0.803552 0.166034 0.493431
0.127478 -0.280779 0.600097 -0.335551 -0.532426 0.777093 0.172340 0.476365
0.071589 -0.296484 0.564756 -0.274880 -0.562914 0.779443 0.185229 0.462116
0.065977 -0.374629 0.503371 -0.288095 -0.598621 0.747398 0.215950 0.465903
0.118763 -0.381653 0.525990 -0.370190 -0.565539 0.736930 0.807922 0.247410
0.065977 -0.374629 0.503371 -0.288095 -0.598621 0.747398 0.792252 0.241006
0.057687 -0.450181 0.436674 -0.290353 -0.697439 0.655171 0.796419 0.208245
0.109907 -0.477354 0.438739 -0.389904 -0.704123 0.593402 0.813644 0.206160
0.166134 -0.501953 0.451383 -0.343028 -0.714133 0.610187 0.831273 0.207402
0.171609 -0.388915 0.547806 -0.289682 -0.574328 0.765648 0.823712 0.253498
-0.060130 -0.262191 -0.421694 -0.321482 -0.243477 -0.915067 0.828163 0.492671
-0.069617 -0.125482 -0.451401 -0.156590 -0.276315 -0.948210 0.835153 0.537705
-0.013219 -0.152576 -0.451478 -0.050691 -0.200659 -0.978332 0.817617 0.530857
-0.016027 -0.295569 -0.435012 -0.254463 -0.169744 -0.952055 0.813516 0.484876
-0.545488 -0.228175 -0.305665 -0.714042 -0.270821 -0.645558 0.728510 0.929049
-0.504160 -0.242700 -0.353610 -0.724906 -0.167150 -0.668203 0.723703 0.948461
-0.504755 -0.319714 -0.326809 -0.807367 -0.227851 -0.544267 0.698710 0.941229
-0.519489 -0.354090 -0.280585 -0.817682 -0.325480 -0.474776 0.686969 0.926253
-0.593628 -0.135609 -0.299485 -0.585406 -0.281472 -0.760277 0.759324 0.919299
-0.588698 -0.111915 -0.311001 -0.537675 -0.156804 -0.828425 0.766768 0.923117
-0.557312 -0.129080 -0.328125 -0.606403 -0.164434 -0.777947 0.760685 0.933106
-0.498277 -0.156548 -0.371738 -0.615131 -0.112857 -0.780267 0.751008 0.954545
0.095403 -0.529546 -0.328561 0.403943 -0.102969 -0.908933 0.774184 0.417771
0.095454 -0.477354 -0.313791 0.611133 0.103153 -0.784722 0.769912 0.432274
0.123571 -0.590469 -0.307659 0.012848 -0.413587 -0.910367 0.765975 0.399659
0.067030 -0.560067 -0.324287 -0.014130 -0.610126 -0.792169 0.781529 0.408371
0.040962 -0.526997 -0.354474 0.223579 -0.555498 -0.800867 0.789531 0.420634
0.255145 -0.323351 -0.350797 0.073275 -0.450423 -0.889798 0.731447 0.479930
0.155969 -0.346178 -0.346232 0.091983 -0.424207 -0.900876 0.757828 0.470305
0.372377 -0.313560 -0.345358 0.105106 -0.466628 -0.878170 0.697572 0.485070
-0.537800 0.159196 -0.325662 -0.585772 0.137944 -0.798608 0.852289 0.938886
-0.443415 0.142418 -0.389318 -0.563128 -0.108188 -0.819239 0.847149 0.973270
-0.455448 0.052336 -0.375059 -0.488723 -0.020447 -0.872189 0.817928 0.967848
-0.589716 0.048787 -0.303718 -0.490677 0.104251 -0.865047 0.816982 0.923494
-0.716393 0.056133 -0.232357 -0.527055 0.240577 -0.815027 0.819010 0.884444
-0.651991 0.149253 -0.244228 -0.600330 0.297647 -0.742271 0.847805 0.897720
-0.460169 0.211307 -0.386870 -0.658895 0.071780 -0.748772 0.869529 0.968797
-0.426499 0.204375 -0.413976 -0.651479 -0.100009 -0.752007 0.867472 0.982051
-0.343440 -0.041166 -0.427962 -0.290262 -0.123692 -0.948912 0.539319 0.914607
-0.462408 -0.040485 -0.375956 -0.436018 0.109195 -0.893246 0.539110 0.954122
-0.195037 -0.022559 -0.468331 -0.200873 -0.296579 -0.933622 0.533374 0.868113
-0.343440 -0.041166 -0.427962 -0.290262 -0.123692 -0.948912 0.918403 0.554639
-0.195037 -0.022559 -0.468331 -0.200873 -0.296579 -0.933622 0.874859 0.567741
-0.426390 -0.110742 -0.407015 -0.270760 0.021882 -0.962371 0.940172 0.528842
-0.426390 -0.110742 -0.407015 -0.270760 0.021882 -0.962371 0.562908 0.939843
-0.462174 -0.092137 -0.387683 -0.409497 0.195837 -0.891018 0.556631 0.952287
-0.599200 -0.048557 -0.309655 -0.514084 0.016938 -0.857540 0.786489 0.921637
-0.462408 -0.040485 -0.375956 -0.436018 0.109195 -0.893246 0.788049 0.965795
-0.462174 -0.092137 -0.387683 -0.409497 0.195837 -0.891018 0.771152 0.967089
-0.502197 -0.112415 -0.372961 -0.514176 0.047823 -0.856319 0.765037 0.954585
-0.614144 -0.080804 -0.299540 -0.571612 -0.087191 -0.815851 0.776902 0.915910
-0.736952 0.006874 -0.232101 -0.570238 -0.116794 -0.813105 0.805623 0.880391
-0.186970 0.129783 -0.515486 -0.100040 -0.128330 -0.986663 0.483132 0.863790
-0.312955 0.221694 -0.507765 -0.194067 -0.084201 -0.977355 0.455444 0.894801
-0.018538 0.069077 -0.510659 0.114475 -0.063662 -0.991363 0.500293 0.817264
0.011541 -0.030257 -0.490896 0.092044 -0.231147 -0.968535 0.532014 0.806408
-0.110514 0.017711 -0.500042 -0.105106 -0.262581 -0.959136 0.517849 0.842531
0.088426 -0.131904 -0.442386 0.213538 -0.312571 -0.925565 0.566678 0.778890
0.019953 -0.093010 -0.470897 0.042116 -0.376171 -0.925565 0.553675 0.802002
0.114144 -0.026005 -0.470054 0.226814 -0.184301 -0.956328 0.529212 0.775412
0.088426 -0.131904 -0.442386 0.213538 -0.312571 -0.925565 0.788445 0.540034
0.105362 -0.219881 -0.403720 0.210578 -0.341227 -0.916074 0.778432 0.510417
0.044053 -0.124972 -0.452636 0.147649 -0.345988 -0.926511 0.801799 0.541726
0.021121 -0.105292 -0.464470 -0.013276 -0.477096 -0.878719 0.809406 0.548320
0.019953 -0.093010 -0.470897 0.042116 -0.376171 -0.925565 0.810295 0.552696
0.080827 0.127520 0.615105 0.167791 0.361461 0.917142 0.391415 0.428555
0.086165 0.304733 0.536834 -0.009003 0.478866 0.877804 0.439712 0.464868
-0.017635 0.297150 0.526397 -0.013550 0.528733 0.848659 0.422436 0.487739
-0.029112 0.146568 0.622334 0.084841 0.478500 0.873959 0.375632 0.456238
0.080827 0.127520 0.615105 0.167791 0.361461 0.917142 0.040188 0.446271
-0.029112 0.146568 0.622334 0.084841 0.478500 0.873959 0.038770 0.414136
-0.038344 0.013353 0.701205 0.155217 0.389691 0.907743 0.085578 0.416083
0.071795 -0.032911 0.674108 0.358654 0.256691 0.897458 0.093460 0.447678
0.063242 0.502197 -0.309663 0.454604 0.612598 -0.646535 0.348761 0.802557
-0.039908 0.608981 -0.293672 0.441816 0.634693 -0.633992 0.328641 0.836455
0.105778 0.438302 -0.327543 0.467849 0.549821 -0.691916 0.366441 0.786086
0.118525 0.077153 -0.479294 0.261330 0.031587 -0.964721 0.495122 0.776979
-0.064019 -0.056820 -0.477402 -0.104953 -0.328806 -0.938505 0.543100 0.828288
-0.064019 -0.056820 -0.477402 -0.104953 -0.328806 -0.938505 0.835864 0.561535
-0.005072 -0.095888 -0.465434 -0.078646 -0.383923 -0.919980 0.817384 0.550240
0.418695 0.280895 -0.304089 0.893460 0.362377 -0.265267 0.676678 0.729519
0.411919 0.273158 -0.340369 0.847377 0.371990 -0.378857 0.680391 0.741073
0.374302 0.368684 -0.329046 0.811274 0.428053 -0.398175 0.648417 0.742748
0.385618 0.374148 -0.290920 0.856227 0.422681 -0.296945 0.645507 0.730534
0.458705 0.168657 -0.323882 0.869106 0.412244 -0.273232 0.714529 0.729369
0.451868 0.164844 -0.357124 0.830561 0.400281 -0.387188 0.717122 0.740035
-0.645242 -0.339645 0.423152 -0.563128 -0.561632 0.606159 0.592805 0.174129
-0.670454 -0.428621 0.341437 -0.596728 -0.508225 0.620960 0.601935 0.138822
-0.527688 -0.344119 0.490276 -0.336406 -0.662709 0.669027 0.621756 0.200095
-0.590953 -0.273900 0.526711 -0.357524 -0.662038 0.658650 0.595493 0.215550
-0.648428 -0.246628 0.519828 -0.568255 -0.585040 0.578570 0.577366 0.213291
0.501531 0.071178 -0.351043 0.816645 0.466109 -0.340281 0.748470 0.730841
0.481212 0.087270 -0.379223 0.777856 0.425367 -0.462569 0.743928 0.741587
0.531773 0.000607 -0.375777 0.759911 0.400708 -0.511795 0.772468 0.733129
0.500981 0.039132 -0.389402 0.741142 0.398999 -0.539842 0.759996 0.741122
0.123866 -0.531786 0.357335 -0.362072 -0.820887 0.441572 0.821896 0.176071
0.205535 -0.572626 0.362086 -0.344554 -0.837977 0.423109 0.847129 0.175314
0.057369 -0.480951 0.395699 -0.275765 -0.799249 0.533952 0.799149 0.191636
0.036830 -0.484991 0.378261 -0.121158 -0.814508 0.567309 0.793968 0.185156
0.048064 -0.512957 0.341003 -0.162816 -0.847377 0.505387 0.799899 0.170823
-0.087293 -0.409948 0.514065 0.204413 -0.677511 0.706504 0.229525 0.422791
-0.009129 -0.383584 0.497936 0.254036 -0.651143 0.715140 0.222630 0.445410
-0.004598 -0.313947 0.554929 0.223884 -0.543077 0.809259 0.194849 0.441872
-0.092409 -0.328419 0.576671 0.165593 -0.490432 0.855586 0.198493 0.416843
-0.215867 -0.414120 0.529102 -0.038362 -0.680868 0.731376 0.232521 0.386894
-0.087293 -0.409948 0.514065 0.204413 -0.677511 0.706504 0.747625 0.227177
-0.215867 -0.414120 0.529102 -0.038362 -0.680868 0.731376 0.710825 0.222036
-0.078217 -0.463184 0.443805 0.166265 -0.828974 0.533982 0.756240 0.199905
-0.009416 -0.444378 0.437616 0.196234 -0.760002 0.619556 0.776288 0.206031
-0.009129 -0.383584 0.497936 0.254036 -0.651143 0.715140 0.771098 0.233579
-0.054900 -0.498430 0.367234 0.045442 -0.885037 0.463240 0.768989 0.174719
0.001338 -0.470427 0.398405 0.065493 -0.819483 0.569323 0.782418 0.191316
0.334631 0.361330 0.455627 0.305582 0.527970 0.792352 0.503173 0.428132
0.491698 0.326304 0.407578 0.433149 0.446852 0.782739 0.531990 0.392618
0.177631 0.405733 0.473579 0.127659 0.611652 0.780725 0.482876 0.466715
0.656384 -0.102463 0.405124 0.568804 -0.322825 0.756432 0.112823 0.645094
0.755605 -0.125743 0.321537 0.647237 -0.226417 0.727866 0.124079 0.683923
0.795920 0.062226 0.328765 0.736656 -0.159001 0.657277 0.063972 0.697222
0.691449 0.039212 0.433262 0.679678 -0.268410 0.682607 0.065389 0.651109
0.592347 0.338733 0.329920 0.528672 0.508103 0.679922 0.566039 0.379109
0.647977 0.364725 0.256668 0.572527 0.620563 0.535783 0.594931 0.377375
0.077180 0.421435 0.460949 -0.056063 0.638325 0.767693 0.472248 0.491695
-0.009656 0.409396 0.451826 -0.075655 0.623951 0.777764 0.457447 0.510538
0.113097 -0.210826 0.642069 -0.087527 -0.430982 0.898068 0.147310 0.468747
0.081236 -0.136814 0.678463 0.186468 -0.298654 0.935942 0.124740 0.453779
-0.026402 -0.093442 0.702958 -0.035432 -0.432203 0.901059 0.116766 0.423318
0.007660 -0.186163 0.646853 -0.053011 -0.565233 0.823206 0.146192 0.437962
0.025169 -0.236002 0.604542 -0.049409 -0.653310 0.755425 0.165250 0.445859
0.063872 -0.257936 0.589793 -0.184332 -0.606525 0.773370 0.171640 0.457597
0.194476 -0.234788 0.657136 -0.162877 -0.090823 0.982452 0.150217 0.491732
-0.164948 0.141982 0.631773 -0.010132 0.503372 0.863979 0.350183 0.485679
-0.141248 0.266251 0.553124 0.006256 0.548906 0.835841 0.391775 0.507849
-0.164948 0.141982 0.631773 -0.010132 0.503372 0.863979 0.046772 0.376370
-0.185291 0.035233 0.692253 -0.057863 0.414350 0.908261 0.084907 0.377716
-0.125810 0.370579 0.480300 -0.028291 0.620869 0.783380 0.426524 0.527860
-0.258877 0.332801 0.501687 -0.123325 0.633351 0.763939 0.393839 0.549901
-0.103847 -0.208294 0.630279 -0.002533 -0.445235 0.895383 0.159148 0.409326
-0.167896 -0.076613 0.689110 -0.132054 -0.398907 0.907407 0.118795 0.387078
-0.002618 -0.261370 0.584160 0.100253 -0.547075 0.831050 0.176337 0.439876
-0.396451 0.323880 0.471303 -0.223060 0.642811 0.732810 0.373751 0.584235
-0.663539 0.177119 0.489372 -0.364360 0.535630 0.761773 0.058517 0.224978
-0.685118 0.208732 0.452203 -0.496445 0.577227 0.648305 0.047412 0.212474
-0.731977 0.127575 0.483089 -0.541826 0.547044 0.638050 0.077653 0.209061
-0.731543 0.078611 0.523555 -0.460616 0.467788 0.754295 0.095648 0.217651
-0.663539 0.177119 0.489372 -0.364360 0.535630 0.761773 0.295053 0.625362
-0.685118 0.208732 0.452203 -0.496445 0.577227 0.648305 0.303522 0.639906
-0.408882 -0.357586 0.529564 -0.227058 -0.629292 0.743217 0.222936 0.331209
-0.577620 -0.253999 0.552100 -0.278359 -0.558733 0.781213 0.194811 0.280791
-0.408882 -0.357586 0.529564 -0.227058 -0.629292 0.743217 0.653172 0.217705
-0.577620 -0.253999 0.552100 -0.278359 -0.558733 0.781213 0.595572 0.226487
0.345033 0.402310 -0.341714 0.350352 0.611805 -0.709159 0.637554 0.750113
0.362220 0.365117 -0.348970 0.504471 0.363170 -0.783319 0.649502 0.749972
0.326686 0.365918 -0.354427 0.065737 0.260964 -0.963073 0.645904 0.759638
0.311484 0.405202 -0.341811 0.038331 0.643025 -0.764855 0.632116 0.757442
0.316339 0.416834 -0.319573 0.119541 0.909726 -0.397565 0.626270 0.751174
0.351953 0.407897 -0.323245 0.527268 0.750938 -0.397565 0.634777 0.744535
0.590791 -0.471058 0.209774 0.464827 -0.846583 0.259163 0.969392 0.170115
0.608271 -0.461921 0.215861 0.368511 -0.877285 0.307413 0.976974 0.169780
0.590791 -0.471058 0.209774 0.464827 -0.846583 0.259163 0.253400 0.658932
0.608271 -0.461921 0.215861 0.368511 -0.877285 0.307413 0.248229 0.662196
-0.642240 -0.216651 0.555705 -0.442763 -0.468032 0.764763 0.185226 0.261380
-0.654620 -0.188931 0.558786 -0.503189 -0.363201 0.784112 0.177022 0.256703
-0.642240 -0.216651 0.555705 -0.442763 -0.468032 0.764763 0.573861 0.227785
-0.654620 -0.188931 0.558786 -0.503189 -0.363201 0.784112 0.565234 0.231696
-0.513416 -0.457516 -0.186137 -0.411328 -0.647389 -0.641591 0.649824 0.900935
-0.507024 -0.440069 -0.211613 -0.469131 -0.661489 -0.585040 0.656092 0.908750
-0.513416 -0.457516 -0.186137 -0.411328 -0.647389 -0.641591 0.956288 0.384439
-0.507024 -0.440069 -0.211613 -0.469131 -0.661489 -0.585040 0.954753 0.394742
-0.492542 -0.483521 -0.166986 -0.270577 -0.741081 -0.614429 0.638066 0.899711
-0.642429 -0.583322 0.004100 -0.481521 -0.856838 -0.184179 0.626117 0.028743
-0.600269 -0.594143 -0.001849 -0.265358 -0.940092 -0.213935 0.638656 0.027438
-0.649102 -0.567051 0.049894 -0.514969 -0.823481 0.237953 0.622258 0.044047
-0.642429 -0.583322 0.004100 -0.481521 -0.856838 -0.184179 0.616407 0.826277
-0.649102 -0.567051 0.049894 -0.514969 -0.823481 0.237953 0.616551 0.810455
-0.687773 -0.525595 0.043267 -0.770531 -0.622364 0.137394 0.633545 0.807089
-0.676625 -0.544835 -0.007345 -0.668233 -0.668813 -0.325785 0.632161 0.824637
-0.600269 -0.594143 -0.001849 -0.265358 -0.940092 -0.213935 0.607671 0.835334
-0.674268 -0.462001 0.312195 -0.589190 -0.674184 0.445265 0.606368 0.127559
-0.673757 -0.474877 0.273264 -0.570238 -0.764519 0.300485 0.607295 0.116478
-0.431714 0.236108 -0.408057 -0.692190 0.154088 -0.705039 0.877746 0.979522
-0.419432 0.238408 -0.421606 -0.740471 0.110111 -0.662954 0.878493 0.985242
-0.461776 -0.135617 -0.396959 -0.369762 -0.011933 -0.929014 0.949755 0.519303
-0.465831 -0.166943 -0.391560 -0.379986 -0.121860 -0.916898 0.949883 0.508879
-0.461776 -0.135617 -0.396959 -0.369762 -0.011933 -0.929014 0.757022 0.968056
-0.465831 -0.166943 -0.391560 -0.379986 -0.121860 -0.916898 0.747163 0.965596
-0.426390 -0.110742 -0.407015 -0.270760 0.021882 -0.962371 0.764737 0.978797
0.026645 -0.462209 0.411511 -0.097659 -0.799615 0.592486 0.788765 0.197729
0.026649 -0.439531 0.436487 -0.047487 -0.722312 0.689901 0.786691 0.208816
0.101346 -0.455051 -0.306737 0.467757 -0.136967 -0.873165 0.767163 0.437499
0.102078 -0.425871 -0.319177 0.429670 -0.323222 -0.843135 0.768091 0.445257
0.557929 0.042495 0.588480 0.477432 0.129765 0.869015 0.053880 0.588508
0.596480 0.058941 0.548239 0.604144 0.186285 0.774773 0.051811 0.606233
0.557929 0.042495 0.588480 0.477432 0.129765 0.869015 0.461069 0.306451
0.596480 0.058941 0.548239 0.604144 0.186285 0.774773 0.478891 0.304715
0.123118 0.411346 -0.335160 0.369579 0.548875 -0.749718 0.374436 0.779314
0.155432 0.409978 -0.331029 0.136692 0.601276 -0.787225 0.373197 0.769556
-0.449317 0.397889 0.027068 -0.695181 0.715445 0.069308 0.967977 0.830420
-0.472315 0.384140 0.061749 -0.668538 0.715934 -0.201147 0.962055 0.817894
-0.432405 0.423874 0.062302 -0.628376 0.743400 -0.229011 0.979029 0.820216
-0.423845 0.421766 0.022089 -0.631001 0.761254 0.149327 0.978241 0.833565
-0.617364 -0.098000 -0.294268 -0.585406 -0.212836 -0.782281 0.771699 0.913874
-0.654726 -0.123289 -0.259482 -0.595325 -0.213691 -0.774529 0.764716 0.898498
-0.786193 0.026408 -0.199351 -0.920499 0.132756 -0.367412 0.811008 0.868284
-0.764135 0.058063 -0.198565 -0.805048 0.481765 -0.346080 0.818723 0.870591
-0.076565 0.647386 -0.282369 0.233985 0.841121 -0.487564 0.321710 0.846520
-0.109999 0.650653 -0.275702 0.060976 0.913755 -0.401593 0.320673 0.853370
-0.255486 0.537935 -0.012819 -0.354259 0.890713 0.284799 0.242644 0.900964
-0.283940 0.522633 -0.009440 -0.428083 0.856807 0.287362 0.241926 0.911010
-0.267132 0.527783 0.032520 -0.401624 0.915372 -0.027345 0.227140 0.906346
-0.220334 0.544259 0.028094 -0.318247 0.945585 0.067446 0.227959 0.890872
-0.171004 0.590681 0.242298 -0.044130 0.970641 0.236366 0.212769 0.243366
-0.220527 0.574457 0.248810 -0.246498 0.929014 0.275887 0.227811 0.241894
-0.171004 0.590681 0.242298 -0.044130 0.970641 0.236366 0.502211 0.600415
-0.220527 0.574457 0.248810 -0.246498 0.929014 0.275887 0.489419 0.608827
0.598085 -0.105545 -0.351302 0.705893 0.032868 -0.707541 0.805109 0.718007
0.622903 -0.089184 -0.302284 0.863491 0.199377 -0.463240 0.801175 0.702415
0.601004 -0.143751 -0.340003 0.718711 -0.159551 -0.676717 0.816054 0.715618
0.577459 -0.082981 -0.364269 0.617237 0.110660 -0.778924 0.798409 0.723925
0.844349 0.150617 0.279340 0.947630 0.246895 0.202490 0.594407 0.288879
0.827703 0.180367 0.274688 0.790307 0.601154 0.118381 0.596391 0.299440
0.806395 0.139152 0.329330 0.715293 0.191229 0.672109 0.574756 0.291861
0.844349 0.150617 0.279340 0.947630 0.246895 0.202490 0.038830 0.722222
0.806395 0.139152 0.329330 0.715293 0.191229 0.672109 0.039647 0.702284
0.834017 0.067438 0.280763 0.948119 -0.152928 0.278603 0.065013 0.716382
0.844349 0.150617 0.279340 0.947630 0.246895 0.202490 0.139442 0.023231
0.834017 0.067438 0.280763 0.948119 -0.152928 0.278603 0.165360 0.019632
0.836861 0.130165 0.234081 0.931944 0.171270 -0.319590 0.147871 0.036473
0.827703 0.180367 0.274688 0.790307 0.601154 0.118381 0.129778 0.027399
0.238661 -0.672992 -0.275946 0.131596 -0.819483 -0.557756 0.739332 0.381251
0.282837 -0.648514 -0.270531 0.451460 -0.644765 -0.616779 0.730508 0.383789
0.229491 -0.676378 -0.228469 0.058687 -0.995300 -0.076815 0.740576 0.371231
0.204256 -0.656990 -0.282661 -0.212928 -0.723350 -0.656819 0.745869 0.383726
0.071772 -0.673577 0.061833 -0.099368 -0.990448 0.095279 0.827843 0.071052
0.011733 -0.665733 0.051635 -0.130833 -0.989441 0.062136 0.811019 0.065583
0.071772 -0.673577 0.061833 -0.099368 -0.990448 0.095279 0.777600 0.283169
0.011733 -0.665733 0.051635 -0.130833 -0.989441 0.062136 0.795549 0.285870
0.090367 -0.668288 0.088192 -0.018067 -0.954344 0.298074 0.771539 0.274653
-0.356888 0.259579 -0.502709 -0.369030 0.178716 -0.912046 0.445557 0.903520
-0.367780 0.258131 -0.489729 -0.635762 0.152776 -0.756584 0.445310 0.907346
0.021244 -0.119130 -0.455853 0.029878 -0.357677 -0.933348 0.808732 0.543042
0.017626 -0.172937 -0.445995 0.156224 -0.168065 -0.973296 0.807788 0.524946
0.118634 -0.254316 -0.389022 0.117038 -0.329539 -0.936827 0.772729 0.499365
0.115289 -0.278549 -0.380050 0.178747 -0.359264 -0.915922 0.772375 0.491259
0.165218 -0.111978 0.636358 0.269112 0.101657 0.957701 0.120170 0.482810
0.137779 -0.147046 0.650430 0.404706 0.053713 0.912839 0.125189 0.471865
0.230874 -0.242717 0.660765 0.194128 -0.208625 0.958525 0.150669 0.500278
0.226641 -0.282210 0.632653 0.193762 -0.565813 0.801416 0.162838 0.501884
0.039885 -0.278737 0.570001 -0.040590 -0.577471 0.815394 0.181425 0.452439
0.038964 -0.306018 0.550185 -0.017884 -0.593097 0.804895 0.191816 0.453912
-0.374629 0.003168 0.673277 -0.223457 0.067476 0.972350 0.102857 0.329425
-0.322632 -0.002032 0.682637 -0.180181 0.029176 0.983184 0.102150 0.343618
0.400485 0.269556 -0.361293 0.567278 0.333781 -0.752831 0.681608 0.748591
0.440829 0.162386 -0.377645 0.578265 0.367809 -0.728202 0.718149 0.747389
0.407418 0.166834 -0.389543 0.242256 0.292337 -0.925108 0.714635 0.757242
0.366379 0.272318 -0.370753 0.166234 0.241615 -0.955992 0.678362 0.758356
-0.479045 -0.250119 -0.375890 -0.428571 -0.208014 -0.879208 0.950909 0.481038
-0.493599 -0.343200 -0.340039 -0.511032 -0.445143 -0.735282 0.952303 0.448252
-0.479045 -0.250119 -0.375890 -0.428571 -0.208014 -0.879208 0.721036 0.958490
-0.493599 -0.343200 -0.340039 -0.511032 -0.445143 -0.735282 0.691333 0.946629
0.363591 0.414674 -0.283635 0.600482 0.727226 -0.332408 0.631119 0.731587
0.380913 0.431031 -0.216424 0.632344 0.686422 -0.359050 0.623695 0.709735
0.363591 0.414674 -0.283635 0.600482 0.727226 -0.332408 0.353564 0.705434
0.351953 0.407897 -0.323245 0.527268 0.750938 -0.397565 0.367366 0.709142
0.380913 0.431031 -0.216424 0.632344 0.686422 -0.359050 0.329672 0.700188
0.464250 0.090369 -0.396990 0.514267 0.341868 -0.786523 0.742761 0.748944
0.489175 0.032829 -0.405235 0.487991 0.214545 -0.846034 0.761805 0.746998
0.426654 0.091901 -0.409549 0.227302 0.236579 -0.944639 0.740060 0.760089
-0.688384 -0.111142 0.568796 -0.527390 -0.255196 0.810358 0.153699 0.244095
-0.729165 -0.021989 0.564502 -0.617420 -0.039949 0.785607 0.127933 0.228273
-0.688384 -0.111142 0.568796 -0.527390 -0.255196 0.810358 0.541202 0.242786
-0.729165 -0.021989 0.564502 -0.617420 -0.039949 0.785607 0.511943 0.250649
-0.501672 -0.404240 -0.274097 -0.543870 -0.633381 -0.550432 0.953338 0.418646
-0.501672 -0.404240 -0.274097 -0.543870 -0.633381 -0.550432 0.670179 0.927099
-0.662456 -0.520397 0.162723 -0.524918 -0.802698 0.282968 0.614147 0.081653
0.516937 0.485980 0.097712 0.592425 0.760063 -0.267006 0.028118 0.124867
0.597574 0.445737 0.176029 0.674764 0.732139 -0.092807 0.040852 0.091341
0.446549 0.492170 -0.002789 0.589618 0.721976 -0.362011 0.027741 0.162439
0.516937 0.485980 0.097712 0.592425 0.760063 -0.267006 0.632731 0.442358
0.446549 0.492170 -0.002789 0.589618 0.721976 -0.362011 0.656541 0.472569
0.597574 0.445737 0.176029 0.674764 0.732139 -0.092807 0.616989 0.409497
0.404886 0.465358 -0.115155 0.620502 0.682577 -0.386059 0.609789 0.677000
0.446549 0.492170 -0.002789 0.589618 0.721976 -0.362011 0.599335 0.638847
0.404886 0.465358 -0.115155 0.620502 0.682577 -0.386059 0.292619 0.693768
0.446549 0.492170 -0.002789 0.589618 0.721976 -0.362011 0.252836 0.680998
0.233252 0.407844 -0.335748 -0.004639 0.631825 -0.775079 0.373330 0.745332
0.311484 0.405202 -0.341811 0.038331 0.643025 -0.764855 0.374178 0.721266
0.326686 0.365918 -0.354427 0.065737 0.260964 -0.963073 0.387991 0.716137
0.248338 0.369554 -0.351509 0.016907 0.335337 -0.941923 0.387414 0.740099
-0.556603 0.400832 -0.189789 -0.873714 0.440199 -0.206854 0.934589 0.901389
-0.616295 0.265288 -0.206844 -0.826594 0.461806 -0.321604 0.887525 0.894153
-0.496508 0.524624 -0.177976 -0.802972 0.591906 -0.069643 0.977349 0.909806
-0.696487 0.144360 -0.205416 -0.774590 0.511338 -0.372112 0.845566 0.880877
-0.761527 -0.440249 -0.028258 -0.762322 -0.554613 -0.333506 0.671495 0.819097
-0.768424 -0.422549 0.027446 -0.872341 -0.477737 0.103580 0.672907 0.800708
-0.813528 -0.311389 -0.076591 -0.829524 -0.296243 -0.473403 0.713167 0.824994
-0.559170 0.410550 0.339772 -0.615864 0.749168 0.243782 0.384108 0.651599
-0.617900 0.330282 0.386572 -0.703604 0.655904 0.273324 0.350530 0.648561
-0.482450 0.472671 0.296801 -0.460677 0.858791 0.224036 0.416452 0.648516
-0.559170 0.410550 0.339772 -0.615864 0.749168 0.243782 0.341924 0.240514
-0.482450 0.472671 0.296801 -0.460677 0.858791 0.224036 0.309785 0.236800
-0.617900 0.330282 0.386572 -0.703604 0.655904 0.273324 0.375601 0.243549
-0.699424 0.217300 0.428132 -0.766076 0.589038 0.257118 0.043434 0.204254
-0.761677 0.108261 0.471737 -0.852046 0.426099 0.304025 0.084314 0.200324
-0.699424 0.217300 0.428132 -0.766076 0.589038 0.257118 0.305967 0.648772
-0.699424 0.217300 0.428132 -0.766076 0.589038 0.257118 0.419926 0.240350
-0.761677 0.108261 0.471737 -0.852046 0.426099 0.304025 0.460950 0.238461
-0.749021 -0.200077 -0.170294 -0.689261 -0.166021 -0.705191 0.744209 0.859123
-0.762593 0.039822 0.524672 -0.803674 0.195532 0.561998 0.109289 0.211540
-0.762593 0.039822 0.524672 -0.803674 0.195532 0.561998 0.487489 0.245266
-0.415105 0.610293 -0.195132 -0.580615 0.811731 -0.062655 0.311320 0.919935
-0.496508 0.524624 -0.177976 -0.802972 0.591906 -0.069643 0.314030 0.952629
-0.315777 0.656475 -0.225868 -0.284524 0.943510 -0.169591 0.313537 0.896262
-0.201905 0.661806 -0.254796 -0.046022 0.955779 -0.290414 0.316862 0.872871
-0.354390 0.473629 0.006057 -0.521592 0.819819 0.236244 0.237989 0.938341
-0.423845 0.421766 0.022089 -0.631001 0.761254 0.149327 0.234327 0.966280
-0.432405 0.423874 0.062302 -0.628376 0.743400 -0.229011 0.220270 0.968771
-0.350916 0.479705 0.048241 -0.528398 0.838496 -0.132878 0.223218 0.937094
-0.346956 0.531214 0.266729 -0.308756 0.913022 0.266457 0.456208 0.629671
-0.346956 0.531214 0.266729 -0.308756 0.913022 0.266457 0.266377 0.238297
0.577356 -0.413683 -0.245488 0.667898 -0.498062 -0.553026 0.898153 0.701154
0.600631 -0.334505 -0.274870 0.734031 -0.341899 -0.586718 0.873005 0.703486
0.515805 -0.488282 -0.233204 0.548448 -0.607685 -0.574358 0.925920 0.708700
0.605183 -0.232299 -0.310450 0.750999 -0.219062 -0.622852 0.842293 0.709528
0.662301 -0.436798 0.243316 0.569201 -0.750725 0.335246 0.230665 0.670963
0.730924 -0.345453 0.271888 0.810907 -0.452925 0.370464 0.196659 0.683619
0.662301 -0.436798 0.243316 0.569201 -0.750725 0.335246 0.331356 0.021766
0.608271 -0.461921 0.215861 0.368511 -0.877285 0.307413 0.348342 0.030356
0.730924 -0.345453 0.271888 0.810907 -0.452925 0.370464 0.297113 0.013036
0.669981 0.370387 0.221842 0.766778 0.641407 0.024720 0.607728 0.376001
0.733783 0.287629 0.247272 0.763146 0.642964 0.064486 0.601591 0.343507
0.669981 0.370387 0.221842 0.766778 0.641407 0.024720 0.065317 0.067359
0.733783 0.287629 0.247272 0.763146 0.642964 0.064486 0.092735 0.050025
0.788602 0.225163 0.264444 0.730827 0.677236 0.084780 0.598288 0.317772
0.788602 0.225163 0.264444 0.730827 0.677236 0.084780 0.114208 0.036461
0.792186 -0.137646 0.281325 0.914060 -0.240638 0.326426 0.129905 0.700197
0.792186 -0.137646 0.281325 0.914060 -0.240638 0.326426 0.230165 0.014164
0.534033 -0.030906 -0.388287 0.566637 0.133152 -0.813105 0.782179 0.736080
0.683479 -0.050556 -0.165766 0.877346 0.209571 -0.431623 0.791260 0.657369
0.753186 0.005386 0.000109 0.884823 0.189825 -0.425459 0.775958 0.600139
0.805393 0.073691 0.137198 0.895138 0.173467 -0.410565 0.168771 0.065593
0.753186 0.005386 0.000109 0.884823 0.189825 -0.425459 0.195229 0.108545
0.701537 0.099877 0.440409 0.656606 0.183325 0.731590 0.045753 0.653941
0.701537 0.099877 0.440409 0.656606 0.183325 0.731590 0.526671 0.298620
0.396425 -0.576752 -0.248918 0.496017 -0.611438 -0.616504 0.698996 0.392395
0.515805 -0.488282 -0.233204 0.548448 -0.607685 -0.574358 0.658103 0.407441
0.123782 -0.611050 -0.290661 -0.315744 -0.749748 -0.581500 0.765252 0.392389
0.043920 -0.559030 -0.312282 -0.338633 -0.830195 -0.442763 0.787944 0.405377
-0.498141 -0.613564 -0.008558 -0.182226 -0.966704 -0.179510 0.668387 0.027565
-0.345395 -0.635231 -0.004293 -0.116520 -0.987640 -0.104648 0.712049 0.033529
-0.498141 -0.613564 -0.008558 -0.182226 -0.966704 -0.179510 0.946979 0.306068
-0.600269 -0.594143 -0.001849 -0.265358 -0.940092 -0.213935 0.977806 0.306535
-0.345395 -0.635231 -0.004293 -0.116520 -0.987640 -0.104648 0.901590 0.302852
-0.151380 -0.652786 0.022682 -0.087619 -0.996033 -0.014222 0.766029 0.049597
-0.151380 -0.652786 0.022682 -0.087619 -0.996033 -0.014222 0.844124 0.294243
0.011351 -0.524789 -0.359860 -0.228736 -0.724479 -0.650197 0.796575 0.421426
0.006759 -0.459490 -0.408621 -0.013520 -0.413038 -0.910581 0.801118 0.440745
0.198178 -0.682795 -0.103555 0.059664 -0.997589 -0.034852 0.744975 0.337351
0.187188 -0.682428 0.046078 0.087008 -0.994659 0.055361 0.744254 0.290483
0.238986 -0.665460 0.167712 0.112705 -0.975860 0.186895 0.867796 0.113586
0.282976 -0.633199 0.270459 0.146580 -0.922636 0.356700 0.872689 0.147293
0.187188 -0.682428 0.046078 0.087008 -0.994659 0.055361 0.862297 0.072625
0.248560 -0.586954 0.363432 0.039705 -0.832270 0.552904 0.859092 0.175526
0.200889 -0.511276 0.455262 0.001892 -0.718650 0.695334 0.841124 0.208175
0.010824 -0.314299 -0.433791 0.177252 -0.152623 -0.972228 0.805639 0.480180
0.108248 -0.351386 -0.350191 0.302652 -0.375774 -0.875881 0.770263 0.467584
-0.393374 0.248411 -0.455762 -0.756493 0.101505 -0.646046 0.446053 0.918660
-0.419432 0.238408 -0.421606 -0.740471 0.110111 -0.662954 0.447062 0.932115
0.205114 -0.390712 0.554577 0.097140 -0.608051 0.787896 0.202518 0.505726
0.205114 -0.390712 0.554577 0.097140 -0.608051 0.787896 0.833156 0.256321
0.032654 -0.373542 0.494196 -0.010285 -0.649129 0.760582 0.219061 0.456809
0.032654 -0.373542 0.494196 -0.010285 -0.649129 0.760582 0.782895 0.237394
0.069700 -0.099265 0.692185 0.330088 -0.050233 0.942595 0.113983 0.447832
-0.039589 -0.046794 0.724578 0.079409 -0.019196 0.996643 0.103433 0.417655
-0.190659 -0.016534 0.710566 -0.136570 -0.000885 0.990600 0.100806 0.379456
0.291586 0.283671 -0.372641 0.097812 0.279580 -0.955107 0.417044 0.725553
0.366379 0.272318 -0.370753 0.166234 0.241615 -0.955992 0.419706 0.702637
3 0 1 2
3 0 2 3
3 0 3 4
3 0 4 5
3 0 5 6
3 0 6 7
3 0 7 8
3 0 8 1
3 9 10 11
3 9 11 12
3 9 12 13
3 9 13 14
3 15 16 17
3 15 17 18
3 15 18 19
3 15 19 20
3 15 20 21
3 15 21 22
3 9 23 24
3 9 24 10
3 25 26 27
3 25 27 28
3 25 28 29
3 25 29 30
3 25 30 31
3 25 31 32
3 25 32 33
3 25 33 26
3 34 35 36
3 34 36 37
3 34 37 38
3 34 38 39
3 34 39 40
3 34 40 41
3 34 41 42
3 34 42 43
3 34 43 44
3 34 44 35
3 45 46 47
3 45 47 48
3 45 48 49
3 45 49 50
3 45 50 51
3 45 51 52
3 45 52 53
3 45 53 46
3 54 55 56
3 54 56 57
3 54 57 58
3 54 58 59
3 54 59 60
3 54 60 61
3 54 61 62
3 54 62 55
3 63 64 65
3 63 65 66
3 63 66 67
3 63 67 68
3 63 68 69
3 63 69 70
3 63 70 71
3 63 71 64
3 72 28 27
3 72 27 73
3 72 73 74
3 72 74 75
3 72 75 76
3 72 76 77
3 72 77 29
3 72 29 28
3 78 79 80
3 78 80 81
3 78 81 82
3 78 82 83
3 78 83 84
3 78 84 85
3 78 85 86
3 78 86 79
3 87 88 89
3 87 89 90
3 87 90 91
3 87 91 92
3 87 92 93
3 87 93 94
3 87 94 95
3 87 95 88
3 96 97 98
3 96 98 99
3 96 99 100
3 96 100 101
3 102 103 104
3 102 104 105
3 96 106 107
3 96 107 97
3 108 109 110
3 108 110 111
3 108 111 112
3 108 112 113
3 108 113 114
3 108 114 115
3 108 115 116
3 108 116 117
3 108 117 118
3 108 118 109
3 119 120 121
3 119 121 122
3 119 122 123
3 119 123 124
3 119 124 125
3 119 125 126
3 119 126 127
3 119 127 120
3 128 129 130
3 128 130 131
3 128 131 132
3 128 132 133
3 128 133 134
3 128 134 135
3 128 135 136
3 128 136 129
3 137 138 139
3 137 139 140
3 137 140 2
3 137 2 1
3 137 1 8
3 137 8 141
3 137 141 142
3 137 142 138
3 143 124 123
3 143 123 144
3 143 144 145
3 143 145 146
3 143 146 147
3 143 147 148
3 143 148 149
3 143 149 150
3 143 150 125
3 143 125 124
3 151 152 142
3 151 142 141
3 151 141 8
3 151 8 153
3 151 153 154
3 151 154 155
3 151 155 156
3 151 156 152
3 157 158 159
3 157 159 160
3 157 160 161
3 157 161 162
3 157 162 163
3 157 163 164
3 157 164 165
3 157 165 166
3 157 166 167
3 157 167 158
3 168 169 170
3 168 170 171
3 168 171 172
3 168 172 173
3 168 173 174
3 168 174 175
3 168 175 176
3 168 176 177
3 168 177 178
3 168 178 169
3 179 180 181
3 179 181 182
3 179 182 82
3 179 82 183
3 184 185 174
3 184 174 173
3 184 173 172
3 184 172 186
3 184 186 187
3 184 187 188
3 189 92 91
3 189 91 190
3 189 190 191
3 189 191 192
3 189 192 193
3 189 193 194
3 189 194 195
3 189 195 196
3 189 196 93
3 189 93 92
3 197 198 199
3 197 199 200
3 197 200 201
3 197 201 202
3 197 202 89
3 197 89 88
3 197 88 95
3 197 95 198
3 203 204 205
3 203 205 206
3 203 206 207
3 203 207 208
3 203 208 209
3 203 209 210
3 203 210 211
3 203 211 212
3 203 212 213
3 203 213 204
3 214 215 216
3 214 216 217
3 214 217 218
3 214 218 219
3 214 219 220
3 214 220 221
3 214 221 222
3 214 222 215
3 223 224 225
3 223 225 226
3 223 226 227
3 223 227 228
3 223 228 132
3 223 132 131
3 223 131 130
3 223 130 229
3 223 229 230
3 223 230 224
3 231 232 233
3 231 233 234
3 231 234 167
3 231 167 166
3 231 166 165
3 231 165 235
3 231 235 236
3 231 236 237
3 231 237 238
3 231 238 232
3 239 240 86
3 239 86 85
3 239 85 84
3 239 84 241
3 239 241 242
3 239 242 243
3 239 243 244
3 239 244 240
3 245 246 136
3 245 136 135
3 245 135 134
3 245 134 247
3 245 247 248
3 245 248 249
3 245 249 250
3 245 250 251
3 245 251 252
3 245 252 246
3 253 254 29
3 253 29 77
3 253 77 76
3 253 76 255
3 253 255 256
3 253 256 257
3 253 257 205
3 253 205 254
3 258 259 260
3 258 260 261
3 258 261 62
3 258 62 61
3 258 61 60
3 258 60 262
3 263 264 265
3 263 265 266
3 263 266 267
3 263 267 268
3 263 268 269
3 263 269 270
3 271 272 273
3 271 273 274
3 271 274 275
3 271 275 276
3 271 276 161
3 271 161 160
3 271 160 159
3 271 159 272
3 277 266 265
3 277 265 278
3 277 278 244
3 277 244 243
3 277 243 242
3 277 242 279
3 277 279 280
3 277 280 281
3 277 281 267
3 277 267 266
3 282 283 269
3 282 269 268
3 282 268 267
3 282 267 284
3 282 284 216
3 282 216 285
3 282 285 286
3 282 286 283
3 287 288 156
3 287 156 155
3 287 155 154
3 287 154 289
3 287 289 58
3 287 58 57
3 287 57 56
3 287 56 290
3 287 290 291
3 287 291 288
3 292 293 294
3 292 294 295
3 292 295 296
3 292 296 297
3 292 297 298
3 292 298 299
3 292 299 300
3 292 300 293
3 301 284 267
3 301 267 281
3 301 281 280
3 301 280 302
3 301 302 218
3 301 218 217
3 301 217 216
3 301 216 284
3 303 304 305
3 303 305 306
3 303 306 307
3 303 307 308
3 303 308 309
3 303 309 310
3 303 310 311
3 303 311 304
3 312 313 314
3 312 314 315
3 312 315 316
3 312 316 317
3 318 319 320
3 318 320 321
3 318 321 322
3 318 322 323
3 318 323 324
3 318 324 325
3 326 327 328
3 326 328 329
3 326 329 98
3 326 98 97
3 326 97 107
3 326 107 330
3 326 330 331
3 326 331 327
3 332 333 334
3 332 334 335
3 332 335 238
3 332 238 336
3 332 336 337
3 332 337 338
3 332 338 339
3 332 339 333
3 340 341 342
3 340 342 343
3 340 343 344
3 340 344 345
3 340 345 346
3 340 346 347
3 340 347 348
3 340 348 341
3 349 350 211
3 349 211 351
3 349 351 352
3 349 352 353
3 349 353 316
3 349 316 315
3 349 315 314
3 349 314 350
3 354 336 238
3 354 238 237
3 354 237 236
3 354 236 355
3 354 355 356
3 354 356 357
3 354 357 337
3 354 337 336
3 358 359 360
3 358 360 361
3 358 361 362
3 358 362 363
3 358 363 364
3 358 364 365
3 358 365 366
3 358 366 359
3 367 368 53
3 367 53 52
3 367 52 51
3 367 51 369
3 367 369 370
3 367 370 371
3 367 371 372
3 367 372 368
3 373 374 375
3 373 375 376
3 373 376 377
3 373 377 378
3 373 378 296
3 373 296 295
3 373 295 294
3 373 294 374
3 379 380 381
3 379 381 382
3 379 382 383
3 379 383 384
3 379 384 385
3 379 385 386
3 379 386 387
3 379 387 380
3 388 389 390
3 388 390 391
3 388 391 392
3 388 392 393
3 388 393 394
3 388 394 395
3 388 395 396
3 388 396 397
3 388 397 398
3 388 398 389
3 399 400 286
3 399 286 285
3 399 285 216
3 399 216 215
3 399 215 222
3 399 222 401
3 399 401 402
3 399 402 400
3 403 404 405
3 403 405 406
3 403 406 21
3 403 21 20
3 403 20 19
3 403 19 407
3 403 407 408
3 403 408 409
3 403 409 410
3 403 410 411
3 403 411 100
3 403 100 99
3 403 99 98
3 403 98 404
3 412 413 414
3 412 414 415
3 412 415 11
3 412 11 10
3 412 10 24
3 412 24 416
3 412 416 417
3 412 417 413
3 418 41 40
3 418 40 419
3 420 421 331
3 420 331 330
3 420 330 107
3 420 107 106
3 418 105 104
3 418 104 422
3 418 422 42
3 418 42 41
3 423 424 425
3 423 425 426
3 423 426 427
3 423 427 428
3 423 428 429
3 423 429 430
3 423 430 431
3 423 431 432
3 423 432 433
3 423 433 424
3 434 435 436
3 434 436 437
3 434 437 438
3 434 438 439
3 434 439 2
3 434 2 140
3 434 140 139
3 434 139 435
3 440 441 348
3 440 348 347
3 440 347 346
3 440 346 442
3 440 442 443
3 440 443 444
3 440 444 445
3 440 445 441
3 446 447 448
3 446 448 449
3 446 449 398
3 446 398 450
3 446 450 91
3 446 91 90
3 446 90 89
3 446 89 447
3 451 452 453
3 451 453 454
3 451 454 455
3 451 455 456
3 451 456 457
3 451 457 458
3 451 458 459
3 451 459 452
3 460 461 366
3 460 366 365
3 460 365 364
3 460 364 462
3 460 462 463
3 460 463 464
3 460 464 465
3 460 465 461
3 466 450 398
3 466 398 397
3 466 397 396
3 466 396 467
3 466 467 191
3 466 191 190
3 466 190 91
3 466 91 450
3 468 469 470
3 468 470 471
3 468 471 472
3 468 472 473
3 468 473 474
3 468 474 475
3 468 475 476
3 468 476 477
3 468 477 478
3 468 478 469
3 479 480 481
3 479 481 482
3 479 482 483
3 479 483 484
3 479 484 485
3 479 485 486
3 479 486 487
3 479 487 488
3 479 488 489
3 479 489 480
3 490 491 476
3 490 476 475
3 490 475 474
3 490 474 492
3 490 492 123
3 490 123 122
3 490 122 121
3 490 121 491
3 493 30 29
3 493 29 254
3 493 254 205
3 493 205 204
3 493 204 213
3 493 213 494
3 493 494 495
3 493 495 496
3 493 496 31
3 493 31 30
3 497 498 387
3 497 387 386
3 497 386 385
3 497 385 499
3 497 499 500
3 497 500 501
3 497 501 502
3 497 502 498
3 503 504 505
3 503 505 506
3 503 506 507
3 503 507 508
3 509 510 511
3 509 511 512
3 509 512 513
3 509 513 514
3 515 202 201
3 515 201 516
3 515 516 517
3 515 517 518
3 515 518 448
3 515 448 447
3 515 447 89
3 515 89 202
3 519 520 521
3 519 521 522
3 519 522 425
3 519 425 424
3 519 424 433
3 519 433 523
3 519 523 524
3 519 524 525
3 519 525 526
3 519 526 520
3 527 458 457
3 527 457 528
3 527 528 487
3 527 487 486
3 527 486 485
3 527 485 529
3 527 529 530
3 527 530 531
3 527 531 459
3 527 459 458
3 532 533 322
3 532 322 321
3 532 321 320
3 532 320 534
3 532 534 481
3 532 481 480
3 532 480 489
3 532 489 533
3 535 536 537
3 535 537 538
3 535 538 539
3 535 539 540
3 535 540 114
3 535 114 113
3 535 113 112
3 535 112 541
3 535 541 542
3 535 542 536
3 543 544 71
3 543 71 70
3 543 70 69
3 543 69 545
3 546 547 201
3 546 201 200
3 546 200 199
3 546 199 548
3 543 549 550
3 543 550 544
3 551 552 553
3 551 553 554
3 551 554 526
3 551 526 525
3 551 525 524
3 551 524 555
3 551 555 225
3 551 225 224
3 551 224 230
3 551 230 556
3 551 556 539
3 551 539 538
3 551 538 537
3 551 537 552
3 557 68 67
3 557 67 558
3 557 558 495
3 557 495 494
3 557 494 213
3 557 213 559
3 557 559 560
3 557 560 561
3 557 561 69
3 557 69 68
3 562 563 560
3 562 560 564
3 562 564 314
3 562 314 313
3 565 325 324
3 565 324 566
3 565 566 455
3 565 455 454
3 565 454 453
3 565 453 567
3 565 567 568
3 565 568 569
3 570 14 13
3 570 13 571
3 570 571 572
3 570 572 573
3 574 575 576
3 574 576 577
3 574 577 17
3 574 17 16
3 578 206 205
3 578 205 257
3 578 257 256
3 578 256 579
3 578 579 233
3 578 233 232
3 578 232 238
3 578 238 335
3 578 335 334
3 578 334 580
3 578 580 207
3 578 207 206
3 581 559 213
3 581 213 212
3 581 212 211
3 581 211 350
3 581 350 314
3 581 314 564
3 581 564 560
3 581 560 559
3 582 545 69
3 582 69 561
3 582 561 560
3 582 560 563
3 583 569 568
3 583 568 584
3 583 584 517
3 583 517 516
3 583 516 201
3 583 201 547
3 585 586 587
3 585 587 588
3 585 588 375
3 585 375 374
3 585 374 294
3 585 294 589
3 585 589 590
3 585 590 586
3 591 439 438
3 591 438 592
3 591 592 149
3 591 149 148
3 591 148 147
3 591 147 593
3 591 593 594
3 591 594 595
3 591 595 4
3 591 4 3
3 591 3 2
3 591 2 439
3 596 597 590
3 596 590 589
3 596 589 294
3 596 294 293
3 596 293 300
3 596 300 598
3 596 598 599
3 596 599 597
3 600 473 472
3 600 472 601
3 600 601 513
3 600 513 512
3 600 512 511
3 600 511 602
3 600 602 603
3 600 603 604
3 600 604 474
3 600 474 473
3 605 606 607
3 605 607 608
3 605 608 178
3 605 178 609
3 610 611 145
3 610 145 612
3 610 612 613
3 610 613 614
3 615 492 474
3 615 474 604
3 615 604 603
3 615 603 616
3 615 616 613
3 615 613 612
3 615 612 145
3 615 145 144
3 615 144 123
3 615 123 492
3 617 618 220
3 617 220 219
3 617 219 218
3 617 218 619
3 617 619 13
3 617 13 12
3 617 12 11
3 617 11 618
3 620 621 622
3 620 622 623
3 620 623 405
3 620 405 404
3 620 404 98
3 620 98 329
3 620 329 328
3 620 328 621
3 624 625 222
3 624 222 221
3 624 221 220
3 624 220 618
3 624 618 11
3 624 11 415
3 624 415 414
3 624 414 625
3 626 619 218
3 626 218 302
3 626 302 280
3 626 280 627
3 626 627 572
3 626 572 571
3 626 571 13
3 626 13 619
3 628 409 408
3 628 408 629
3 628 629 630
3 628 630 631
3 628 631 632
3 628 632 633
3 628 633 507
3 628 507 506
3 628 506 505
3 628 505 634
3 628 634 410
3 628 410 409
3 635 573 572
3 635 572 636
3 635 636 181
3 635 181 180
3 637 188 187
3 637 187 638
3 637 638 576
3 637 576 575
3 639 627 280
3 639 280 279
3 639 279 242
3 639 242 640
3 639 640 181
3 639 181 636
3 639 636 572
3 639 572 627
3 641 631 630
3 641 630 642
3 641 642 170
3 641 170 169
3 641 169 178
3 641 178 608
3 641 608 607
3 641 607 643
3 641 643 632
3 641 632 631
3 644 640 242
3 644 242 241
3 644 241 84
3 644 84 83
3 644 83 82
3 644 82 182
3 644 182 181
3 644 181 640
3 645 646 647
3 645 647 648
3 645 648 174
3 645 174 185
3 649 183 82
3 649 82 81
3 649 81 80
3 649 80 650
3 651 609 178
3 651 178 177
3 651 177 176
3 651 176 652
3 653 654 594
3 653 594 593
3 653 593 147
3 653 147 146
3 653 146 145
3 653 145 611
3 655 656 657
3 655 657 658
3 655 658 659
3 655 659 660
3 655 660 587
3 655 587 656
3 661 39 38
3 661 38 662
3 663 664 331
3 663 331 421
3 661 419 40
3 661 40 39
3 665 652 176
3 665 176 666
3 667 668 4
3 667 4 595
3 667 595 594
3 667 594 654
3 669 426 425
3 669 425 670
3 671 672 93
3 671 93 196
3 669 673 427
3 669 427 426
3 674 675 127
3 674 127 676
3 677 678 679
3 677 679 680
3 677 680 429
3 677 429 681
3 682 592 438
3 682 438 683
3 682 683 125
3 682 125 150
3 682 150 149
3 682 149 592
3 684 111 110
3 684 110 685
3 684 685 542
3 684 542 541
3 684 541 112
3 684 112 111
3 686 548 199
3 686 199 687
3 688 689 526
3 688 526 554
3 688 554 553
3 688 553 690
3 691 602 511
3 691 511 692
3 691 692 613
3 691 613 616
3 691 616 603
3 691 603 602
3 693 528 457
3 693 457 694
3 693 694 489
3 693 489 488
3 693 488 487
3 693 487 528
3 695 406 405
3 695 405 696
3 697 698 24
3 697 24 23
3 695 22 21
3 695 21 406
3 699 580 334
3 699 334 700
3 699 700 209
3 699 209 208
3 699 208 207
3 699 207 580
3 701 702 703
3 701 703 704
3 701 704 250
3 701 250 249
3 701 249 248
3 701 248 702
3 705 523 433
3 705 433 706
3 705 706 225
3 705 225 555
3 705 555 524
3 705 524 523
3 707 229 130
3 707 130 708
3 707 708 539
3 707 539 556
3 707 556 230
3 707 230 229
3 709 579 256
3 709 256 710
3 709 710 167
3 709 167 234
3 709 234 233
3 709 233 579
3 711 162 161
3 711 161 712
3 711 712 713
3 711 713 714
3 711 714 163
3 711 163 162
3 715 262 60
3 715 60 716
3 717 718 244
3 717 244 278
3 717 278 265
3 717 265 264
3 719 720 360
3 719 360 721
3 719 721 344
3 719 344 722
3 719 722 300
3 719 300 720
3 723 724 417
3 723 417 725
3 726 727 622
3 726 622 728
3 729 730 383
3 729 383 731
3 729 731 370
3 729 370 732
3 733 734 311
3 733 311 735
3 733 735 390
3 733 390 736
3 733 736 485
3 733 485 734
3 737 477 476
3 737 476 738
3 739 740 396
3 739 396 395
3 739 395 394
3 739 394 741
3 742 558 67
3 742 67 743
3 742 743 31
3 742 31 496
3 742 496 495
3 742 495 558
3 744 567 453
3 744 453 745
3 744 745 517
3 744 517 584
3 744 584 568
3 744 568 567
3 746 323 322
3 746 322 747
3 746 747 455
3 746 455 566
3 746 566 324
3 746 324 323
3 748 18 17
3 748 17 749
3 748 749 408
3 748 408 407
3 748 407 19
3 748 19 18
3 750 634 505
3 750 505 751
3 750 751 100
3 750 100 411
3 750 411 410
3 750 410 634
3 752 643 607
3 752 607 753
3 752 753 507
3 752 507 633
3 752 633 632
3 752 632 643
3 754 171 170
3 754 170 755
3 754 755 187
3 754 187 186
3 754 186 172
3 754 172 171
3 756 757 758
3 756 758 759
3 756 759 657
3 756 657 656
3 756 656 587
3 756 587 586
3 756 586 590
3 756 590 757
3 760 687 199
3 760 199 198
3 760 198 95
3 760 95 761
3 762 763 521
3 762 521 520
3 762 520 526
3 762 526 689
3 764 765 375
3 764 375 588
3 764 588 587
3 764 587 660
3 766 767 339
3 766 339 338
3 766 338 337
3 766 337 768
3 769 770 342
3 769 342 771
3 769 771 758
3 769 758 757
3 769 757 590
3 769 590 597
3 769 597 599
3 769 599 770
3 772 666 176
3 772 176 175
3 772 175 174
3 772 174 773
3 774 775 6
3 774 6 5
3 774 5 4
3 774 4 668
3 776 761 95
3 776 95 94
3 776 94 93
3 776 93 672
3 777 670 425
3 777 425 522
3 777 522 521
3 777 521 763
3 778 676 127
3 778 127 126
3 778 126 125
3 778 125 683
3 778 683 438
3 778 438 437
3 778 437 436
3 778 436 676
3 779 780 49
3 779 49 48
3 779 48 47
3 779 47 781
3 782 783 402
3 782 402 401
3 782 401 222
3 782 222 784
3 785 786 377
3 785 377 376
3 785 376 375
3 785 375 765
3 787 768 337
3 787 337 357
3 787 357 356
3 787 356 788
3 789 790 791
3 789 791 792
3 789 792 209
3 789 209 700
3 789 700 334
3 789 334 333
3 789 333 339
3 789 339 790
3 793 794 136
3 793 136 246
3 793 246 252
3 793 252 795
3 793 795 116
3 793 116 115
3 793 115 114
3 793 114 794
3 796 708 130
3 796 130 129
3 796 129 136
3 796 136 794
3 796 794 114
3 796 114 540
3 796 540 539
3 796 539 708
3 797 680 679
3 797 679 798
3 797 798 227
3 797 227 799
3 797 799 431
3 797 431 430
3 797 430 429
3 797 429 680
3 800 801 80
3 800 80 79
3 800 79 86
3 800 86 802
3 803 804 58
3 803 58 289
3 803 289 154
3 803 154 805
3 806 807 647
3 806 647 646
3 808 650 80
3 808 80 801
3 809 805 154
3 809 154 153
3 809 153 8
3 809 8 810
3 811 799 227
3 811 227 226
3 811 226 225
3 811 225 706
3 811 706 433
3 811 433 432
3 811 432 431
3 811 431 799
3 812 773 174
3 812 174 648
3 812 648 647
3 812 647 807
3 813 810 8
3 813 8 7
3 813 7 6
3 813 6 775
3 814 815 273
3 814 273 272
3 814 272 159
3 814 159 816
3 814 816 76
3 814 76 75
3 814 75 74
3 814 74 815
3 817 816 159
3 817 159 158
3 817 158 167
3 817 167 710
3 817 710 256
3 817 256 255
3 817 255 76
3 817 76 816
3 818 819 820
3 818 820 821
3 818 821 713
3 818 713 712
3 818 712 161
3 818 161 276
3 818 276 275
3 818 275 819
3 822 802 86
3 822 86 240
3 822 240 244
3 822 244 718
3 823 716 60
3 823 60 59
3 823 59 58
3 823 58 804
3 824 825 366
3 824 366 461
3 824 461 465
3 824 465 826
3 824 826 443
3 824 443 442
3 824 442 346
3 824 346 825
3 827 721 360
3 827 360 359
3 827 359 366
3 827 366 825
3 827 825 346
3 827 346 345
3 827 345 344
3 827 344 721
3 828 829 328
3 828 328 327
3 828 327 331
3 828 331 664
3 830 831 500
3 830 500 499
3 830 499 385
3 830 385 832
3 833 784 222
3 833 222 625
3 833 625 414
3 833 414 834
3 835 836 51
3 835 51 50
3 835 50 49
3 835 49 780
3 837 834 414
3 837 414 413
3 837 413 417
3 837 417 724
3 838 732 370
3 838 370 369
3 838 369 51
3 838 51 836
3 839 728 622
3 839 622 621
3 839 621 328
3 839 328 829
3 840 832 385
3 840 385 384
3 840 384 383
3 840 383 730
3 841 722 344
3 841 344 343
3 841 343 342
3 841 342 770
3 841 770 599
3 841 599 598
3 841 598 300
3 841 300 722
3 842 843 362
3 842 362 361
3 842 361 360
3 842 360 720
3 842 720 300
3 842 300 299
3 842 299 298
3 842 298 843
3 844 731 383
3 844 383 382
3 844 382 381
3 844 381 845
3 844 845 372
3 844 372 371
3 844 371 370
3 844 370 731
3 846 696 405
3 846 405 623
3 846 623 622
3 846 622 727
3 847 725 417
3 847 417 416
3 847 416 24
3 847 24 698
3 848 849 305
3 848 305 304
3 848 304 311
3 848 311 734
3 848 734 485
3 848 485 484
3 848 484 483
3 848 483 849
3 850 736 390
3 850 390 389
3 850 389 398
3 850 398 851
3 850 851 530
3 850 530 529
3 850 529 485
3 850 485 736
3 852 853 121
3 852 121 120
3 852 120 127
3 852 127 675
3 854 855 193
3 854 193 192
3 854 192 191
3 854 191 856
3 857 738 476
3 857 476 491
3 857 491 121
3 857 121 853
3 858 856 191
3 858 191 467
3 858 467 396
3 858 396 740
3 859 851 398
3 859 398 449
3 859 449 448
3 859 448 860
3 859 860 459
3 859 459 531
3 859 531 530
3 859 530 851
3 861 862 392
3 861 392 391
3 861 391 390
3 861 390 735
3 861 735 311
3 861 311 310
3 861 310 309
3 861 309 862
3 863 864 472
3 863 472 471
3 863 471 470
3 863 470 865
3 863 865 44
3 863 44 43
3 863 43 42
3 863 42 864
3 866 867 513
3 866 513 601
3 866 601 472
3 866 472 864
3 866 864 42
3 866 42 422
3 866 422 104
3 866 104 867
3 868 745 453
3 868 453 452
3 868 452 459
3 868 459 860
3 868 860 448
3 868 448 518
3 868 518 517
3 868 517 745
3 869 747 322
3 869 322 533
3 869 533 489
3 869 489 694
3 869 694 457
3 869 457 456
3 869 456 455
3 869 455 747
3 870 743 67
3 870 67 66
3 870 66 65
3 870 65 871
3 870 871 33
3 870 33 32
3 870 32 31
3 870 31 743
3 872 751 505
3 872 505 504
3 873 514 513
3 873 513 867
3 873 867 104
3 873 104 103
3 872 101 100
3 872 100 751
3 874 753 607
3 874 607 606
3 875 614 613
3 875 613 692
3 875 692 511
3 875 511 510
3 874 508 507
3 874 507 753
3 876 877 630
3 876 630 629
3 876 629 408
3 876 408 749
3 876 749 17
3 876 17 577
3 876 577 576
3 876 576 877
3 878 755 170
3 878 170 642
3 878 642 630
3 878 630 877
3 878 877 576
3 878 576 638
3 878 638 187
3 878 187 755
3 879 210 209
3 879 209 792
3 879 792 791
3 879 791 880
3 879 880 352
3 879 352 351
3 879 351 211
3 879 211 210
