ply
format ascii 1.0
comment Created by Blender 2.80 (sub 75) - www.blender.org, source file: 'Asteroid_Small_6X.blend'
element vertex 777
property float x
property float y
property float z
property float nx
property float ny
property float nz
property float s
property float t
element face 1268
property list uchar uint vertex_indices
end_header
-0.238997 -0.179314 -0.389577 -0.348460 -0.543229 -0.763817 0.536818 0.810841
-0.329715 -0.175608 -0.354547 -0.403424 -0.492965 -0.770837 0.514917 0.832147
-0.333495 -0.113318 -0.380403 -0.464644 -0.359081 -0.809381 0.496637 0.814197
-0.259781 -0.097914 -0.426124 -0.416120 -0.383038 -0.824671 0.509093 0.788367
-0.160979 -0.095755 -0.478312 -0.429792 -0.393017 -0.812860 0.531890 0.759306
-0.138156 -0.189809 -0.428517 -0.443678 -0.531999 -0.721152 0.564523 0.787703
-0.125415 -0.277489 -0.355976 -0.479385 -0.665883 -0.571581 0.592527 0.822810
-0.231810 -0.254824 -0.324956 -0.319559 -0.740532 -0.591144 0.558753 0.840967
-0.330396 -0.238985 -0.301905 -0.349925 -0.745476 -0.567248 0.530475 0.855960
0.208953 -0.219461 -0.356493 0.440291 -0.583209 -0.682638 0.824441 0.425993
0.122038 -0.263191 -0.381314 0.522782 -0.545366 -0.655141 0.810612 0.392960
0.146195 -0.181987 -0.423524 0.466414 -0.518998 -0.716269 0.848320 0.400412
0.245818 -0.136370 -0.400736 0.405744 -0.556627 -0.724906 0.862532 0.437539
0.346484 -0.099749 -0.375513 0.372967 -0.566820 -0.734550 0.872021 0.474172
0.298787 -0.184607 -0.330453 0.381024 -0.604602 -0.699454 0.834267 0.458727
0.269477 -0.250436 -0.288959 0.397107 -0.652120 -0.645741 0.803656 0.451286
0.202259 -0.291988 -0.292589 0.438826 -0.675832 -0.592120 0.787320 0.428322
0.118651 -0.330767 -0.317950 0.525498 -0.655660 -0.542131 0.774860 0.396970
-0.282794 -0.263148 0.464920 -0.310129 -0.661000 0.683279 0.230583 0.843028
-0.162695 -0.292697 0.474183 -0.100620 -0.766717 0.634022 0.269843 0.843382
-0.188091 -0.234728 0.530571 -0.193548 -0.640431 0.743187 0.256724 0.870582
-0.330312 -0.188831 0.506442 -0.377026 -0.576281 0.725059 0.206930 0.869353
-0.450286 -0.153130 0.456280 -0.564714 -0.560930 0.605304 0.163456 0.858526
-0.397923 -0.231706 0.427979 -0.502823 -0.589160 0.632466 0.191993 0.835674
-0.353882 -0.292520 0.403057 -0.406598 -0.668630 0.622547 0.213099 0.818065
-0.252493 -0.306001 0.430648 -0.215461 -0.760704 0.612262 0.243804 0.825967
-0.162600 -0.317599 0.435007 -0.068361 -0.843623 0.532517 0.271754 0.827850
0.310046 -0.358508 0.111271 0.444197 -0.895383 0.030885 0.809047 0.884088
0.263843 -0.382231 0.026102 0.456313 -0.889584 0.019349 0.803944 0.919318
0.333710 -0.345231 0.007578 0.520951 -0.852748 -0.037355 0.776926 0.904077
0.364323 -0.331222 0.080438 0.492782 -0.869503 -0.033235 0.785761 0.876916
0.409303 -0.306997 0.132729 0.453810 -0.890835 0.020447 0.785106 0.851822
0.388754 -0.316036 0.144203 0.454787 -0.887722 0.070986 0.793239 0.854441
0.376459 -0.320100 0.176149 0.467055 -0.875423 0.124424 0.803438 0.849613
0.325093 -0.345947 0.187895 0.450942 -0.881924 0.137120 0.820621 0.859906
0.247141 -0.382555 0.204571 0.387829 -0.907590 0.160741 0.847198 0.874644
0.220789 -0.400538 0.121941 0.380047 -0.922880 0.061678 0.838929 0.904038
0.179414 -0.420899 0.047520 0.390942 -0.916257 0.087161 0.836112 0.935323
0.271528 0.366348 0.309535 0.403394 0.632191 0.661489 0.523463 0.382013
0.294171 0.410847 0.239943 0.428480 0.761071 0.486953 0.520111 0.352877
0.225588 0.431844 0.252532 0.276284 0.824274 0.494156 0.544096 0.353439
0.177969 0.398370 0.319971 0.270058 0.731956 0.625477 0.556550 0.380848
0.135760 0.356023 0.378883 0.289529 0.653859 0.698996 0.565583 0.408893
0.249415 0.315702 0.359235 0.415662 0.516404 0.748650 0.524281 0.408897
0.326085 0.283301 0.328917 0.491714 0.404553 0.771020 0.494498 0.406786
0.362975 0.316550 0.290224 0.551408 0.520127 0.652181 0.487921 0.386085
0.362630 0.371904 0.220424 0.588733 0.674062 0.446059 0.492606 0.355108
-0.327769 0.432445 0.154027 -0.545640 0.819605 -0.174535 0.110525 0.543411
-0.329936 0.409587 0.066930 -0.633595 0.767663 -0.095889 0.083174 0.527231
-0.398569 0.345885 0.072725 -0.728111 0.662099 -0.177252 0.097900 0.492626
-0.418250 0.358894 0.157897 -0.709403 0.661519 -0.243080 0.126039 0.504010
-0.430406 0.386833 0.255064 -0.684347 0.707816 -0.175085 0.152896 0.521426
-0.325819 0.454167 0.240335 -0.467818 0.877194 -0.107791 0.135684 0.556903
-0.200801 0.501205 0.227745 -0.219489 0.975494 -0.014344 0.122024 0.596263
-0.221404 0.486792 0.140668 -0.328593 0.941069 -0.079775 0.095843 0.583066
-0.256422 0.466325 0.056244 -0.484542 0.874630 0.014191 0.069965 0.562003
-0.544396 -0.073183 -0.113067 -0.846217 -0.237526 -0.476913 0.421898 0.903554
-0.507614 -0.036003 -0.200492 -0.699637 -0.525742 -0.483779 0.424318 0.867029
-0.472756 -0.048450 -0.217403 -0.483016 -0.781030 -0.395734 0.437184 0.861570
-0.473072 -0.063251 -0.196251 -0.586901 -0.578845 -0.566057 0.440291 0.870350
-0.454331 -0.105458 -0.184657 -0.625019 -0.482711 -0.613422 0.456632 0.880016
-0.508833 -0.137099 -0.116937 -0.543809 -0.459395 -0.702261 0.451118 0.911660
-0.555404 -0.185129 -0.056397 -0.477798 -0.531846 -0.699149 0.453557 0.944042
-0.584744 -0.151786 -0.056126 -0.830897 -0.085757 -0.549699 0.437003 0.941655
-0.589651 -0.134996 -0.016515 -0.951262 0.264687 -0.158116 0.423840 0.948378
-0.576666 -0.079751 0.000306 -0.982238 0.128513 -0.136692 0.402299 0.938791
-0.574369 0.012458 0.026813 -0.993378 0.083590 -0.078677 0.365166 0.926531
-0.567461 0.016265 -0.093872 -0.983612 -0.045381 -0.174413 0.384654 0.891335
-0.547578 0.027539 -0.185448 -0.904386 -0.169012 -0.391736 0.394673 0.861521
-0.332460 0.417165 -0.295221 -0.508988 0.537522 -0.672262 0.257892 0.208953
-0.308924 0.342211 -0.373234 -0.436354 0.558306 -0.705557 0.223013 0.222057
-0.361802 0.323795 -0.345091 -0.583667 0.513688 -0.628803 0.219659 0.202542
-0.398166 0.363686 -0.278868 -0.643269 0.486221 -0.591388 0.241596 0.186360
-0.433714 0.402135 -0.202850 -0.722160 0.487838 -0.490341 0.263808 0.169698
-0.364368 0.473223 -0.222229 -0.591662 0.566515 -0.573534 0.283315 0.194001
-0.272625 0.514498 -0.259424 -0.389966 0.623463 -0.677633 0.295258 0.221466
-0.240723 0.443620 -0.328317 -0.314097 0.570025 -0.759178 0.266348 0.238598
-0.219500 0.351868 -0.404081 -0.237648 0.570818 -0.785882 0.224822 0.252199
-0.458890 0.293106 0.394454 -0.303049 0.640614 0.705496 0.206943 0.511542
-0.476019 0.318603 0.362218 -0.468612 0.640126 0.608753 0.193072 0.509576
-0.504873 0.249662 0.400747 -0.627857 0.528611 0.571245 0.216344 0.492430
-0.487520 0.229246 0.433066 -0.480880 0.528398 0.699637 0.229575 0.495262
-0.443619 0.204103 0.475103 -0.367687 0.534989 0.760613 0.248433 0.504830
-0.414942 0.266568 0.431625 -0.218940 0.671468 0.707938 0.224425 0.521093
-0.385152 0.304633 0.397454 -0.149693 0.690268 0.707877 0.209072 0.533886
-0.411939 0.340144 0.360408 -0.176611 0.650472 0.738670 0.190726 0.529362
-0.425916 0.376562 0.325790 -0.315134 0.688742 0.652882 0.173964 0.528398
-0.237503 -0.300738 -0.236116 -0.340953 -0.867824 -0.361400 0.569307 0.874490
-0.135046 -0.329117 -0.270495 -0.436018 -0.815394 -0.380718 0.604584 0.858113
-0.162483 -0.354192 -0.170978 -0.333903 -0.915250 -0.225379 0.603963 0.895513
-0.257572 -0.326309 -0.138394 -0.357006 -0.897458 -0.258919 0.570427 0.909957
-0.351052 -0.280272 -0.122791 -0.536424 -0.773217 -0.338115 0.532427 0.916299
-0.330431 -0.275683 -0.216309 -0.421552 -0.865932 -0.269112 0.538034 0.884571
0.271815 -0.249729 0.431700 0.649159 -0.594043 0.475021 0.871603 0.785351
0.344927 -0.234639 0.353528 0.626148 -0.542772 0.559709 0.836891 0.790577
0.367766 -0.149752 0.394089 0.692312 -0.419752 0.586901 0.829396 0.753390
0.288906 -0.166912 0.496874 0.742058 -0.410352 0.530015 0.871784 0.745340
0.220927 -0.197398 0.582006 0.691092 -0.431104 0.580065 0.907278 0.746682
0.207451 -0.271694 0.494234 0.552751 -0.701346 0.450026 0.901487 0.784836
0.199337 -0.338185 0.383505 0.414838 -0.811823 0.410840 0.888977 0.827154
0.269930 -0.316885 0.347777 0.528428 -0.725669 0.440626 0.862549 0.822380
0.326184 -0.285595 0.320650 0.566698 -0.648091 0.508682 0.840433 0.814107
-0.587055 -0.089038 0.131090 -0.990570 -0.124485 0.056703 0.078798 0.768746
-0.576666 -0.079751 0.000306 -0.982238 0.128513 -0.136692 0.058657 0.726852
-0.589651 -0.134996 -0.016515 -0.951262 0.264687 -0.158116 0.080568 0.714305
-0.597943 -0.157966 0.015647 -0.992096 -0.106082 0.066622 0.092992 0.722493
-0.576547 -0.194588 0.025671 -0.825190 -0.545671 0.145756 0.109399 0.721490
-0.563558 -0.167260 0.138497 -0.897397 -0.404126 0.176916 0.111582 0.759755
-0.541795 -0.149079 0.279144 -0.885189 -0.410901 0.218024 0.123576 0.805659
-0.573985 -0.062977 0.306395 -0.948424 -0.291330 0.124760 0.092520 0.828967
-0.596549 0.045017 0.363550 -0.999420 0.006287 0.032716 0.057669 0.867300
-0.585343 0.023486 0.183516 -0.994995 0.089908 -0.043519 0.040436 0.804601
-0.574369 0.012458 0.026813 -0.993378 0.083590 -0.078677 0.023835 0.750532
-0.330123 -0.341031 0.148017 -0.139286 -0.988464 0.059114 0.218684 0.736380
-0.324596 -0.345314 0.045676 -0.195105 -0.978271 -0.069948 0.215491 0.701793
-0.229777 -0.359998 0.058114 -0.169652 -0.985198 0.024079 0.250016 0.701890
-0.215007 -0.354374 0.157028 -0.124088 -0.986206 0.109378 0.257380 0.735889
-0.184828 -0.347003 0.243810 -0.081484 -0.988495 0.127354 0.268055 0.764812
-0.313502 -0.334443 0.244832 -0.113498 -0.989563 0.088595 0.226643 0.766693
-0.415627 -0.321141 0.242152 -0.193518 -0.976623 0.093539 0.195538 0.768998
-0.413110 -0.330602 0.135606 -0.209601 -0.977569 0.018983 0.191629 0.736715
-0.404077 -0.326311 0.016021 -0.313242 -0.909421 -0.273446 0.184810 0.697714
-0.559773 0.105577 -0.105274 -0.980895 0.192145 -0.030183 0.180384 0.071313
-0.548113 0.107482 -0.192068 -0.941160 -0.004212 -0.337901 0.166432 0.098464
-0.547578 0.027539 -0.185448 -0.904386 -0.169012 -0.391736 0.135952 0.080422
-0.567461 0.016265 -0.093872 -0.983612 -0.045381 -0.174413 0.147887 0.047830
-0.574369 0.012458 0.026813 -0.993378 0.083590 -0.078677 0.168962 0.008958
-0.560240 0.088411 0.032093 -0.959105 0.281503 -0.029115 0.199796 0.025355
-0.530460 0.156093 0.037519 -0.895657 0.444533 -0.011078 0.228311 0.040976
-0.530614 0.172680 -0.079147 -0.910550 0.393414 0.126835 0.211607 0.079550
-0.529801 0.210219 -0.160467 -0.928739 0.348155 0.127171 0.209143 0.111019
-0.546249 0.168956 -0.176397 -0.975280 0.213813 -0.055269 0.191426 0.105921
-0.543500 0.153846 -0.200537 -0.940275 0.034059 -0.338633 0.182166 0.110066
-0.492445 0.124222 -0.286744 -0.807337 -0.009003 -0.589953 0.157058 0.135244
-0.403083 0.115483 -0.393278 -0.704123 -0.100772 -0.702872 0.137563 0.177967
-0.394873 0.039900 -0.379876 -0.664663 -0.234352 -0.709403 0.105961 0.166693
-0.481591 0.034673 -0.284876 -0.773766 -0.229011 -0.590594 0.119747 0.121476
-0.526133 0.175375 -0.232635 -0.852748 0.130711 -0.505692 0.184619 0.124613
-0.507593 0.219308 -0.237833 -0.795801 0.309397 -0.520463 0.199069 0.136094
-0.462255 0.197830 -0.312826 -0.776177 0.215369 -0.592547 0.180146 0.158383
-0.395711 0.188062 -0.402467 -0.710501 0.167486 -0.683432 0.164403 0.190613
-0.294874 -0.034331 -0.430742 -0.500351 -0.256966 -0.826777 0.482217 0.779048
-0.377499 -0.030756 -0.370498 -0.666677 -0.209387 -0.715323 0.461108 0.805495
-0.394873 0.039900 -0.379876 -0.664663 -0.234352 -0.709403 0.435499 0.790290
-0.303571 0.044058 -0.447673 -0.519303 -0.244881 -0.818720 0.456396 0.758676
-0.201378 0.042467 -0.501562 -0.425062 -0.222022 -0.877499 0.480945 0.728773
-0.181595 -0.025007 -0.495558 -0.431410 -0.257118 -0.864711 0.506146 0.742770
-0.346843 -0.079880 -0.385639 -0.557298 -0.239601 -0.794977 0.483887 0.808041
-0.373243 -0.065865 -0.367319 -0.688498 -0.156438 -0.708121 0.473269 0.813335
-0.563509 0.114395 0.197372 -0.942015 0.323740 -0.087954 0.187897 0.408685
-0.560240 0.088411 0.032093 -0.959105 0.281503 -0.029115 0.142366 0.371294
-0.574369 0.012458 0.026813 -0.993378 0.083590 -0.078677 0.157175 0.340806
-0.585343 0.023486 0.183516 -0.994995 0.089908 -0.043519 0.203874 0.371599
-0.596549 0.045017 0.363550 -0.999420 0.006287 0.032716 0.253913 0.412092
-0.564648 0.150697 0.337212 -0.935789 0.347758 -0.057619 0.220895 0.444897
-0.521536 0.243309 0.316168 -0.907651 0.411603 -0.081851 0.195071 0.474849
-0.524463 0.196302 0.182568 -0.891812 0.435804 -0.121372 0.165207 0.438566
-0.530460 0.156093 0.037519 -0.895657 0.444533 -0.011078 0.128585 0.399831
-0.163117 0.526081 -0.078823 -0.163488 0.969329 0.183386 0.363380 0.206274
-0.171230 0.548607 -0.207623 -0.059053 0.991119 0.119053 0.330408 0.235352
-0.280946 0.533639 -0.180753 -0.260598 0.934141 0.243812 0.314861 0.205741
-0.268516 0.505220 -0.094060 -0.318491 0.884915 0.339763 0.333860 0.185357
-0.272461 0.472874 -0.023150 -0.464125 0.828211 0.314035 0.345876 0.161203
-0.225041 0.491622 -0.015716 -0.326243 0.917936 0.225684 0.361218 0.171803
-0.189803 0.495678 0.024081 -0.311930 0.937132 0.156316 0.380408 0.169635
-0.122880 0.516002 0.037361 -0.204108 0.969268 0.137272 0.402488 0.185165
0.004930 0.533433 0.049403 -0.008271 0.992462 0.122135 0.439610 0.216548
-0.024364 0.539408 -0.095903 0.020234 0.998016 0.059084 0.393543 0.247348
-0.067263 0.548469 -0.236612 0.048097 0.998321 0.032105 0.343644 0.269908
-0.278143 -0.332057 0.321058 -0.094729 -0.991546 0.088351 0.238297 0.789854
-0.165211 -0.339548 0.321860 -0.047731 -0.993439 0.103854 0.273869 0.790634
-0.162849 -0.334450 0.377526 -0.040376 -0.991913 0.120304 0.273469 0.808551
-0.245945 -0.330120 0.375341 -0.083499 -0.987518 0.133457 0.247795 0.806627
-0.318378 -0.323563 0.363981 -0.131626 -0.981109 0.141697 0.226132 0.802952
-0.371702 -0.321362 0.322845 -0.167943 -0.978362 0.120579 0.210270 0.791391
-0.403268 0.074687 0.565737 -0.418714 0.345164 0.839930 0.310136 0.496249
-0.266304 0.099658 0.606055 -0.184118 0.509049 0.840785 0.322974 0.545536
-0.233885 0.186779 0.560214 -0.109104 0.596728 0.794946 0.287516 0.567588
-0.353238 0.181862 0.529670 -0.283792 0.559465 0.778710 0.273491 0.529211
-0.487904 0.112893 0.500668 -0.484207 0.403516 0.776330 0.276228 0.476503
-0.543842 0.040470 0.497305 -0.602130 0.337016 0.723746 0.290606 0.445408
-0.515989 0.021872 0.524664 -0.477737 0.179876 0.859859 0.304865 0.450141
-0.493493 -0.001358 0.537013 -0.398938 -0.092410 0.912290 0.318007 0.450719
-0.419195 0.000495 0.569715 -0.476089 -0.094211 0.874325 0.334728 0.473973
-0.360166 0.003289 0.610778 -0.566210 -0.088870 0.819453 0.348533 0.496350
-0.335216 0.028009 0.624629 -0.434034 0.255806 0.863796 0.345104 0.511271
-0.266950 0.035523 0.641637 -0.186316 0.441542 0.877651 0.352365 0.536016
-0.550673 -0.063819 0.413353 -0.824427 -0.484359 0.292734 0.110823 0.862306
-0.512409 -0.142124 0.382793 -0.771172 -0.508072 0.383557 0.138754 0.837967
-0.497701 -0.073901 0.484535 -0.584857 -0.590899 0.555650 0.134107 0.883124
-0.546781 -0.023241 0.489555 -0.691153 -0.590777 0.416211 0.108329 0.894447
-0.577323 -0.001654 0.441519 -0.901852 -0.369915 0.223151 0.088888 0.883424
0.247957 0.386166 -0.301734 0.304788 0.753990 -0.581835 0.650764 0.142508
0.234354 0.329937 -0.366760 0.285897 0.588183 -0.756462 0.665972 0.170241
0.161891 0.337890 -0.375645 0.291055 0.596026 -0.748314 0.646297 0.185061
0.173183 0.406151 -0.303016 0.303629 0.748772 -0.589129 0.626445 0.152447
0.202916 0.449804 -0.212658 0.298532 0.864589 -0.404096 0.617198 0.116169
0.275955 0.426876 -0.214620 0.343089 0.836390 -0.427412 0.642747 0.108964
0.352524 0.384663 -0.215175 0.538835 0.729026 -0.422071 0.672843 0.103993
0.331372 0.341674 -0.299824 0.502976 0.635060 -0.586230 0.682587 0.135632
0.301041 0.305248 -0.349006 0.443953 0.528062 -0.723899 0.687671 0.158761
0.295958 0.457122 0.145158 0.402020 0.834101 0.377636 0.521125 0.316871
0.289275 0.492610 0.058830 0.331126 0.890652 0.311472 0.523396 0.284408
0.229363 0.506440 0.070838 0.260201 0.917966 0.299326 0.544960 0.285589
0.226839 0.474931 0.157456 0.257607 0.889553 0.377209 0.545521 0.317700
0.363275 0.421431 0.123251 0.581164 0.726127 0.367351 0.493441 0.317459
0.347597 0.474727 0.042403 0.474136 0.802820 0.361400 0.501477 0.282757
0.465671 0.340274 -0.079683 0.725852 0.667196 -0.167180 0.710064 0.055370
0.474920 0.288208 -0.185567 0.648640 0.672658 -0.355968 0.728079 0.092147
0.360316 0.427233 -0.114258 0.535478 0.760002 -0.368267 0.659645 0.068435
0.346222 0.476727 -0.036997 0.406110 0.827479 -0.387707 0.639525 0.040960
0.389950 0.450138 -0.026779 0.711844 0.670003 -0.210639 0.657907 0.035547
0.415810 0.416512 0.003753 0.807611 0.587970 0.044984 0.675020 0.025771
0.478974 0.329215 0.010341 0.784631 0.616962 0.060518 0.718046 0.025484
0.584268 0.196951 0.021685 0.792566 0.602771 0.092105 0.784319 0.027694
0.591388 0.199674 -0.070958 0.760643 0.649129 -0.004089 0.779504 0.057678
0.597780 0.190276 -0.149002 0.686026 0.703207 -0.186621 0.780804 0.081386
-0.436130 0.284113 -0.297469 -0.718680 0.403821 -0.565996 0.212328 0.172287
-0.379731 0.264479 -0.379109 -0.642933 0.427747 -0.635304 0.194431 0.198236
-0.479121 0.306196 -0.217978 -0.780236 0.407239 -0.474685 0.231394 0.150439
0.095266 0.524613 -0.109468 0.227088 0.964141 -0.137181 0.561593 0.091443
0.091112 0.488407 -0.238046 0.435224 0.816706 -0.378857 0.579130 0.135444
0.015395 0.519903 -0.275460 0.506851 0.776452 -0.374432 0.553961 0.153870
-0.010787 0.542361 -0.251497 0.300790 0.941710 -0.150609 0.540357 0.148286
-0.067263 0.548469 -0.236612 0.048097 0.998321 0.032105 0.520227 0.150170
-0.024364 0.539408 -0.095903 0.020234 0.998016 0.059084 0.519966 0.099335
0.004930 0.533433 0.049403 -0.008271 0.992462 0.122135 0.514835 0.048448
0.109835 0.527031 0.043341 0.057711 0.992065 0.111576 0.549936 0.039452
0.160994 0.525986 0.039070 0.036866 0.993957 0.103244 0.567126 0.035369
0.175485 0.524866 -0.006664 0.155339 0.982086 -0.106479 0.576764 0.048764
0.223889 0.510086 -0.015338 0.226691 0.947935 -0.223548 0.594720 0.046619
0.208092 0.488511 -0.105185 0.267678 0.917020 -0.295602 0.601882 0.078663
-0.120887 0.506256 0.121085 -0.145177 0.987243 0.065035 0.083350 0.617366
-0.122880 0.516002 0.037361 -0.204108 0.969268 0.137272 0.053198 0.613452
-0.189803 0.495678 0.024081 -0.311930 0.937132 0.156316 0.052956 0.586840
-0.211704 0.485632 0.046262 -0.315622 0.945585 0.078890 0.062635 0.579279
-0.085902 0.507159 0.209509 0.007202 0.996094 0.087954 0.112754 0.632386
0.015407 0.496124 0.205383 0.114322 0.963286 0.242775 0.111483 0.668299
0.019017 0.512298 0.143563 0.033845 0.979156 0.200110 0.087742 0.668333
0.004930 0.533433 0.049403 -0.008271 0.992462 0.122135 0.052341 0.661095
-0.475505 0.273243 -0.048458 -0.841151 0.477645 0.253487 0.256483 0.097374
-0.493015 0.301064 -0.134296 -0.894559 0.385571 0.225898 0.245049 0.126574
-0.477772 0.242922 0.039187 -0.821436 0.570269 -0.001648 0.265115 0.064679
-0.442829 0.282437 0.036174 -0.751244 0.659749 0.018067 0.282489 0.078129
-0.430108 0.305109 0.007822 -0.770837 0.586505 0.248543 0.284915 0.092896
-0.401759 0.351201 -0.001168 -0.703299 0.601520 0.378796 0.299838 0.109830
-0.426055 0.369703 -0.060611 -0.719810 0.550371 0.422956 0.286898 0.128537
-0.442812 0.402665 -0.127229 -0.761010 0.553392 0.338450 0.277992 0.151343
-0.124669 0.442121 -0.359946 -0.128269 0.558397 -0.819575 0.269220 0.277624
-0.097164 0.337575 -0.434422 -0.070589 0.562914 -0.823481 0.219384 0.294953
-0.160026 0.520998 -0.297742 -0.209143 0.610889 -0.763573 0.303055 0.255772
-0.062601 0.514378 -0.322042 -0.038057 0.541215 -0.839991 0.308749 0.290296
-0.012134 0.433756 -0.368631 0.119541 0.563860 -0.817164 0.272618 0.318133
0.014586 0.329785 -0.439237 0.140385 0.564165 -0.813623 0.219741 0.335279
0.069042 0.439613 -0.332892 0.367870 0.661061 -0.653920 0.592117 0.172640
0.086859 0.334376 -0.412278 0.307566 0.568468 -0.763024 0.630607 0.208826
0.014586 0.329785 -0.439237 0.140385 0.564165 -0.813623 0.615366 0.230619
-0.012134 0.433756 -0.368631 0.119541 0.563860 -0.817164 0.575242 0.198217
-0.062601 0.514378 -0.322042 -0.038057 0.541215 -0.839991 0.537829 0.180879
-0.016377 0.516293 -0.317185 0.341533 0.667470 -0.661672 0.549276 0.170215
-0.356610 0.450061 -0.081900 -0.528733 0.727317 0.437513 0.311129 0.158874
-0.371798 0.482591 -0.148335 -0.527726 0.774346 0.349040 0.299562 0.178557
-0.340289 0.416595 -0.014896 -0.589587 0.708914 0.386975 0.323493 0.136134
0.132788 0.498856 0.152028 0.147008 0.934782 0.323313 0.578376 0.312828
0.109835 0.527031 0.043341 0.057711 0.992065 0.111576 0.586987 0.273865
0.004930 0.533433 0.049403 -0.008271 0.992462 0.122135 0.623289 0.275939
0.019017 0.512298 0.143563 0.033845 0.979156 0.200110 0.617709 0.309557
0.015407 0.496124 0.205383 0.114322 0.963286 0.242775 0.618172 0.331988
0.071964 0.485318 0.209031 0.150914 0.917844 0.367077 0.598295 0.333877
0.090504 0.467824 0.239647 0.166051 0.883297 0.438368 0.590881 0.346026
0.138696 0.456524 0.244324 0.192907 0.869411 0.454817 0.574083 0.348365
0.185333 0.518317 0.070490 0.142521 0.957518 0.250618 0.560738 0.283475
0.160994 0.525986 0.039070 0.036866 0.993957 0.103244 0.569327 0.272279
-0.084914 0.422510 0.340415 0.004669 0.706809 0.707358 0.171608 0.635262
-0.076276 0.476118 0.285814 0.102115 0.755425 0.647206 0.142455 0.637307
-0.192727 0.471767 0.300421 -0.055940 0.693472 0.718284 0.148227 0.600665
-0.196692 0.403872 0.351026 -0.085299 0.635060 0.767693 0.178445 0.597986
-0.204201 0.323090 0.416578 -0.118137 0.693228 0.710959 0.216734 0.591128
-0.096435 0.353896 0.405920 -0.050966 0.686361 0.725455 0.208546 0.629276
-0.003733 0.380349 0.389373 0.019562 0.711173 0.702719 0.197919 0.663615
0.013633 0.431351 0.324973 0.091037 0.789087 0.607471 0.164418 0.670351
0.013548 0.466227 0.270698 0.165288 0.824183 0.541642 0.138928 0.669294
-0.471117 0.281822 0.149016 -0.824091 0.533494 -0.190313 0.137140 0.469233
-0.477772 0.242922 0.039187 -0.821436 0.570269 -0.001648 0.108973 0.438113
-0.484013 0.319992 0.279715 -0.852382 0.501633 -0.147618 0.170870 0.497549
-0.428648 0.305684 0.068034 -0.767479 0.621418 -0.157323 0.103717 0.472599
-0.442829 0.282437 0.036174 -0.751244 0.659749 0.018067 0.098353 0.457146
0.092369 0.429089 0.309695 0.175756 0.810327 0.558946 0.587114 0.374425
0.061323 0.462168 0.260123 0.163610 0.864040 0.476028 0.600221 0.354084
0.013548 0.466227 0.270698 0.165288 0.824183 0.541642 0.616624 0.357919
0.013633 0.431351 0.324973 0.091037 0.789087 0.607471 0.613477 0.381662
-0.003733 0.380349 0.389373 0.019562 0.711173 0.702719 0.613729 0.413410
0.061455 0.381170 0.381659 0.145665 0.721305 0.677084 0.592349 0.406940
0.461436 0.234693 -0.268063 0.606433 0.519120 -0.602283 0.742034 0.123855
0.355975 0.231389 -0.361216 0.511734 0.427381 -0.745262 0.722177 0.165070
0.595719 0.175010 -0.189386 0.635823 0.549181 -0.542283 0.784148 0.094100
0.581294 0.145875 -0.216583 0.607471 0.334697 -0.720359 0.790968 0.105805
0.506526 0.140685 -0.281865 0.613971 0.352824 -0.706046 0.781470 0.134134
0.405560 0.140661 -0.369669 0.557085 0.390667 -0.732810 0.762325 0.174281
0.276434 -0.376594 -0.053418 0.468734 -0.881436 -0.057466 0.713740 0.483786
0.265439 -0.371978 -0.109376 0.399609 -0.879147 -0.259560 0.728044 0.470973
0.328916 -0.336444 -0.136855 0.368755 -0.883724 -0.288095 0.750282 0.486076
0.354079 -0.327386 -0.125035 0.490249 -0.861110 -0.134465 0.752277 0.495583
0.378734 -0.308814 -0.128994 0.656667 -0.754021 -0.014740 0.760146 0.503260
0.344142 -0.335452 -0.065314 0.572100 -0.819880 -0.021943 0.734071 0.504157
0.333710 -0.345231 0.007578 0.520951 -0.852748 -0.037355 0.710982 0.515298
0.263843 -0.382231 0.026102 0.456313 -0.889584 0.019349 0.688505 0.495369
0.179414 -0.420899 0.047520 0.390942 -0.916257 0.087161 0.663874 0.470757
0.175379 -0.430993 -0.006424 0.413038 -0.910489 0.019471 0.678425 0.458764
0.153985 -0.436227 -0.072554 0.340953 -0.920194 -0.192175 0.692468 0.441482
0.286658 -0.060171 -0.436587 0.380871 -0.532731 -0.755699 0.896530 0.451933
0.184385 -0.086612 -0.469981 0.423231 -0.519517 -0.742241 0.892114 0.413691
0.224277 -0.009138 -0.500278 0.414960 -0.450423 -0.790490 0.926330 0.429137
0.320063 -0.001020 -0.459983 0.382458 -0.444258 -0.810114 0.922116 0.464818
0.416089 0.005215 -0.418842 0.388318 -0.458785 -0.799188 0.916226 0.499391
0.388511 -0.042053 -0.398686 0.376904 -0.542436 -0.750755 0.896367 0.489160
0.407886 -0.246608 0.283569 0.540269 -0.589892 0.600085 0.809812 0.804039
0.450509 -0.267594 0.227304 0.503861 -0.707602 0.495346 0.791541 0.817315
0.484041 -0.214742 0.250486 0.687613 -0.421247 0.591327 0.783205 0.796997
0.436280 -0.176517 0.311100 0.640950 -0.405377 0.651784 0.800052 0.775425
0.368320 -0.298561 0.262994 0.516678 -0.734764 0.439436 0.820482 0.826083
0.415736 -0.292399 0.206270 0.440321 -0.840968 0.314371 0.797901 0.831318
0.579465 0.045117 -0.106663 0.856990 -0.495468 -0.141484 0.842471 0.084978
0.546922 0.045122 -0.220379 0.826472 -0.469008 -0.311319 0.829613 0.123682
0.617696 0.115813 -0.159886 0.819483 -0.540574 -0.190222 0.808837 0.089934
0.622496 0.108850 -0.078997 0.891079 -0.452651 -0.032563 0.817139 0.067558
0.616667 0.109734 0.024024 0.945311 -0.297525 0.133580 0.823626 0.034993
0.594293 0.054002 0.019833 0.915433 -0.399274 0.050478 0.847494 0.041548
0.579465 0.045117 -0.106663 0.856990 -0.495468 -0.141484 0.875273 0.615953
0.594293 0.054002 0.019833 0.915433 -0.399274 0.050478 0.851874 0.653537
0.557120 -0.025971 0.003734 0.911069 -0.409497 -0.046999 0.826768 0.626151
0.524968 -0.043943 -0.136382 0.890683 -0.413495 -0.188849 0.848859 0.581351
0.487762 -0.043987 -0.259619 0.886166 -0.348003 -0.305856 0.871736 0.544683
0.546922 0.045122 -0.220379 0.826472 -0.469008 -0.311319 0.897123 0.581324
0.446555 -0.079012 -0.340595 0.676290 -0.445143 -0.586871 0.873246 0.510768
0.458477 -0.003783 -0.390905 0.684622 -0.440809 -0.580462 0.908234 0.514049
0.467355 0.008190 -0.376315 0.893918 -0.323985 -0.309671 0.910179 0.521077
0.470947 -0.015198 -0.338294 0.888150 -0.330912 -0.318796 0.895705 0.527364
0.461774 -0.124314 -0.263530 0.968566 -0.125767 -0.214515 0.844763 0.524332
0.464943 -0.169501 -0.253271 0.990020 0.020203 -0.139317 0.828814 0.517979
0.461933 -0.170759 -0.275577 0.765801 -0.325785 -0.554430 0.831795 0.512144
0.442947 -0.193699 -0.264492 0.270394 -0.644612 -0.715049 0.823032 0.506379
0.410956 -0.131240 -0.322921 0.326426 -0.566668 -0.756493 0.852251 0.496685
0.332567 0.096126 -0.441843 0.427045 0.443983 -0.787683 0.762404 0.214224
0.233692 0.095656 -0.486860 0.356700 0.400525 -0.843959 0.741230 0.245319
0.219593 0.166345 -0.458193 0.358806 0.413709 -0.836695 0.714652 0.227102
0.312842 0.156498 -0.419649 0.423322 0.403211 -0.811274 0.737912 0.201291
0.429795 0.081790 -0.385459 0.557543 0.493667 -0.667379 0.787625 0.183774
0.430842 0.051892 -0.413892 0.488632 0.503494 -0.712516 0.798407 0.195995
0.336675 0.056401 -0.459917 0.409680 0.362499 -0.837092 0.776783 0.225562
0.241157 0.052819 -0.503724 0.371899 0.319803 -0.871426 0.757231 0.256529
-0.315120 0.376741 0.351811 -0.154088 0.614429 0.773766 0.183158 0.560195
-0.320379 0.433099 0.309469 -0.206214 0.671957 0.711264 0.158939 0.561703
-0.314585 0.309210 0.406623 -0.151250 0.692282 0.705557 0.213539 0.555309
0.477995 -0.152524 -0.152623 0.932066 -0.352031 -0.085360 0.815118 0.547510
0.498680 -0.139516 -0.010516 0.892331 -0.440535 -0.098209 0.789164 0.588609
0.436454 -0.243297 -0.009073 0.824641 -0.554399 -0.112186 0.752863 0.554916
0.437256 -0.235211 -0.115219 0.848537 -0.528123 0.032197 0.780529 0.532151
0.450180 -0.231252 -0.188091 0.827326 -0.560961 0.028230 0.798992 0.518082
0.470157 -0.196067 -0.214726 0.968322 -0.248848 -0.019623 0.814791 0.522060
0.574576 0.059040 0.143407 0.935179 -0.252297 0.248421 0.351937 0.412796
0.594293 0.054002 0.019833 0.915433 -0.399274 0.050478 0.320872 0.383212
0.616667 0.109734 0.024024 0.945311 -0.297525 0.133580 0.339032 0.366215
0.592743 0.123611 0.130792 0.942778 -0.169958 0.286782 0.367645 0.389812
0.565962 0.144696 0.210703 0.891720 -0.140416 0.430189 0.392052 0.403607
0.543859 0.081751 0.225698 0.864681 -0.123234 0.486892 0.379772 0.427774
0.574576 0.059040 0.143407 0.935179 -0.252297 0.248421 0.687299 0.719616
0.543859 0.081751 0.225698 0.864681 -0.123234 0.486892 0.709998 0.695421
0.539244 0.041317 0.230024 0.878201 -0.048463 0.475784 0.720429 0.710249
0.547425 0.020918 0.205024 0.936613 -0.149297 0.316935 0.716573 0.722689
0.540133 -0.028370 0.192900 0.964141 -0.212470 0.158971 0.724636 0.743386
0.555398 -0.019354 0.118957 0.943388 -0.322031 0.079196 0.699838 0.753968
0.557120 -0.025971 0.003734 0.911069 -0.409497 -0.046999 0.667637 0.780105
0.594293 0.054002 0.019833 0.915433 -0.399274 0.050478 0.650291 0.745526
0.285449 0.466348 -0.114770 0.309519 0.882107 -0.355052 0.629792 0.073693
0.285835 0.495375 -0.029316 0.226203 0.930387 -0.288400 0.617374 0.044446
0.442240 0.232503 0.273876 0.552110 0.418287 0.721213 0.448194 0.401356
0.449152 0.293388 0.207839 0.649892 0.639119 0.411237 0.452422 0.368723
0.362047 0.217633 0.335042 0.543229 0.306589 0.781579 0.471931 0.425284
0.367381 0.141858 0.350951 0.560137 0.375652 0.738273 0.455283 0.452162
0.462993 0.152377 0.282307 0.470595 0.301737 0.829127 0.426295 0.426379
0.515628 0.168311 0.255931 0.379437 0.241890 0.893033 0.414789 0.410935
0.527379 0.198592 0.244338 0.514176 0.477767 0.712272 0.417382 0.398906
0.536885 0.213735 0.205894 0.669698 0.668325 0.323740 0.414324 0.385891
0.068203 -0.430517 -0.050543 -0.361339 -0.931303 0.045289 0.670615 0.419590
0.059673 -0.428563 -0.125312 -0.358043 -0.933622 -0.009827 0.691278 0.405019
0.095040 -0.442392 -0.055329 -0.367290 -0.929838 0.020997 0.677191 0.427402
0.103298 -0.444035 -0.001797 -0.362041 -0.922086 0.136479 0.664459 0.438600
0.113487 -0.433375 0.054212 -0.254311 -0.924650 0.283425 0.649975 0.450677
0.088917 -0.427316 0.042022 -0.334635 -0.919950 0.204077 0.648414 0.441201
0.068203 -0.430517 -0.050543 -0.361339 -0.931303 0.045289 0.692273 0.929099
0.088917 -0.427316 0.042022 -0.334635 -0.919950 0.204077 0.701113 0.959745
0.030637 -0.412864 0.034763 -0.229072 -0.965514 0.123630 0.680492 0.959035
0.007944 -0.410615 -0.091649 -0.286294 -0.958007 -0.014283 0.669096 0.917185
-0.009605 -0.397907 -0.242088 -0.380657 -0.921751 -0.073550 0.657521 0.866388
0.059673 -0.428563 -0.125312 -0.358043 -0.933622 -0.009827 0.687189 0.904277
0.492752 0.083670 0.293539 0.694693 0.190893 0.693503 0.402995 0.446448
0.543330 0.152212 0.249451 0.653981 0.042665 0.755272 0.404133 0.411099
0.383285 0.071796 0.395221 0.586718 0.415815 0.694845 0.440400 0.481880
0.385618 0.001214 0.441243 0.670309 0.174474 0.721244 0.429208 0.513924
0.469478 0.005262 0.341497 0.780358 0.062136 0.622211 0.395548 0.484050
0.492752 0.083670 0.293539 0.694693 0.190893 0.693503 0.736653 0.680366
0.469478 0.005262 0.341497 0.780358 0.062136 0.622211 0.769782 0.702917
0.511862 -0.020515 0.268890 0.853786 -0.070986 0.515702 0.747946 0.726554
0.522536 0.027578 0.254346 0.849025 -0.019959 0.527940 0.732588 0.710686
0.453732 -0.087014 0.338880 0.751274 -0.230781 0.618275 0.788623 0.738973
0.501762 -0.116836 0.265976 0.812983 -0.189795 0.550432 0.767385 0.762365
0.385618 0.001214 0.441243 0.670309 0.174474 0.721244 0.814358 0.687239
0.380887 -0.071885 0.432096 0.733818 -0.204993 0.647633 0.824200 0.718010
0.513783 -0.134678 0.103799 0.925962 -0.366222 -0.091861 0.725524 0.799554
0.498680 -0.139516 -0.010516 0.892331 -0.440535 -0.098209 0.696215 0.827659
0.521769 -0.133041 0.184733 0.969298 -0.244270 -0.026948 0.746553 0.782377
0.491586 -0.238100 0.172645 0.880520 -0.447859 -0.155065 0.768293 0.817175
0.462377 -0.243069 0.092446 0.838282 -0.502304 -0.212043 0.753155 0.838707
0.436454 -0.243297 -0.009073 0.824641 -0.554399 -0.112186 0.730154 0.866516
0.317351 -0.333649 0.256082 0.477737 -0.817347 0.321940 0.834939 0.842044
0.394297 -0.306163 0.197226 0.473708 -0.856716 0.203986 0.802288 0.839246
0.230691 -0.366738 0.286720 0.378185 -0.871822 0.311197 0.865628 0.853060
-0.447682 -0.223394 -0.089475 -0.478317 -0.627400 -0.614429 0.491012 0.927571
-0.413317 -0.190235 -0.145288 -0.656087 -0.568987 -0.495743 0.490255 0.901458
-0.372166 -0.301485 -0.057324 -0.416425 -0.802362 -0.427503 0.532484 0.942039
-0.404077 -0.326311 0.016021 -0.313242 -0.909421 -0.273446 0.529840 0.971304
-0.485960 -0.252824 -0.036165 -0.425703 -0.701376 -0.571673 0.489156 0.952751
-0.526472 -0.238865 0.143509 -0.839808 -0.530625 0.114566 0.141644 0.751749
-0.522828 -0.253284 0.041251 -0.736991 -0.675558 0.020356 0.138573 0.718754
-0.484567 -0.290912 0.070635 -0.687674 -0.724631 -0.044069 0.159585 0.723266
-0.487289 -0.293083 0.143993 -0.747032 -0.663930 0.032777 0.165128 0.745544
-0.486240 -0.281895 0.252169 -0.768395 -0.595538 0.234230 0.170541 0.777348
-0.512427 -0.225366 0.262305 -0.846706 -0.469649 0.249916 0.150723 0.788425
0.365466 -0.202591 -0.283209 0.307260 -0.634114 -0.709525 0.821623 0.482612
0.406995 -0.238792 -0.232672 0.309641 -0.702261 -0.641011 0.803237 0.498473
0.369906 -0.285353 -0.197378 0.360149 -0.725516 -0.586413 0.780733 0.490877
0.311865 -0.276524 -0.236479 0.343852 -0.691916 -0.634816 0.787381 0.469333
-0.068572 -0.357416 -0.312418 -0.547594 -0.776391 -0.311991 0.630264 0.842610
-0.062138 -0.310155 -0.391863 -0.647664 -0.559099 -0.517594 0.618398 0.810490
-0.026534 -0.339564 -0.419723 -0.582995 -0.572619 -0.576342 0.636673 0.803190
-0.027748 -0.380283 -0.347185 -0.560472 -0.784845 -0.264290 0.647291 0.830795
-0.081115 -0.376530 -0.212814 -0.363384 -0.916807 -0.165502 0.632142 0.878396
0.064113 -0.271835 -0.424900 0.602283 -0.473006 -0.642994 0.813370 0.367908
0.027000 -0.263416 -0.466432 0.533311 -0.447676 -0.717704 0.822585 0.350471
0.041850 -0.161816 -0.511051 0.468276 -0.445631 -0.762932 0.869226 0.357067
0.084852 -0.177486 -0.468815 0.525956 -0.473556 -0.706442 0.856743 0.375366
0.060108 -0.349053 -0.365099 0.606250 -0.601764 -0.519883 0.774744 0.370374
0.021285 -0.353924 -0.409512 0.488540 -0.639821 -0.593219 0.779302 0.350716
0.395194 -0.292256 -0.086015 0.726157 -0.687490 0.003662 0.755125 0.518847
0.415237 -0.272802 -0.154764 0.738212 -0.674276 -0.018677 0.778285 0.511395
0.386355 -0.305394 -0.003594 0.675344 -0.731590 -0.092990 0.729873 0.532525
-0.092596 -0.386667 -0.082375 -0.244728 -0.968017 -0.054842 0.633876 0.923567
-0.093480 -0.386469 0.047302 -0.184515 -0.980041 0.073794 0.637926 0.967257
-0.229777 -0.359998 0.058114 -0.169652 -0.985198 0.024079 0.591527 0.975928
-0.203165 -0.362211 -0.056331 -0.243294 -0.964171 -0.105502 0.595965 0.936510
0.116225 -0.408011 0.124840 -0.228248 -0.922605 0.310892 0.872131 0.923951
0.088917 -0.427316 0.042022 -0.334635 -0.919950 0.204077 0.864501 0.955343
0.113487 -0.433375 0.054212 -0.254311 -0.924650 0.283425 0.857880 0.947637
0.149556 -0.414868 0.126939 -0.150151 -0.942656 0.297983 0.861532 0.917809
0.175422 -0.393416 0.210077 -0.155187 -0.960845 0.229408 0.869732 0.886931
0.129449 -0.382475 0.205499 -0.216041 -0.943052 0.252815 0.884441 0.895263
0.116225 -0.408011 0.124840 -0.228248 -0.922605 0.310892 0.375090 0.721566
0.129449 -0.382475 0.205499 -0.216041 -0.943052 0.252815 0.377891 0.752510
0.055934 -0.368571 0.208346 -0.123203 -0.960448 0.249580 0.351244 0.754012
0.050187 -0.394756 0.128118 -0.160436 -0.952666 0.258187 0.351010 0.723413
0.030637 -0.412864 0.034763 -0.229072 -0.965514 0.123630 0.345029 0.689163
0.088917 -0.427316 0.042022 -0.334635 -0.919950 0.204077 0.366766 0.690568
0.251930 -0.336497 -0.197753 0.376141 -0.790826 -0.482772 0.756973 0.454737
0.347508 -0.312698 -0.175870 0.358135 -0.802759 -0.476699 0.766943 0.486289
0.142775 -0.385260 -0.208031 0.444685 -0.796808 -0.409009 0.736018 0.418461
0.083451 0.223951 -0.486682 0.312662 0.489181 -0.814173 0.665722 0.249324
0.003808 0.228750 -0.506216 0.123630 0.565691 -0.815271 0.645775 0.269488
0.182312 0.249133 -0.427984 0.319681 0.474471 -0.820124 0.679420 0.210918
0.117031 0.148354 -0.511691 0.358104 0.380322 -0.852687 0.697991 0.264108
0.029159 0.120056 -0.560213 0.343608 0.274728 -0.898007 0.687596 0.299489
0.010924 0.157787 -0.554001 0.272835 0.455031 -0.847621 0.671097 0.293419
-0.010140 0.177376 -0.545653 0.105350 0.586627 -0.802942 0.659664 0.292003
-0.074231 -0.374580 0.144621 -0.123783 -0.975158 0.183630 0.306462 0.729940
-0.093480 -0.386469 0.047302 -0.184515 -0.980041 0.073794 0.299597 0.695226
-0.057222 -0.357193 0.229833 -0.062258 -0.978332 0.197363 0.311381 0.760689
0.413828 -0.300663 0.079411 0.646992 -0.747215 -0.151738 0.770508 0.862139
0.386355 -0.305394 -0.003594 0.675344 -0.731590 -0.092990 0.755257 0.888709
0.448839 -0.288552 0.148760 0.623646 -0.776574 -0.089084 0.778539 0.838055
0.083402 -0.277870 0.491347 -0.194281 -0.840846 0.505173 0.942256 0.800477
0.137455 -0.280728 0.512443 -0.162603 -0.833125 0.528581 0.925511 0.790007
0.151242 -0.214059 0.605652 -0.140660 -0.672903 0.726188 0.930623 0.751334
0.089440 -0.215242 0.581521 -0.198737 -0.710227 0.675314 0.951033 0.759251
0.083402 -0.277870 0.491347 -0.194281 -0.840846 0.505173 0.351904 0.863117
0.089440 -0.215242 0.581521 -0.198737 -0.710227 0.675314 0.347368 0.905263
0.008964 -0.220915 0.554604 -0.079745 -0.732871 0.675649 0.320243 0.891950
0.011910 -0.280584 0.468982 -0.019440 -0.868404 0.495407 0.327596 0.852588
0.020284 -0.320423 0.379988 -0.037782 -0.940031 0.338908 0.334586 0.817191
0.082323 -0.329863 0.385924 -0.210334 -0.916745 0.339610 0.356881 0.819494
0.082323 -0.329863 0.385924 -0.210334 -0.916745 0.339610 0.927425 0.840812
0.128834 -0.341364 0.395743 -0.200781 -0.910428 0.361614 0.912173 0.833751
-0.068983 -0.215578 -0.461824 -0.544969 -0.459670 -0.701193 0.589107 0.774131
-0.079162 -0.113912 -0.513000 -0.429884 -0.369091 -0.823969 0.556702 0.741444
-0.019166 -0.137303 -0.530383 -0.308145 -0.358592 -0.881161 0.577797 0.732123
-0.024437 -0.242376 -0.482887 -0.442946 -0.426893 -0.788354 0.608092 0.767679
-0.390351 -0.161978 -0.265323 -0.942991 -0.270241 -0.194128 0.493144 0.860152
-0.380401 -0.165023 -0.308632 -0.914426 -0.240059 -0.325816 0.499658 0.847908
-0.376828 -0.209095 -0.280293 -0.939116 -0.267312 -0.215735 0.511646 0.861563
-0.379006 -0.226029 -0.236204 -0.946654 -0.302561 -0.110752 0.513884 0.875570
-0.382737 -0.216159 -0.201889 -0.947356 -0.310190 -0.079104 0.507864 0.884948
-0.397467 -0.163373 -0.218431 -0.925871 -0.335063 -0.174444 0.488679 0.874441
-0.419786 -0.089141 -0.248459 -0.870937 -0.426313 -0.244301 0.462707 0.855700
-0.408137 -0.091360 -0.289433 -0.876278 -0.393841 -0.277474 0.468929 0.843199
-0.383997 -0.108628 -0.331305 -0.853633 -0.313181 -0.416120 0.482410 0.832473
0.070080 -0.400530 -0.271705 0.449141 -0.811670 -0.373394 0.739488 0.385412
0.078270 -0.427801 -0.187370 0.186254 -0.950255 -0.249611 0.713068 0.401006
0.038450 -0.412182 -0.268072 0.081790 -0.972228 -0.219214 0.731801 0.376245
0.024769 -0.397752 -0.338989 0.273782 -0.893551 -0.355724 0.751534 0.361274
0.451922 0.343860 0.099854 0.725120 0.646321 0.237587 0.450150 0.327506
0.478974 0.329215 0.010341 0.784631 0.616962 0.060518 0.427172 0.305003
0.415810 0.416512 0.003753 0.807611 0.587970 0.044984 0.464651 0.283583
0.386858 0.450686 0.029490 0.708884 0.664724 0.235725 0.484183 0.283931
0.557097 0.213476 0.119514 0.767754 0.620380 0.160161 0.397401 0.363439
0.584268 0.196951 0.021685 0.792566 0.602771 0.092105 0.370857 0.341050
-0.322477 0.266073 -0.426336 -0.459761 0.481582 -0.746086 0.188987 0.220663
-0.239985 0.263125 -0.461063 -0.247322 0.502182 -0.828608 0.184121 0.248793
-0.266780 0.187599 -0.490652 -0.352702 0.229804 -0.907041 0.152191 0.239258
-0.339335 0.190652 -0.454772 -0.547197 0.185705 -0.816126 0.158767 0.214190
-0.325712 0.117850 -0.458783 -0.544023 -0.144292 -0.826533 0.129120 0.211110
-0.241842 0.113692 -0.502039 -0.405621 -0.106906 -0.907743 0.120128 0.242175
-0.201378 0.042467 -0.501562 -0.425062 -0.222022 -0.877499 0.085975 0.248398
-0.303571 0.044058 -0.447673 -0.519303 -0.244881 -0.818720 0.096044 0.207125
-0.438153 -0.040332 -0.292507 -0.765130 -0.432173 -0.477248 0.446642 0.835688
-0.390823 -0.080189 -0.342111 -0.791406 -0.288583 -0.538835 0.472795 0.824912
-0.439319 -0.053434 -0.251817 -0.673452 -0.674581 -0.302194 0.448076 0.850247
-0.481591 0.034673 -0.284876 -0.773766 -0.229011 -0.590594 0.413529 0.826916
0.145053 0.066271 -0.532609 0.304361 0.244606 -0.920591 0.731530 0.281018
0.058356 0.051386 -0.565515 0.311808 0.132237 -0.940886 0.716932 0.310590
0.190218 0.038875 -0.529845 0.276254 0.182958 -0.943480 0.750743 0.276284
0.172655 0.009887 -0.534369 0.213080 -0.112094 -0.970550 0.756575 0.289013
0.134600 -0.006777 -0.540425 0.317148 -0.165227 -0.933866 0.753836 0.303937
0.073029 -0.023500 -0.563451 0.352641 -0.151189 -0.923429 0.745542 0.326420
-0.107874 0.229862 -0.505198 -0.116001 0.512528 -0.850765 0.165859 0.294740
0.003808 0.228750 -0.506216 0.123630 0.565691 -0.815271 0.167015 0.335279
-0.010140 0.177376 -0.545653 0.105350 0.586627 -0.802942 0.139011 0.330785
-0.049227 0.159683 -0.559824 -0.118076 0.462539 -0.878658 0.128937 0.316499
-0.059589 0.123500 -0.567047 -0.286325 0.115726 -0.951109 0.112686 0.311084
-0.151703 0.160904 -0.531018 -0.274911 0.238258 -0.931455 0.134773 0.278362
0.066313 0.091266 0.580769 0.275704 0.467757 0.839717 0.552137 0.540140
0.158349 0.069645 0.554650 0.421491 0.386395 0.820368 0.518718 0.533740
0.154000 0.205160 0.492723 0.390728 0.469924 0.791498 0.540985 0.477593
0.066906 0.223828 0.503102 0.152135 0.532182 0.832820 0.571161 0.481268
-0.019047 0.224364 0.504184 0.089846 0.574114 0.813807 0.599141 0.489466
-0.026694 0.111881 0.589948 0.156133 0.551256 0.819575 0.585148 0.544011
-0.032686 0.013293 0.662745 0.178137 0.460952 0.869320 0.572637 0.591448
0.062493 -0.026676 0.643954 0.378338 0.368603 0.849086 0.535208 0.592171
0.156516 -0.082619 0.611383 0.451674 0.297861 0.840968 0.493727 0.596621
-0.132988 0.085380 -0.541829 -0.350352 -0.093570 -0.931913 0.100296 0.280284
-0.035812 0.055303 -0.569861 -0.260323 -0.095859 -0.960723 0.080506 0.314352
-0.008544 -0.018857 -0.566680 -0.236305 -0.160131 -0.958373 0.045184 0.317679
-0.095430 0.013285 -0.542048 -0.356487 -0.179693 -0.916837 0.065441 0.287263
0.125079 -0.074619 -0.514550 0.442793 -0.452010 -0.774316 0.903873 0.390177
0.065770 -0.084715 -0.544671 0.408277 -0.401013 -0.820032 0.904599 0.366492
0.073029 -0.023500 -0.563451 0.352641 -0.151189 -0.923429 0.931812 0.371534
0.134600 -0.006777 -0.540425 0.317148 -0.165227 -0.933866 0.934541 0.395726
0.172655 0.009887 -0.534369 0.213080 -0.112094 -0.970550 0.939626 0.410264
0.182609 -0.005791 -0.525674 0.363964 -0.375195 -0.852473 0.931906 0.413108
-0.082733 -0.045385 -0.536090 -0.372662 -0.242958 -0.895566 0.535515 0.720939
-0.095430 0.013285 -0.542048 -0.356487 -0.179693 -0.916837 0.514682 0.707406
-0.008544 -0.018857 -0.566680 -0.236305 -0.160131 -0.958373 0.544740 0.693391
-0.008432 -0.072927 -0.555917 -0.247353 -0.262154 -0.932768 0.561067 0.709291
0.268043 0.243908 -0.400343 0.360759 0.432844 -0.826106 0.699925 0.188412
-0.395649 -0.075558 0.552507 -0.427259 -0.477645 0.767632 0.168828 0.907852
-0.239945 -0.129677 0.585764 -0.264626 -0.536088 0.801569 0.227790 0.910883
-0.259356 -0.040257 0.635002 -0.260018 -0.478439 0.838710 0.209200 0.948773
-0.332843 -0.019937 0.620553 -0.431318 -0.362499 0.826136 0.181711 0.945968
-0.360166 0.003289 0.610778 -0.566210 -0.088870 0.819453 0.167683 0.949472
-0.419195 0.000495 0.569715 -0.476089 -0.094211 0.874325 0.146902 0.934598
-0.493493 -0.001358 0.537013 -0.398938 -0.092410 0.912290 0.122692 0.918758
-0.513473 -0.026364 0.520613 -0.475753 -0.429823 0.767357 0.121083 0.904451
0.513494 0.066755 -0.305611 0.823237 -0.011505 -0.567522 0.809559 0.149320
0.609734 0.125479 -0.200259 0.796136 -0.127171 -0.591571 0.801359 0.100063
0.513494 0.066755 -0.305611 0.823237 -0.011505 -0.567522 0.920037 0.557602
0.477731 0.041563 -0.381121 0.839595 0.173986 -0.514542 0.923332 0.526977
0.477731 0.041563 -0.381121 0.839595 0.173986 -0.514542 0.811559 0.180351
0.107910 -0.360578 0.291584 -0.226722 -0.950346 0.213019 0.905557 0.870164
0.155002 -0.373921 0.297316 -0.198248 -0.955870 0.216681 0.890002 0.862649
0.107910 -0.360578 0.291584 -0.226722 -0.950346 0.213019 0.368712 0.784174
0.037219 -0.346590 0.295377 -0.090670 -0.967620 0.235542 0.342966 0.785735
-0.073686 -0.297677 0.460342 0.083041 -0.852046 0.516770 0.298914 0.842276
-0.080871 -0.237831 0.539859 -0.029481 -0.705100 0.708457 0.291417 0.877899
-0.114189 -0.321373 0.427324 0.104251 -0.897702 0.428053 0.287203 0.826716
-0.096438 -0.327386 0.400322 0.188391 -0.935789 0.297952 0.293943 0.818399
-0.057537 -0.322725 0.390163 0.130284 -0.939116 0.317911 0.307398 0.817353
-0.064827 -0.340507 0.323187 0.014374 -0.980163 0.197607 0.307015 0.793222
-0.112747 -0.334813 0.381384 0.073672 -0.981079 0.178961 0.289310 0.811074
0.249217 0.250983 0.394344 0.500504 0.431410 0.750572 0.514700 0.436117
0.137120 0.296119 0.435301 0.334330 0.563555 0.755364 0.558196 0.438900
0.259270 0.168644 0.431547 0.545457 0.412854 0.729362 0.498539 0.468816
0.078731 -0.152621 0.630116 -0.124027 -0.510361 0.850948 0.956605 0.726521
0.140571 -0.163404 0.633603 -0.071657 -0.345347 0.935697 0.935352 0.730644
0.113547 -0.129267 0.639771 0.056520 -0.237770 0.969665 0.943865 0.715496
0.064655 -0.102056 0.652035 0.035646 -0.367382 0.929380 0.961352 0.702274
0.078731 -0.152621 0.630116 -0.124027 -0.510361 0.850948 0.336799 0.936233
0.064655 -0.102056 0.652035 0.035646 -0.367382 0.929380 0.326092 0.957895
-0.026662 -0.070753 0.667580 -0.071993 -0.455000 0.887570 0.291149 0.964221
-0.008157 -0.142137 0.622491 -0.106143 -0.572710 0.812830 0.305967 0.931873
0.267912 0.065138 0.487530 0.518754 0.409131 0.750664 0.480377 0.512591
0.276677 -0.033982 0.531413 0.559130 0.240944 0.793268 0.461594 0.553356
0.059128 0.316606 0.441430 0.119083 0.614307 0.779992 0.585541 0.439706
-0.013010 0.312604 0.443218 0.022401 0.619892 0.784326 0.608767 0.447556
0.287101 -0.103165 0.532320 0.701468 -0.070772 0.709128 0.873219 0.716584
0.276677 -0.033982 0.531413 0.559130 0.240944 0.793268 0.867761 0.686885
0.156516 -0.082619 0.611383 0.451674 0.297861 0.840968 0.922688 0.696223
0.205659 -0.145430 0.609922 0.607929 0.040315 0.792932 0.912265 0.725393
-0.139173 0.113367 0.606251 0.039979 0.551927 0.832911 0.330008 0.590313
-0.026694 0.111881 0.589948 0.156133 0.551256 0.819575 0.338048 0.630669
-0.019047 0.224364 0.504184 0.089846 0.574114 0.813807 0.279997 0.647134
-0.120900 0.206480 0.537471 0.065096 0.608539 0.790826 0.285312 0.608005
-0.154303 0.032321 0.658158 -0.030915 0.457991 0.888394 0.367644 0.574078
-0.032686 0.013293 0.662745 0.178137 0.460952 0.869320 0.387881 0.614426
-0.107542 0.284271 0.471150 0.001953 0.664205 0.747520 0.245721 0.620508
-0.013010 0.312604 0.443218 0.022401 0.619892 0.784326 0.234528 0.656652
-0.214892 0.255991 0.491682 -0.099094 0.709799 0.697378 0.252976 0.581749
-0.112582 -0.143180 0.608399 -0.136723 -0.559221 0.817652 0.271024 0.920778
-0.145981 -0.053675 0.656290 -0.179327 -0.465896 0.866451 0.248822 0.958198
-0.325484 0.252143 0.471270 -0.183813 0.708762 0.681051 0.242729 0.546336
-0.293508 -0.340787 -0.047129 -0.296579 -0.930021 -0.217017 0.564537 0.943401
-0.324596 -0.345314 0.045676 -0.195105 -0.978271 -0.069948 0.558922 0.975928
-0.529380 0.142185 0.455358 -0.604022 0.419599 0.677541 0.254726 0.468530
-0.546664 0.160178 0.423369 -0.723197 0.435743 0.535783 0.241700 0.465192
-0.571272 0.097562 0.435351 -0.759911 0.379406 0.527757 0.259361 0.446109
-0.566988 0.064520 0.463170 -0.705161 0.336894 0.623859 0.274689 0.442373
0.417050 -0.299523 0.164600 0.443342 -0.887448 0.125919 0.789656 0.841907
0.427814 -0.294654 0.168312 0.388653 -0.907895 0.157018 0.787642 0.838423
0.379497 -0.307155 -0.158261 0.547441 -0.797998 -0.251869 0.767402 0.497750
0.389717 -0.293935 -0.167162 0.562243 -0.762566 -0.319865 0.773480 0.500238
0.462372 0.028876 -0.408240 0.676809 0.003632 -0.736137 0.921541 0.515808
0.427797 0.031860 -0.424779 0.463301 0.004395 -0.886166 0.926475 0.505109
0.430842 0.051892 -0.413892 0.488632 0.503494 -0.712516 0.934187 0.510513
-0.554271 -0.002894 0.508609 -0.667135 -0.207587 0.715415 0.303679 0.434148
-0.563093 0.004976 0.493239 -0.814570 -0.119175 0.567644 0.297899 0.431899
-0.546781 -0.023241 0.489555 -0.691153 -0.590777 0.416211 0.308643 0.424783
-0.513473 -0.026364 0.520613 -0.475753 -0.429823 0.767357 0.320472 0.436428
-0.368443 -0.095851 -0.363876 -0.672842 -0.294076 -0.678762 0.483570 0.819820
-0.366717 -0.116814 -0.355025 -0.689291 -0.314951 -0.652425 0.489960 0.825916
-0.131436 -0.330986 0.409061 0.031739 -0.955504 0.293222 0.282419 0.819331
-0.163122 -0.329298 0.409142 -0.054567 -0.946318 0.318552 0.272556 0.818635
0.363248 0.487416 -0.001746 0.576189 0.816309 -0.040071 0.639655 0.026743
0.341524 0.493081 0.002057 0.367321 0.930052 -0.006134 0.631793 0.027843
0.363248 0.487416 -0.001746 0.576189 0.816309 -0.040071 0.495614 0.266896
0.341524 0.493081 0.002057 0.367321 0.930052 -0.006134 0.503551 0.266902
0.389950 0.450138 -0.026779 0.711844 0.670003 -0.210639 0.475345 0.266894
-0.414032 0.317861 0.034043 -0.787896 0.613330 0.054628 0.296899 0.090382
-0.428648 0.305684 0.068034 -0.767479 0.621418 -0.157323 0.298728 0.076147
-0.398569 0.345885 0.072725 -0.728111 0.662099 -0.177252 0.316224 0.087937
-0.392660 0.344085 0.031548 -0.740501 0.664174 0.102237 0.307160 0.099869
-0.442666 -0.061183 -0.232037 -0.670644 -0.585894 -0.454909 0.448468 0.857370
-0.429457 -0.092234 -0.221246 -0.768456 -0.468734 -0.435560 0.459881 0.864771
-0.538260 0.192840 -0.207548 -0.922117 0.268014 -0.279031 0.194703 0.119609
-0.525794 0.224997 -0.200254 -0.907315 0.364483 -0.209510 0.206912 0.125113
-0.599108 -0.180829 -0.030080 -0.893765 -0.339366 -0.293161 0.097640 0.707463
-0.584744 -0.151786 -0.056126 -0.830897 -0.085757 -0.549699 0.085867 0.699219
-0.555404 -0.185129 -0.056397 -0.477798 -0.531846 -0.699149 0.102226 0.692300
-0.575708 -0.202760 -0.024100 -0.669424 -0.680349 -0.298257 0.107939 0.705690
-0.047071 0.544888 -0.305406 0.131352 0.835902 -0.532884 0.534907 0.167423
-0.080887 0.546327 -0.295017 -0.051759 0.891720 -0.449568 0.524282 0.170225
-0.246267 0.479590 0.012639 -0.416211 0.894009 0.165838 0.361442 0.158117
-0.271545 0.460833 0.014125 -0.559832 0.810053 0.174322 0.353068 0.149087
-0.256422 0.466325 0.056244 -0.484542 0.874630 0.014191 0.367858 0.142082
-0.211704 0.485632 0.046262 -0.315622 0.945585 0.078890 0.379140 0.157364
0.205612 0.523510 0.034479 0.201086 0.977264 0.067080 0.553179 0.271195
0.230448 0.516768 0.028044 0.245247 0.968871 0.033326 0.543926 0.270298
0.205612 0.523510 0.034479 0.201086 0.977264 0.067080 0.582229 0.032098
0.230448 0.516768 0.028044 0.245247 0.968871 0.033326 0.591490 0.031581
0.185333 0.518317 0.070490 0.142521 0.957518 0.250618 0.571858 0.022142
0.048241 0.477681 0.235371 0.177587 0.888882 0.422254 0.605806 0.343917
0.013089 0.484463 0.239187 0.186377 0.898679 0.396985 0.618264 0.344667
0.641339 0.150373 -0.163114 0.922269 0.145940 -0.357860 0.797033 0.086366
0.640058 0.148576 -0.138008 0.987335 0.132725 -0.086703 0.798839 0.080401
0.466416 -0.207515 -0.242671 0.761956 -0.499466 -0.412183 0.816751 0.513753
0.453828 -0.222615 -0.228200 0.614673 -0.709403 -0.344798 0.809673 0.511940
0.559164 0.181753 0.233586 0.746971 0.334880 0.574297 0.406319 0.399019
0.570027 0.176576 0.205216 0.893826 0.309732 0.324168 0.399333 0.393779
0.534758 0.006425 0.233111 0.903378 -0.108798 0.414747 0.729240 0.723027
0.530352 -0.030772 0.231040 0.930754 -0.127262 0.342723 0.737048 0.737382
-0.022297 0.134690 -0.577403 0.014374 0.303446 -0.952727 0.671168 0.310659
-0.014716 0.110497 -0.577764 0.040773 0.106449 -0.993469 0.680973 0.315061
-0.022297 0.134690 -0.577403 0.014374 0.303446 -0.952727 0.115421 0.325937
-0.014716 0.110497 -0.577764 0.040773 0.106449 -0.993469 0.104012 0.326822
-0.049227 0.159683 -0.559824 -0.118076 0.462539 -0.878658 0.655918 0.307874
0.205683 0.024595 -0.527294 0.399121 -0.096103 -0.911832 0.943511 0.422967
0.190218 0.038875 -0.529845 0.276254 0.182958 -0.943480 0.950704 0.419029
0.241157 0.052819 -0.503724 0.371899 0.319803 -0.871426 0.952456 0.439814
0.241148 0.027900 -0.509397 0.428449 -0.080111 -0.899991 0.941923 0.436612
-0.308607 0.005536 0.644338 -0.326945 -0.033509 0.944426 0.185976 0.961802
-0.265592 0.001849 0.652604 -0.224952 -0.039369 0.973540 0.200876 0.966395
-0.308607 0.005536 0.644338 -0.326945 -0.033509 0.944426 0.359865 0.517133
-0.265592 0.001849 0.652604 -0.224952 -0.039369 0.973540 0.367396 0.531434
-0.335216 0.028009 0.624629 -0.434034 0.255806 0.863796 0.170757 0.964031
-0.413963 -0.310788 0.329285 -0.421491 -0.842616 0.335124 0.197756 0.794325
-0.463590 -0.308722 0.245025 -0.518845 -0.838740 0.165166 0.181126 0.772109
-0.331430 -0.318465 0.384939 -0.255043 -0.873501 0.414624 0.222182 0.809177
-0.436784 -0.283096 0.341044 -0.630177 -0.610157 0.480117 0.187509 0.801522
-0.368520 -0.170206 -0.332969 -0.697897 -0.363811 -0.616840 0.505102 0.841538
-0.370252 -0.226796 -0.289923 -0.693167 -0.577746 -0.430891 0.518511 0.860954
-0.238802 -0.324880 0.406330 -0.122135 -0.918546 0.375896 0.249393 0.816366
-0.368316 -0.257355 -0.218102 -0.733726 -0.659352 -0.163854 0.524453 0.882992
-0.374565 -0.244666 -0.166309 -0.813898 -0.565233 -0.134373 0.517485 0.898946
-0.457501 -0.319141 0.137812 -0.471511 -0.881832 0.000427 0.177707 0.740529
-0.453693 -0.312776 0.042611 -0.459517 -0.866207 -0.196112 0.170427 0.711409
-0.496152 0.311947 -0.177195 -0.903989 0.408338 -0.126530 0.239730 0.139612
-0.446981 0.414302 -0.163473 -0.817927 0.572253 -0.059053 0.273172 0.161551
-0.400851 -0.171510 -0.183347 -0.828639 -0.459304 -0.319956 0.488234 0.886297
-0.510167 -0.260362 -0.005615 -0.563158 -0.765099 -0.312143 0.139491 0.702789
-0.485960 -0.252824 -0.036165 -0.425703 -0.701376 -0.571673 0.140106 0.689163
-0.485020 0.329909 0.337377 -0.757561 0.610889 0.229926 0.184836 0.507567
-0.515609 0.257723 0.375338 -0.837581 0.485641 0.250160 0.208083 0.489131
-0.432516 0.392424 0.300851 -0.588000 0.776879 0.225043 0.164897 0.527246
-0.558727 0.164487 0.398266 -0.881771 0.413892 0.226081 0.234171 0.460451
-0.589453 0.078697 0.420990 -0.943297 0.214789 0.252968 0.259937 0.435657
-0.582865 0.028850 0.458341 -0.916227 -0.010559 0.400494 0.282218 0.429233
-0.577323 -0.001654 0.441519 -0.901852 -0.369915 0.223151 0.288327 0.416428
-0.375933 0.492671 -0.184189 -0.622669 0.774834 -0.109012 0.293649 0.186915
-0.284174 0.540618 -0.223055 -0.359691 0.902860 -0.235450 0.306218 0.213715
-0.172874 0.551703 -0.263782 -0.146153 0.924589 -0.351756 0.315916 0.245617
-0.080887 0.546327 -0.295017 -0.051759 0.891720 -0.449568 0.322748 0.277560
0.286505 0.504745 0.014612 0.243690 0.969665 0.018403 0.523518 0.268418
0.286505 0.504745 0.014612 0.243690 0.969665 0.018403 0.611876 0.029828
-0.332753 0.403704 0.022668 -0.658925 0.736198 0.154241 0.331072 0.123990
-0.329936 0.409587 0.066930 -0.633595 0.767663 -0.095889 0.343590 0.113947
-0.323650 0.456647 0.282229 -0.363018 0.875973 0.317576 0.147182 0.561410
-0.192669 0.500204 0.270162 -0.109989 0.920988 0.373730 0.134350 0.600593
-0.073818 0.500723 0.253299 0.116611 0.916807 0.381909 0.127558 0.636958
0.013089 0.484463 0.239187 0.186377 0.898679 0.396985 0.124863 0.668067
0.421378 -0.258588 -0.196753 0.554277 -0.757195 -0.345561 0.791661 0.506386
0.462613 -0.279552 0.190212 0.598132 -0.784631 0.162969 0.783459 0.825956
0.500642 -0.231964 0.214830 0.854335 -0.462539 0.236854 0.775760 0.807177
0.521101 -0.129636 0.226693 0.944578 -0.184484 0.271432 0.757261 0.773589
0.635066 0.141451 -0.068912 0.989166 0.133122 0.061464 0.805076 0.061969
0.621746 0.140587 0.025444 0.969970 0.185064 0.157628 0.811026 0.032235
0.595477 0.157575 0.126328 0.938108 0.262398 0.225929 0.376848 0.379395
0.621746 0.140587 0.025444 0.969970 0.185064 0.157628 0.348931 0.357588
0.068914 -0.432402 -0.154747 -0.149876 -0.983306 -0.103030 0.701779 0.403478
0.117234 -0.450722 -0.045742 -0.002258 -0.999268 -0.037416 0.678413 0.435557
0.068914 -0.432402 -0.154747 -0.149876 -0.983306 -0.103030 0.690023 0.894089
0.017664 -0.408181 -0.273440 -0.274300 -0.955962 -0.104068 0.667257 0.855148
0.017664 -0.408181 -0.273440 -0.274300 -0.955962 -0.104068 0.730417 0.368807
-0.002237 -0.392365 -0.360095 -0.185492 -0.908078 -0.375439 0.657137 0.826146
-0.003161 -0.352457 -0.426663 -0.053346 -0.696890 -0.715140 0.646104 0.800482
-0.002237 -0.392365 -0.360095 -0.185492 -0.908078 -0.375439 0.754587 0.349955
-0.003161 -0.352457 -0.426663 -0.053346 -0.696890 -0.715140 0.781654 0.340718
0.128345 -0.448833 0.011847 0.067598 -0.986267 0.150578 0.665367 0.447489
0.136474 -0.434592 0.056468 0.100406 -0.970580 0.218757 0.653622 0.457853
0.175851 -0.415851 0.126568 0.146092 -0.973601 0.175176 0.853531 0.913119
0.205952 -0.395910 0.210866 0.155614 -0.967528 0.199103 0.860547 0.881750
0.136474 -0.434592 0.056468 0.100406 -0.970580 0.218757 0.851235 0.942746
0.186251 -0.378068 0.298080 0.097842 -0.954802 0.280557 0.880395 0.858327
0.160072 -0.345241 0.397215 0.096286 -0.911435 0.399945 0.902453 0.830061
0.002520 -0.255959 -0.485092 0.062197 -0.475295 -0.877621 0.828087 0.340718
0.014174 -0.150846 -0.530653 0.095309 -0.418683 -0.903104 0.876544 0.346484
0.002520 -0.255959 -0.485092 0.062197 -0.475295 -0.877621 0.618571 0.765075
0.014174 -0.150846 -0.530653 0.095309 -0.418683 -0.903104 0.589748 0.728250
0.013019 0.045851 -0.577844 0.053926 0.006531 -0.998505 0.708771 0.324902
0.036461 -0.029322 -0.573008 0.092807 -0.157720 -0.983093 0.739438 0.338324
0.013019 0.045851 -0.577844 0.053926 0.006531 -0.998505 0.072981 0.331534
0.036461 -0.029322 -0.573008 0.092807 -0.157720 -0.983093 0.037369 0.333320
0.031167 -0.085094 -0.558618 0.105197 -0.343913 -0.933073 0.906744 0.353561
0.036461 -0.029322 -0.573008 0.092807 -0.157720 -0.983093 0.931404 0.357935
0.031167 -0.085094 -0.558618 0.105197 -0.343913 -0.933073 0.573957 0.703245
0.036461 -0.029322 -0.573008 0.092807 -0.157720 -0.983093 0.558375 0.685177
0.334621 0.030928 -0.466862 0.417035 -0.061312 -0.906796 0.935133 0.471627
0.336675 0.056401 -0.459917 0.409680 0.362499 -0.837092 0.945529 0.475954
0.170734 -0.280348 0.517277 0.207099 -0.828394 0.520402 0.915623 0.785552
0.185054 -0.210613 0.612040 0.327097 -0.563829 0.758324 0.921110 0.747878
0.169847 -0.163258 0.635278 0.290628 -0.106052 0.950926 0.926483 0.730777
0.127548 -0.123260 0.635740 0.281747 0.108249 0.953337 0.938481 0.713143
0.060591 -0.075596 0.662178 0.273415 -0.014191 0.961760 0.321671 0.969381
-0.033757 -0.033265 0.684810 0.072359 0.009369 0.997314 0.284174 0.980541
0.060591 -0.075596 0.662178 0.273415 -0.014191 0.961760 0.962785 0.689846
0.060591 -0.075596 0.662178 0.273415 -0.014191 0.961760 0.527629 0.612619
0.127548 -0.123260 0.635740 0.281747 0.108249 0.953337 0.496035 0.618219
-0.033757 -0.033265 0.684810 0.072359 0.009369 0.997314 0.565577 0.611555
-0.158230 -0.009267 0.673856 -0.134526 -0.012940 0.990814 0.238719 0.976471
-0.158230 -0.009267 0.673856 -0.134526 -0.012940 0.990814 0.386039 0.567155
-0.033757 -0.033265 0.684810 0.072359 0.009369 0.997314 0.409604 0.607899
-0.472023 -0.221045 0.358785 -0.719077 -0.523942 0.456496 0.166467 0.816738
3 0 1 2
3 0 2 3
3 0 3 4
3 0 4 5
3 0 5 6
3 0 6 7
3 0 7 8
3 0 8 1
3 9 10 11
3 9 11 12
3 9 12 13
3 9 13 14
3 9 14 15
3 9 15 16
3 9 16 17
3 9 17 10
3 18 19 20
3 18 20 21
3 18 21 22
3 18 22 23
3 18 23 24
3 18 24 25
3 18 25 26
3 18 26 19
3 27 28 29
3 27 29 30
3 27 30 31
3 27 31 32
3 27 32 33
3 27 33 34
3 27 34 35
3 27 35 36
3 27 36 37
3 27 37 28
3 38 39 40
3 38 40 41
3 38 41 42
3 38 42 43
3 38 43 44
3 38 44 45
3 38 45 46
3 38 46 39
3 47 48 49
3 47 49 50
3 47 50 51
3 47 51 52
3 47 52 53
3 47 53 54
3 47 54 55
3 47 55 48
3 56 57 58
3 56 58 59
3 56 59 60
3 56 60 61
3 56 61 62
3 56 62 63
3 56 63 64
3 56 64 65
3 56 65 66
3 56 66 67
3 56 67 68
3 56 68 57
3 69 70 71
3 69 71 72
3 69 72 73
3 69 73 74
3 69 74 75
3 69 75 76
3 69 76 77
3 69 77 70
3 78 79 80
3 78 80 81
3 78 81 82
3 78 82 83
3 78 83 84
3 78 84 85
3 78 85 86
3 78 86 79
3 87 7 6
3 87 6 88
3 87 88 89
3 87 89 90
3 87 90 91
3 87 91 92
3 87 92 8
3 87 8 7
3 93 94 95
3 93 95 96
3 93 96 97
3 93 97 98
3 93 98 99
3 93 99 100
3 93 100 101
3 93 101 94
3 102 103 104
3 102 104 105
3 102 105 106
3 102 106 107
3 102 107 108
3 102 108 109
3 102 109 110
3 102 110 111
3 102 111 112
3 102 112 103
3 113 114 115
3 113 115 116
3 113 116 117
3 113 117 118
3 113 118 119
3 113 119 120
3 113 120 121
3 113 121 114
3 122 123 124
3 122 124 125
3 122 125 126
3 122 126 127
3 122 127 128
3 122 128 129
3 122 129 130
3 122 130 131
3 122 131 132
3 122 132 123
3 133 134 135
3 133 135 136
3 133 136 124
3 133 124 123
3 133 123 132
3 133 132 137
3 133 137 138
3 133 138 139
3 133 139 140
3 133 140 134
3 141 142 143
3 141 143 144
3 141 144 145
3 141 145 146
3 141 146 4
3 141 4 3
3 141 3 2
3 141 2 147
3 141 147 148
3 141 148 142
3 149 150 151
3 149 151 152
3 149 152 153
3 149 153 154
3 149 154 155
3 149 155 156
3 149 156 157
3 149 157 150
3 158 159 160
3 158 160 161
3 158 161 162
3 158 162 163
3 158 163 164
3 158 164 165
3 158 165 166
3 158 166 167
3 158 167 168
3 158 168 159
3 169 118 117
3 169 117 170
3 169 170 171
3 169 171 172
3 169 172 173
3 169 173 174
3 169 174 119
3 169 119 118
3 175 176 177
3 175 177 178
3 175 178 82
3 175 82 179
3 175 179 180
3 175 180 181
3 175 181 182
3 175 182 183
3 175 183 184
3 175 184 185
3 175 185 186
3 175 186 176
3 187 109 108
3 187 108 188
3 187 188 22
3 187 22 189
3 187 189 190
3 187 190 191
3 187 191 110
3 187 110 109
3 192 193 194
3 192 194 195
3 192 195 196
3 192 196 197
3 192 197 198
3 192 198 199
3 192 199 200
3 192 200 193
3 201 202 203
3 201 203 204
3 201 204 40
3 201 40 39
3 201 39 46
3 201 46 205
3 201 205 206
3 201 206 202
3 207 208 198
3 207 198 209
3 207 209 210
3 207 210 211
3 207 211 212
3 207 212 213
3 207 213 214
3 207 214 215
3 207 215 216
3 207 216 208
3 217 218 140
3 217 140 139
3 217 139 138
3 217 138 219
3 217 219 73
3 217 73 72
3 217 72 71
3 217 71 218
3 220 221 222
3 220 222 223
3 220 223 224
3 220 224 225
3 220 225 226
3 220 226 227
3 220 227 228
3 220 228 229
3 220 229 230
3 220 230 231
3 220 231 196
3 220 196 221
3 232 233 234
3 232 234 235
3 232 235 55
3 232 55 54
3 232 54 53
3 232 53 236
3 232 236 237
3 232 237 238
3 232 238 239
3 232 239 233
3 240 241 130
3 240 130 129
3 240 129 128
3 240 128 242
3 240 242 243
3 240 243 244
3 240 244 245
3 240 245 246
3 240 246 247
3 240 247 241
3 248 249 77
3 248 77 76
3 248 76 75
3 248 75 250
3 248 250 251
3 248 251 252
3 248 252 253
3 248 253 249
3 254 255 256
3 254 256 257
3 254 257 258
3 254 258 259
3 254 259 222
3 254 222 221
3 254 221 196
3 254 196 195
3 254 195 194
3 254 194 255
3 260 261 247
3 260 247 246
3 260 246 245
3 260 245 262
3 260 262 162
3 260 162 161
3 260 161 160
3 260 160 261
3 263 264 265
3 263 265 266
3 263 266 267
3 263 267 268
3 263 268 269
3 263 269 270
3 263 270 40
3 263 40 204
3 263 204 203
3 263 203 271
3 263 271 272
3 263 272 264
3 273 274 275
3 273 275 276
3 273 276 277
3 273 277 278
3 273 278 279
3 273 279 280
3 273 280 281
3 273 281 274
3 282 283 157
3 282 157 156
3 282 156 155
3 282 155 284
3 282 284 51
3 282 51 50
3 282 50 49
3 282 49 285
3 282 285 286
3 282 286 283
3 287 270 269
3 287 269 288
3 287 288 289
3 287 289 290
3 287 290 291
3 287 291 292
3 287 292 42
3 287 42 41
3 287 41 40
3 287 40 270
3 293 294 200
3 293 200 199
3 293 199 198
3 293 198 208
3 293 208 216
3 293 216 295
3 293 295 296
3 293 296 297
3 293 297 298
3 293 298 294
3 299 300 301
3 299 301 302
3 299 302 303
3 299 303 304
3 299 304 305
3 299 305 306
3 299 306 307
3 299 307 308
3 299 308 309
3 299 309 300
3 310 311 312
3 310 312 313
3 310 313 314
3 310 314 315
3 310 315 13
3 310 13 12
3 310 12 11
3 310 11 311
3 316 317 318
3 316 318 319
3 316 319 95
3 316 95 94
3 316 94 101
3 316 101 320
3 316 320 321
3 316 321 317
3 322 323 324
3 322 324 325
3 322 325 326
3 322 326 327
3 328 329 330
3 328 330 331
3 328 331 332
3 328 332 333
3 334 315 314
3 334 314 335
3 334 335 336
3 334 336 337
3 334 337 332
3 334 332 338
3 334 338 339
3 334 339 340
3 334 340 341
3 334 341 342
3 334 342 13
3 334 13 315
3 343 344 345
3 343 345 346
3 343 346 298
3 343 298 347
3 343 347 348
3 343 348 349
3 343 349 350
3 343 350 344
3 351 352 86
3 351 86 85
3 351 85 84
3 351 84 353
3 351 353 277
3 351 277 276
3 351 276 275
3 351 275 352
3 354 338 332
3 354 332 331
3 354 331 330
3 354 330 355
3 354 355 356
3 354 356 357
3 354 357 358
3 354 358 359
3 354 359 339
3 354 339 338
3 360 361 362
3 360 362 363
3 360 363 364
3 360 364 365
3 366 367 368
3 366 368 369
3 366 369 370
3 366 370 371
3 366 371 372
3 366 372 373
3 374 197 196
3 374 196 231
3 374 231 230
3 374 230 375
3 374 375 210
3 374 210 209
3 374 209 198
3 374 198 197
3 376 377 46
3 376 46 45
3 376 45 44
3 376 44 378
3 376 378 379
3 376 379 380
3 376 380 381
3 376 381 382
3 376 382 383
3 376 383 377
3 384 385 386
3 384 386 387
3 384 387 388
3 384 388 389
3 390 391 392
3 390 392 393
3 390 393 394
3 390 394 395
3 396 365 364
3 396 364 397
3 396 397 381
3 396 381 380
3 396 380 379
3 396 379 398
3 396 398 399
3 396 399 400
3 401 402 403
3 401 403 404
3 401 404 368
3 401 368 367
3 405 406 403
3 405 403 402
3 405 402 407
3 405 407 408
3 405 408 95
3 405 95 319
3 405 319 318
3 405 318 406
3 409 410 372
3 409 372 371
3 409 371 370
3 409 370 411
3 409 411 412
3 409 412 413
3 409 413 414
3 409 414 410
3 415 34 33
3 415 33 416
3 415 416 321
3 415 321 320
3 415 320 101
3 415 101 100
3 415 100 99
3 415 99 417
3 415 417 35
3 415 35 34
3 418 419 91
3 418 91 420
3 418 420 421
3 418 421 422
3 418 422 62
3 418 62 61
3 418 61 60
3 418 60 419
3 423 424 425
3 423 425 426
3 423 426 427
3 423 427 428
3 423 428 108
3 423 108 107
3 423 107 106
3 423 106 424
3 429 14 13
3 429 13 342
3 429 342 341
3 429 341 430
3 429 430 431
3 429 431 432
3 429 432 15
3 429 15 14
3 433 434 435
3 433 435 436
3 433 436 394
3 433 394 437
3 433 437 89
3 433 89 88
3 433 88 6
3 433 6 434
3 438 439 440
3 438 440 441
3 438 441 11
3 438 11 10
3 438 10 17
3 438 17 442
3 438 442 443
3 438 443 439
3 444 445 358
3 444 358 357
3 444 357 356
3 444 356 446
3 444 446 305
3 444 305 304
3 444 304 303
3 444 303 445
3 447 437 394
3 447 394 393
3 447 393 392
3 447 392 448
3 447 448 449
3 447 449 450
3 447 450 89
3 447 89 437
3 451 452 453
3 451 453 454
3 451 454 455
3 451 455 456
3 457 458 459
3 457 459 460
3 457 460 461
3 457 461 462
3 463 16 15
3 463 15 432
3 463 432 431
3 463 431 464
3 463 464 301
3 463 301 300
3 463 300 309
3 463 309 465
3 463 465 17
3 463 17 16
3 466 467 256
3 466 256 255
3 466 255 194
3 466 194 468
3 466 468 345
3 466 345 469
3 466 469 470
3 466 470 471
3 466 471 472
3 466 472 467
3 473 474 461
3 473 461 460
3 473 460 459
3 473 459 475
3 473 475 117
3 473 117 116
3 473 116 115
3 473 115 474
3 476 477 414
3 476 414 413
3 476 413 412
3 476 412 478
3 476 478 31
3 476 31 30
3 476 30 29
3 476 29 477
3 479 480 481
3 479 481 482
3 483 484 485
3 483 485 486
3 483 486 487
3 483 487 488
3 479 489 490
3 479 490 480
3 491 5 4
3 491 4 492
3 491 492 493
3 491 493 494
3 491 494 435
3 491 435 434
3 491 434 6
3 491 6 5
3 495 496 497
3 495 497 498
3 495 498 499
3 495 499 500
3 495 500 501
3 495 501 502
3 495 502 503
3 495 503 496
3 504 442 17
3 504 17 465
3 504 465 309
3 504 309 505
3 504 505 506
3 504 506 507
3 504 507 443
3 504 443 442
3 508 509 510
3 508 510 511
3 508 511 206
3 508 206 205
3 508 205 46
3 508 46 377
3 508 377 383
3 508 383 512
3 508 512 513
3 508 513 509
3 514 218 71
3 514 71 70
3 514 70 77
3 514 77 515
3 514 515 516
3 514 516 517
3 514 517 140
3 514 140 218
3 518 134 140
3 518 140 517
3 518 517 516
3 518 516 519
3 518 519 520
3 518 520 521
3 518 521 135
3 518 135 134
3 522 142 148
3 522 148 523
3 522 523 503
3 522 503 502
3 522 502 501
3 522 501 524
3 522 524 58
3 522 58 57
3 522 57 68
3 522 68 525
3 522 525 143
3 522 143 142
3 526 527 470
3 526 470 469
3 526 469 345
3 526 345 344
3 526 344 350
3 526 350 528
3 526 528 529
3 526 529 530
3 526 530 531
3 526 531 527
3 532 515 77
3 532 77 249
3 532 249 253
3 532 253 533
3 532 533 534
3 532 534 535
3 532 535 536
3 532 536 537
3 532 537 516
3 532 516 515
3 538 539 540
3 538 540 541
3 538 541 542
3 538 542 543
3 538 543 544
3 538 544 545
3 538 545 546
3 538 546 539
3 547 519 516
3 547 516 537
3 547 537 536
3 547 536 548
3 547 548 549
3 547 549 550
3 547 550 520
3 547 520 519
3 551 552 553
3 551 553 554
3 551 554 555
3 551 555 556
3 551 556 312
3 551 312 311
3 551 311 11
3 551 11 441
3 551 441 440
3 551 440 552
3 557 146 145
3 557 145 558
3 557 558 559
3 557 559 560
3 557 560 493
3 557 493 492
3 557 492 4
3 557 4 146
3 561 468 194
3 561 194 193
3 561 193 200
3 561 200 294
3 561 294 298
3 561 298 346
3 561 346 345
3 561 345 468
3 562 563 564
3 562 564 565
3 562 565 566
3 562 566 567
3 562 567 568
3 562 568 569
3 562 569 190
3 562 190 189
3 562 189 22
3 562 22 21
3 562 21 20
3 562 20 563
3 570 347 298
3 570 298 297
3 570 297 296
3 570 296 571
3 570 571 324
3 570 324 323
3 572 333 332
3 572 332 337
3 572 337 336
3 572 336 573
3 570 574 348
3 570 348 347
3 575 456 455
3 575 455 576
3 575 576 490
3 575 490 489
3 577 488 487
3 577 487 578
3 577 578 459
3 577 459 458
3 579 486 485
3 579 485 580
3 579 580 20
3 579 20 19
3 579 19 26
3 579 26 581
3 579 581 582
3 579 582 583
3 579 583 487
3 579 487 486
3 584 475 459
3 584 459 578
3 584 578 487
3 584 487 583
3 584 583 582
3 584 582 585
3 584 585 171
3 584 171 170
3 584 170 117
3 584 117 475
3 586 378 44
3 586 44 43
3 586 43 42
3 586 42 587
3 586 587 540
3 586 540 588
3 586 588 379
3 586 379 378
3 589 590 591
3 589 591 592
3 593 594 595
3 593 595 596
3 593 596 485
3 593 485 484
3 589 482 481
3 589 481 590
3 597 398 379
3 597 379 588
3 597 588 540
3 597 540 539
3 597 539 546
3 597 546 598
3 597 598 399
3 597 399 398
3 599 587 42
3 599 42 292
3 599 292 291
3 599 291 600
3 599 600 542
3 599 542 541
3 599 541 540
3 599 540 587
3 601 408 407
3 601 407 602
3 601 602 603
3 601 603 604
3 601 604 97
3 601 97 96
3 601 96 95
3 601 95 408
3 605 606 607
3 605 607 608
3 605 608 177
3 605 177 176
3 605 176 186
3 605 186 609
3 605 609 610
3 605 610 606
3 611 612 279
3 611 279 278
3 611 278 277
3 611 277 613
3 611 613 177
3 611 177 608
3 611 608 607
3 611 607 612
3 614 596 595
3 614 595 615
3 614 615 564
3 614 564 563
3 614 563 20
3 614 20 580
3 614 580 485
3 614 485 596
3 616 613 277
3 616 277 353
3 616 353 84
3 616 84 83
3 616 83 82
3 616 82 178
3 616 178 177
3 616 177 613
3 617 90 89
3 617 89 450
3 617 450 449
3 617 449 618
3 617 618 421
3 617 421 420
3 617 420 91
3 617 91 90
3 619 620 621
3 619 621 622
3 619 622 180
3 619 180 179
3 619 179 82
3 619 82 81
3 619 81 80
3 619 80 620
3 623 32 31
3 623 31 624
3 623 624 321
3 623 321 416
3 623 416 33
3 623 33 32
3 625 464 431
3 625 431 626
3 625 626 303
3 625 303 302
3 625 302 301
3 625 301 464
3 627 335 314
3 627 314 628
3 627 628 629
3 627 629 573
3 627 573 336
3 627 336 335
3 630 181 180
3 630 180 631
3 630 631 632
3 630 632 633
3 630 633 182
3 630 182 181
3 634 147 2
3 634 2 635
3 634 635 503
3 634 503 523
3 634 523 148
3 634 148 147
3 636 581 26
3 636 26 637
3 636 637 171
3 636 171 585
3 636 585 582
3 636 582 581
3 638 211 210
3 638 210 639
3 640 641 206
3 640 206 511
3 640 511 510
3 640 510 642
3 643 644 645
3 643 645 646
3 643 646 245
3 643 245 244
3 643 244 243
3 643 243 644
3 647 524 501
3 647 501 648
3 647 648 60
3 647 60 59
3 647 59 58
3 647 58 524
3 649 131 130
3 649 130 650
3 649 650 138
3 649 138 137
3 649 137 132
3 649 132 131
3 651 652 653
3 651 653 654
3 651 654 106
3 651 106 105
3 651 105 104
3 651 104 652
3 655 259 258
3 655 258 656
3 655 656 224
3 655 224 223
3 655 223 222
3 655 222 259
3 657 163 162
3 657 162 658
3 657 658 659
3 657 659 660
3 657 660 164
3 657 164 163
3 661 271 203
3 661 203 662
3 663 664 230
3 663 230 229
3 663 229 228
3 663 228 665
3 666 268 267
3 666 267 667
3 666 667 289
3 666 289 288
3 666 288 269
3 666 269 268
3 668 295 216
3 668 216 669
3 668 669 324
3 668 324 571
3 668 571 296
3 668 296 295
3 670 359 358
3 670 358 671
3 670 671 341
3 670 341 340
3 670 340 339
3 670 339 359
3 672 397 364
3 672 364 673
3 672 673 383
3 672 383 382
3 672 382 381
3 672 381 397
3 674 404 403
3 674 403 675
3 674 675 370
3 674 370 369
3 674 369 368
3 674 368 404
3 676 471 470
3 676 470 677
3 678 679 536
3 678 536 535
3 676 680 472
3 676 472 471
3 681 682 683
3 681 683 684
3 681 684 312
3 681 312 556
3 681 556 555
3 681 555 682
3 685 565 564
3 685 564 686
3 687 688 186
3 687 186 185
3 685 689 566
3 685 566 565
3 690 691 119
3 690 119 174
3 690 174 173
3 690 173 692
3 690 692 24
3 690 24 693
3 690 693 427
3 690 427 691
3 694 635 2
3 694 2 1
3 694 1 8
3 694 8 695
3 694 695 497
3 694 497 496
3 694 496 503
3 694 503 635
3 696 637 26
3 696 26 25
3 696 25 24
3 696 24 692
3 696 692 173
3 696 173 172
3 696 172 171
3 696 171 637
3 697 695 8
3 697 8 92
3 697 92 91
3 697 91 698
3 697 698 499
3 697 499 498
3 697 498 497
3 697 497 695
3 699 700 121
3 699 121 120
3 699 120 119
3 699 119 691
3 699 691 427
3 699 427 426
3 699 426 425
3 699 425 700
3 701 650 130
3 701 130 241
3 701 241 247
3 701 247 702
3 701 702 73
3 701 73 219
3 701 219 138
3 701 138 650
3 703 698 91
3 703 91 419
3 703 419 60
3 703 60 648
3 703 648 501
3 703 501 500
3 703 500 499
3 703 499 698
3 704 700 425
3 704 425 424
3 704 424 106
3 704 106 654
3 704 654 653
3 704 653 705
3 704 705 121
3 704 121 700
3 706 707 80
3 706 80 79
3 706 79 86
3 706 86 708
3 706 708 51
3 706 51 284
3 706 284 155
3 706 155 707
3 709 710 621
3 709 621 620
3 709 620 80
3 709 80 707
3 709 707 155
3 709 155 154
3 709 154 153
3 709 153 710
3 711 631 180
3 711 180 622
3 711 622 621
3 711 621 710
3 711 710 153
3 711 153 712
3 711 712 632
3 711 632 631
3 713 702 247
3 713 247 261
3 713 261 160
3 713 160 714
3 713 714 75
3 713 75 74
3 713 74 73
3 713 73 702
3 715 714 160
3 715 160 159
3 715 159 168
3 715 168 716
3 715 716 251
3 715 251 250
3 715 250 75
3 715 75 714
3 717 662 203
3 717 203 202
3 717 202 206
3 717 206 641
3 718 639 210
3 718 210 375
3 718 375 230
3 718 230 664
3 719 646 645
3 719 645 720
3 719 720 659
3 719 659 658
3 719 658 162
3 719 162 262
3 719 262 245
3 719 245 646
3 721 708 86
3 721 86 352
3 721 352 275
3 721 275 722
3 721 722 53
3 721 53 52
3 721 52 51
3 721 51 708
3 723 722 275
3 723 275 274
3 723 274 281
3 723 281 724
3 723 724 237
3 723 237 236
3 723 236 53
3 723 53 722
3 725 671 358
3 725 358 445
3 725 445 303
3 725 303 626
3 725 626 431
3 725 431 430
3 725 430 341
3 725 341 671
3 726 727 318
3 726 318 317
3 726 317 321
3 726 321 624
3 726 624 31
3 726 31 478
3 726 478 412
3 726 412 727
3 728 675 403
3 728 403 406
3 728 406 318
3 728 318 727
3 728 727 412
3 728 412 411
3 728 411 370
3 728 370 675
3 729 730 326
3 729 326 325
3 729 325 324
3 729 324 669
3 729 669 216
3 729 216 215
3 729 215 214
3 729 214 730
3 731 673 364
3 731 364 363
3 731 363 362
3 731 362 732
3 731 732 513
3 731 513 512
3 731 512 383
3 731 383 673
3 733 734 386
3 733 386 385
3 735 395 394
3 735 394 736
3 733 737 506
3 733 506 505
3 733 505 309
3 733 309 734
3 738 736 394
3 738 394 436
3 738 436 435
3 738 435 739
3 740 741 443
3 740 443 507
3 740 507 506
3 740 506 737
3 742 743 388
3 742 388 387
3 742 387 386
3 742 386 734
3 742 734 309
3 742 309 308
3 742 308 307
3 742 307 743
3 744 745 455
3 744 455 454
3 744 454 453
3 744 453 746
3 744 746 37
3 744 37 36
3 744 36 35
3 744 35 745
3 747 748 490
3 747 490 576
3 747 576 455
3 747 455 745
3 747 745 35
3 747 35 417
3 747 417 99
3 747 99 748
3 749 750 440
3 749 440 439
3 749 439 443
3 749 443 741
3 751 739 435
3 751 435 494
3 751 494 493
3 751 493 752
3 753 677 470
3 753 470 527
3 753 527 531
3 753 531 754
3 755 756 549
3 755 549 548
3 755 548 536
3 755 536 679
3 757 758 553
3 757 553 552
3 757 552 440
3 757 440 750
3 759 752 493
3 759 493 560
3 759 560 559
3 759 559 760
3 761 628 314
3 761 314 313
3 761 313 312
3 761 312 684
3 761 684 683
3 761 683 762
3 761 762 629
3 761 629 628
3 763 764 481
3 763 481 480
3 763 480 490
3 763 490 748
3 763 748 99
3 763 99 98
3 763 98 97
3 763 97 764
3 765 766 591
3 765 591 590
3 765 590 481
3 765 481 764
3 765 764 97
3 765 97 604
3 765 604 603
3 765 603 766
3 767 768 595
3 767 595 594
3 769 592 591
3 769 591 766
3 770 771 546
3 770 546 545
3 770 545 544
3 770 544 772
3 773 686 564
3 773 564 615
3 773 615 595
3 773 595 768
3 774 775 610
3 774 610 609
3 774 609 186
3 774 186 688
3 776 428 427
3 776 427 693
3 776 693 24
3 776 24 23
3 776 23 22
3 776 22 188
3 776 188 108
3 776 108 428
